{
  "GroupGUID": "e9f9425b-b9c2-4975-a541-0c8ce1c0e2c4",
  "GroupName": "RogueDLC130_MainMonster",
  "Category": "Custom",
  "LevelGraph": "Config/Level/Maze/MazeRogue/Rogue130/RogueDLCModule_MainMonster.json",
  "AreaAnchorName": "LevelArea_P80208_F80208001_G74",
  "LoadSide": "Server",
  "LoadOnInitial": true,
  "ConflictIDList": [],
  "IsHoyoGroup": true,
  "ConflictSpatialInfo": {
    "CompactGridList": [
      14,
      -12
    ],
    "LowerUpperBounds": {
      "x": 77,
      "y": 78
    }
  },
  "StreamingSpatialInfo": {
    "CompactGridList": [
      14,
      -12
    ],
    "LowerUpperBounds": {
      "x": 77,
      "y": 78
    }
  },
  "ConflictWhiteList": [],
  "AnchorList": [],
  "MonsterList": [
    {
      "ID": 200005,
      "PosX": 28.42,
      "PosY": -31.04553,
      "PosZ": -22.96,
      "Name": "Monster5",
      "RotY": 180.0,
      "NPCMonsterID": 1002040,
      "AIConfig": {
        "PathwayList": [
          {
            "UseOwnerGroup": true,
            "UseGroup": 74,
            "UseID": 1,
            "StartAt": 1
          }
        ],
        "SlaveConfigList": []
      },
      "CampID": 3,
      "BattleArea": {
        "GroupID": 2,
        "ID": 1
      },
      "EventID": 99999011,
      "MapLayerID": 1,
      "BoardShowList": [
        4
      ],
      "DefaultLookAtMode": "Closed",
      "TagList": []
    }
  ],
  "PropList": [
    {
      "ID": 300001,
      "PosX": 28.42,
      "PosY": -31.04553,
      "PosZ": -22.96,
      "Name": "Buff",
      "RotY": 180.0,
      "PropID": 100,
      "IsOverrideInitLevelGraph": true,
      "InitLevelGraph": "Config/Level/Maze/MazeRogue/Maze_Rogue_Prop_TriggerBuffSelect.json",
      "Trigger": {
        "Radius": 2.0,
        "DimX": 1.0,
        "DimY": 1.0,
        "DimZ": 1.0,
        "PointList": []
      },
      "CampID": 4,
      "MapLayerID": 1,
      "CustomTriggerMap": {},
      "CustomTriggerMapV2": {},
      "BridgeStateRotations": [],
      "DialogueGroups": [],
      "TalkDialogGroupIDList": [],
      "ServerInteractVerificationIDList": [],
      "Dialog": {
        "PackList": []
      }
    },
    {
      "ID": 300002,
      "PosX": 28.42,
      "PosY": -31.04553,
      "PosZ": -22.96,
      "Name": "Prop2",
      "RotY": 180.0,
      "PropID": 100,
      "IsOverrideInitLevelGraph": true,
      "CampID": 4,
      "MapLayerID": 1,
      "CustomTriggerMap": {},
      "CustomTriggerMapV2": {},
      "BridgeStateRotations": [],
      "DialogueGroups": [],
      "TalkDialogGroupIDList": [],
      "ServerInteractVerificationIDList": [],
      "OverrideMapStateIcons": [
        {
          "IconID": 6
        }
      ]
    }
  ],
  "NPCList": []
}