{
  "GroupGUID": "6f1c6de8-ea92-459e-b9dc-fab5940f59a2",
  "GroupName": "RogueDLC130_SubMonster",
  "Category": "Custom",
  "LevelGraph": "Config/Level/Maze/MazeRogue/Rogue130/RogueDLCModule_SubMonster.json",
  "AreaAnchorName": "LevelArea_P80208_F80208001_G83",
  "LoadSide": "Server",
  "LoadOnInitial": true,
  "ConflictIDList": [],
  "IsHoyoGroup": true,
  "ConflictSpatialInfo": {
    "CompactGridList": [
      63,
      -16
    ],
    "LowerUpperBounds": {
      "x": 93,
      "y": 94
    }
  },
  "StreamingSpatialInfo": {
    "CompactGridList": [
      63,
      -20,
      63,
      -16
    ],
    "LowerUpperBounds": {
      "x": 93,
      "y": 94
    }
  },
  "ConflictWhiteList": [],
  "AnchorList": [],
  "MonsterList": [
    {
      "ID": 200001,
      "PosX": 126.73,
      "PosY": 0.60442,
      "PosZ": -31.51,
      "Name": "Monster1",
      "RotY": 255.0,
      "NPCMonsterID": 1002040,
      "AIConfig": {
        "PathwayList": [
          {
            "UseOwnerGroup": true,
            "UseGroup": 83,
            "UseID": 1
          }
        ],
        "SlaveConfigList": []
      },
      "CampID": 3,
      "BattleArea": {
        "GroupID": 2,
        "ID": 1
      },
      "EventID": 99999011,
      "MapLayerID": 1,
      "BoardShowList": [
        4
      ],
      "DefaultLookAtMode": "Closed",
      "TagList": []
    }
  ],
  "PropList": [
    {
      "ID": 300001,
      "PosX": 126.73,
      "PosY": 0.706205,
      "PosZ": -38.20466,
      "Name": "Buff",
      "RotY": 255.0,
      "PropID": 100,
      "IsOverrideInitLevelGraph": true,
      "InitLevelGraph": "Config/Level/Maze/MazeRogue/Maze_Rogue_Prop_TriggerBuffSelect.json",
      "Trigger": {
        "Radius": 2.0,
        "DimX": 1.0,
        "DimY": 1.0,
        "DimZ": 1.0,
        "PointList": []
      },
      "CampID": 4,
      "MapLayerID": 1,
      "CustomTriggerMap": {},
      "CustomTriggerMapV2": {},
      "BridgeStateRotations": [],
      "DialogueGroups": [],
      "TalkDialogGroupIDList": [],
      "ServerInteractVerificationIDList": []
    }
  ],
  "NPCList": []
}