{
  "GroupGUID": "b319b1b5-e9e5-436f-8b90-80c9633d8ea9",
  "GroupName": "RogueDLC130_SubMonster",
  "Category": "Custom",
  "LevelGraph": "Config/Level/Maze/MazeRogue/Rogue130/RogueDLCModule_SubMonster.json",
  "AreaAnchorName": "LevelArea_P80208_F80208001_G34",
  "LoadSide": "Server",
  "LoadOnInitial": true,
  "ConflictIDList": [],
  "IsHoyoGroup": true,
  "ConflictSpatialInfo": {
    "CompactGridList": [
      68,
      0
    ],
    "LowerUpperBounds": {
      "x": 97,
      "y": 98
    }
  },
  "StreamingSpatialInfo": {
    "CompactGridList": [
      68,
      0,
      67,
      1
    ],
    "LowerUpperBounds": {
      "x": 97,
      "y": 98
    }
  },
  "ConflictWhiteList": [],
  "AnchorList": [],
  "MonsterList": [
    {
      "ID": 200001,
      "PosX": 136.72,
      "PosY": 8.007725,
      "PosZ": 1.889999,
      "Name": "Monster1",
      "RotY": 220.3195,
      "NPCMonsterID": 1002040,
      "AIConfig": {
        "PathwayList": [],
        "SlaveConfigList": []
      },
      "CampID": 3,
      "BattleArea": {
        "GroupID": 2,
        "ID": 1
      },
      "EventID": 99999011,
      "MapLayerID": 1,
      "BoardShowList": [
        4
      ],
      "DefaultLookAtMode": "Closed",
      "TagList": []
    }
  ],
  "PropList": [
    {
      "ID": 300001,
      "PosX": 135.8251,
      "PosY": 8.11,
      "PosZ": 3.499,
      "Name": "Buff",
      "RotY": 220.3195,
      "PropID": 100,
      "IsOverrideInitLevelGraph": true,
      "InitLevelGraph": "Config/Level/Maze/MazeRogue/Maze_Rogue_Prop_TriggerBuffSelect.json",
      "Trigger": {
        "Radius": 2.0,
        "DimX": 1.0,
        "DimY": 1.0,
        "DimZ": 1.0,
        "PointList": []
      },
      "CampID": 4,
      "MapLayerID": 1,
      "CustomTriggerMap": {},
      "CustomTriggerMapV2": {},
      "BridgeStateRotations": [],
      "DialogueGroups": [],
      "TalkDialogGroupIDList": [],
      "ServerInteractVerificationIDList": []
    }
  ],
  "NPCList": []
}