{
  "GroupGUID": "d2586629-9dc6-49e9-b1f7-b0b9b52277dd",
  "GroupName": "Default_ChallengeChest",
  "LevelGraph": "Config/Level/Maze/MazeGroup/Maze_Group_OpenTreasure_WhenMonsterDie.json",
  "AreaAnchorName": "LevelArea_P20211_F20211001_G41",
  "LoadSide": "Server",
  "LoadOnInitial": true,
  "ValueSource": {},
  "ConflictIDList": [],
  "AnchorList": [],
  "MonsterList": [
    {
      "ID": 200001,
      "PosX": 80.36369,
      "PosY": 0.122116,
      "PosZ": 119.17,
      "Name": "Monster1",
      "RotY": 180.0,
      "NPCMonsterID": 8003050,
      "AIConfig": {
        "PathwayList": [],
        "SlaveConfigList": []
      },
      "ValueSource": {},
      "CampID": 3,
      "BattleArea": {
        "GroupID": 1,
        "ID": 1
      },
      "EventID": 20211231,
      "MapLayerID": 1,
      "BoardShowList": [
        4
      ],
      "TagList": [
        "ResistInstantKill"
      ]
    }
  ],
  "PropList": [
    {
      "ID": 300001,
      "PosX": 80.51057,
      "PosY": 0.122115,
      "PosZ": 122.18,
      "Name": "Prop1",
      "RotY": 180.0,
      "PropID": 60203,
      "IsOverrideInitLevelGraph": true,
      "InitLevelGraph": "Config/Level/Props/Chap01/InitLevelGraph_Prop_Chap01_TreasureBox_01.json",
      "ValueSource": {
        "Values": [
          {
            "$type": "SharedString",
            "Key": "MDString_HintTextmap",
            "Value": "MazeText_MazeCommon_ChestLockedHint2"
          }
        ]
      },
      "Trigger": {
        "Radius": 1.5,
        "DimX": 1.0,
        "DimY": 1.0,
        "DimZ": 1.0,
        "PointList": []
      },
      "CampID": 4,
      "State": "ChestLocked",
      "MapLayerID": 1,
      "CustomTriggerMap": {},
      "CustomTriggerMapV2": {},
      "BridgeStateRotations": [],
      "ChestID": 20211631,
      "DialogueGroups": [],
      "TalkDialogGroupIDList": [],
      "ServerInteractVerificationIDList": []
    },
    {
      "ID": 300002,
      "Name": "Prop2",
      "PropID": 100,
      "IsOverrideInitLevelGraph": true,
      "InitLevelGraph": "Config/Level/Maze/MazeGroup/Maze_GroupProp_OpenTreasure_WhenMonsterDie.json",
      "ValueSource": {
        "Values": [
          {
            "$type": "SharedFloat",
            "Key": "MazeDF_CurrentGroup",
            "Value": 41.0
          }
        ]
      },
      "CampID": 4,
      "MapLayerID": 1,
      "CustomTriggerMap": {},
      "CustomTriggerMapV2": {},
      "BridgeStateRotations": [],
      "DialogueGroups": [],
      "TalkDialogGroupIDList": [],
      "ServerInteractVerificationIDList": []
    },
    {
      "ID": 300003,
      "PosX": 80.51057,
      "PosY": 0.122115,
      "PosZ": 122.18,
      "Name": "Prop3",
      "RotY": 180.0,
      "PropID": 211,
      "IsOverrideInitLevelGraph": true,
      "InitLevelGraph": "Config/Level/Maze/MazeExtra/Maze_Prop_GameplayIcon.json",
      "ValueSource": {
        "Values": [
          {
            "$type": "SharedString",
            "Key": "Chest",
            "Value": "41,300001"
          }
        ]
      },
      "CampID": 4,
      "MapLayerID": 1,
      "CustomTriggerMap": {},
      "CustomTriggerMapV2": {},
      "BridgeStateRotations": [],
      "MappingInfoID": 10033,
      "DialogueGroups": [],
      "TalkDialogGroupIDList": [],
      "ServerInteractVerificationIDList": [],
      "OverrideMapStateIcons": [
        {
          "IconID": 87
        }
      ]
    }
  ],
  "NPCList": []
}