{
  "GroupGUID": "7fb8e3ff-da94-4194-8232-ad869444f68a",
  "GroupName": "MainMission8003240_06",
  "Category": "Mission",
  "AreaAnchorName": "LevelArea_P20211_F20211001_G205",
  "SaveType": "Reset",
  "UnloadCondition": {
    "Conditions": [
      {
        "Phase": "Finish",
        "ID": 8003240
      }
    ]
  },
  "OwnerMainMissionID": 8003240,
  "ConflictIDList": [],
  "IsHoyoGroup": true,
  "ConflictSpatialInfo": {
    "CompactGridList": [],
    "LowerUpperBounds": {}
  },
  "StreamingSpatialInfo": {
    "CompactGridList": [
      -11,
      13
    ],
    "LowerUpperBounds": {
      "x": 2047,
      "y": 2048
    }
  },
  "ConflictWhiteList": [],
  "AnchorList": [],
  "MonsterList": [],
  "PropList": [
    {
      "ID": 300001,
      "PosX": -20.32,
      "PosY": 4.848771,
      "PosZ": 26.82,
      "Name": "Prop1",
      "PropID": 102051,
      "IsOverrideInitLevelGraph": true,
      "CampID": 4,
      "MapLayerID": 1,
      "CustomTriggerMap": {},
      "CustomTriggerMapV2": {},
      "BridgeStateRotations": [],
      "DialogueGroups": [],
      "TalkDialogGroupIDList": [],
      "ServerInteractVerificationIDList": []
    }
  ],
  "NPCList": []
}