{
  "GroupGUID": "a8204c1f-99e9-40af-9196-857076454aa2",
  "GroupName": "MainMission8003240_01",
  "Category": "Mission",
  "LevelGraph": "Config/Level/GroupGraph/F20211001/Group_F20211001_G192.json",
  "AreaAnchorName": "LevelArea_P20211_F20211001_G192",
  "SaveType": "Reset",
  "OwnerMainMissionID": 8003240,
  "ConflictIDList": [],
  "IsHoyoGroup": true,
  "ConflictSpatialInfo": {
    "CompactGridList": [],
    "LowerUpperBounds": {}
  },
  "StreamingSpatialInfo": {
    "CompactGridList": [
      0,
      -15,
      0,
      0
    ],
    "LowerUpperBounds": {
      "x": 2044,
      "y": 2046
    }
  },
  "ConflictWhiteList": [],
  "AnchorList": [],
  "MonsterList": [],
  "PropList": [
    {
      "ID": 300001,
      "PosX": 1.15,
      "PosY": -1.117755,
      "PosZ": -29.71,
      "Name": "Prop1",
      "PropID": 100,
      "IsOverrideInitLevelGraph": true,
      "Trigger": {
        "Radius": 5.0,
        "DimX": 1.0,
        "DimY": 1.0,
        "DimZ": 1.0,
        "PointList": []
      },
      "CampID": 4,
      "MapLayerID": 1,
      "CustomTriggerMap": {},
      "CustomTriggerMapV2": {},
      "BridgeStateRotations": [],
      "DialogueGroups": [],
      "TalkDialogGroupIDList": [],
      "ServerInteractVerificationIDList": []
    },
    {
      "ID": 300002,
      "PosX": 1.48,
      "PosY": -1.147287,
      "PosZ": -28.98,
      "Name": "Prop2",
      "RotY": 180.0,
      "PropID": 102101,
      "IsOverrideInitLevelGraph": true,
      "Trigger": {
        "Radius": 1.5,
        "DimX": 1.0,
        "DimY": 1.0,
        "DimZ": 1.0,
        "PointList": []
      },
      "CampID": 4,
      "MapLayerID": 1,
      "CustomTriggerMap": {},
      "CustomTriggerMapV2": {},
      "BridgeStateRotations": [],
      "DialogueGroups": [],
      "TalkDialogGroupIDList": [],
      "ServerInteractVerificationIDList": []
    },
    {
      "ID": 300003,
      "Name": "CotrolDrone",
      "PropID": 100,
      "IsOverrideInitLevelGraph": true,
      "InitLevelGraph": "Config/Level/Maze/MazeTest/ControlDrone/Common/ControlDrone_Main.json",
      "ValueSource": {
        "Values": [
          {
            "$type": "SharedString",
            "Key": "PuzzleBoardPath",
            "Value": "Props/Outputs/Chap02/Chap02_ControlDrone/DronePuzzle_X101_Alley_01.prefab"
          },
          {
            "$type": "SharedString",
            "Key": "InitPuzzleNPC_Str"
          },
          {
            "$type": "SharedString",
            "Key": "ControllerNPC"
          },
          {
            "$type": "SharedString",
            "Key": "InitPuzzle_Str",
            "Value": "8003240_OnInit"
          },
          {
            "$type": "SharedString",
            "Key": "Controller",
            "Value": "192,300002"
          },
          {
            "$type": "SharedString",
            "Key": "StartPuzzle_Str",
            "Value": "8003240_OnStart"
          },
          {
            "$type": "SharedString",
            "Key": "ClosePuzzle_Str",
            "Value": "8003240_OnFinish"
          },
          {
            "$type": "SharedString",
            "Key": "InitPuzzle_Str_NoPre"
          },
          {
            "$type": "SharedString",
            "Key": "InitPuzzle_Str_InRaid"
          },
          {
            "$type": "SharedFloat",
            "Key": "IdentifyDistance"
          },
          {
            "$type": "SharedString",
            "Key": "CameraMode"
          },
          {
            "$type": "SharedString",
            "Key": "DroneFuncBtn",
            "Value": "3"
          }
        ]
      },
      "CampID": 4,
      "MapLayerID": 1,
      "CustomTriggerMap": {},
      "CustomTriggerMapV2": {},
      "BridgeStateRotations": [],
      "DialogueGroups": [],
      "TalkDialogGroupIDList": [],
      "ServerInteractVerificationIDList": []
    }
  ],
  "NPCList": []
}