{
  "GroupGUID": "1c732b4f-ac1a-4561-8c48-1614d4c03d23",
  "GroupName": "RogueDLC130_SubMonster",
  "Category": "Custom",
  "LevelGraph": "Config/Level/Maze/MazeRogue/Rogue130/RogueDLCModule_SubMonster.json",
  "AreaAnchorName": "LevelArea_P80200_F80200001_G42",
  "LoadSide": "Server",
  "LoadOnInitial": true,
  "ConflictIDList": [],
  "IsHoyoGroup": true,
  "ConflictSpatialInfo": {
    "CompactGridList": [
      -19,
      -56
    ],
    "LowerUpperBounds": {
      "x": 2047,
      "y": 2048
    }
  },
  "StreamingSpatialInfo": {
    "CompactGridList": [
      -19,
      -56
    ],
    "LowerUpperBounds": {
      "x": 2047,
      "y": 2048
    }
  },
  "ConflictWhiteList": [],
  "AnchorList": [],
  "MonsterList": [
    {
      "ID": 200001,
      "PosX": -37.16,
      "PosY": 5.562446,
      "PosZ": -110.84,
      "Name": "Monster1",
      "RotY": 74.99999,
      "NPCMonsterID": 1002040,
      "AIConfig": {
        "PathwayList": [],
        "SlaveConfigList": []
      },
      "CampID": 3,
      "BattleArea": {
        "GroupID": 1,
        "ID": 1
      },
      "EventID": 99999011,
      "MapLayerID": 1,
      "BoardShowList": [
        4
      ],
      "DefaultLookAtMode": "Closed",
      "TagList": []
    }
  ],
  "PropList": [
    {
      "ID": 300001,
      "PosX": -37.16,
      "PosY": 5.562446,
      "PosZ": -110.84,
      "Name": "Buff",
      "RotY": 74.99999,
      "PropID": 100,
      "IsOverrideInitLevelGraph": true,
      "InitLevelGraph": "Config/Level/Maze/MazeRogue/Maze_Rogue_Prop_TriggerBuffSelect.json",
      "Trigger": {
        "Radius": 2.0,
        "DimX": 1.0,
        "DimY": 1.0,
        "DimZ": 1.0,
        "PointList": []
      },
      "CampID": 4,
      "MapLayerID": 1,
      "CustomTriggerMap": {},
      "CustomTriggerMapV2": {},
      "BridgeStateRotations": [],
      "DialogueGroups": [],
      "TalkDialogGroupIDList": [],
      "ServerInteractVerificationIDList": []
    }
  ],
  "NPCList": []
}