{
  "GroupGUID": "e3c22ead-fd39-4b67-b05e-c741ccd46bbd",
  "GroupName": "MainMission2000902_03",
  "Category": "Mission",
  "AreaAnchorName": "LevelArea_P43002_F43002001_G9",
  "SaveType": "Reset",
  "OwnerMainMissionID": 2000902,
  "ValueSource": {},
  "ConflictIDList": [],
  "IsHoyoGroup": true,
  "HoYoGroupType": "Container",
  "ConflictSpatialInfo": {
    "CompactGridList": [
      -1,
      2,
      0,
      2
    ],
    "LowerUpperBounds": {
      "y": 1
    }
  },
  "StreamingSpatialInfo": {
    "CompactGridList": [
      -1,
      2,
      0,
      2
    ],
    "LowerUpperBounds": {
      "y": 1
    }
  },
  "ConflictWhiteList": [],
  "AnchorList": [
    {
      "ID": 1,
      "PosX": 2.36,
      "PosY": 2.0E-6,
      "Name": "Anchor1",
      "MapLayerID": 1
    }
  ],
  "MonsterList": [],
  "PropList": [
    {
      "ID": 300001,
      "PosX": -0.171265,
      "PosY": 1.0,
      "PosZ": 5.384901,
      "Name": "Prop1",
      "PropID": 100,
      "IsOverrideInitLevelGraph": true,
      "ValueSource": {},
      "Trigger": {
        "Radius": 2.0,
        "DimX": 1.0,
        "DimY": 1.0,
        "DimZ": 1.0,
        "PointList": []
      },
      "CampID": 4,
      "MapLayerID": 1,
      "CustomTriggerMap": {},
      "CustomTriggerMapV2": {},
      "BridgeStateRotations": [],
      "DialogueGroups": [],
      "TalkDialogGroupIDList": [],
      "ServerInteractVerificationIDList": [],
      "Dialog": {
        "LevelGraph": "Config/Level/PropDialogue/P43002/F43002001_G9/DialogueMain_F43002001_G9_P300001.json",
        "PackList": []
      },
      "InteractIconType": "ChatIcon",
      "InteractTitle": {
        "Hash": -347318505
      },
      "TriggerValidGuest": {},
      "SpawnConfig": {
        "EntitySpawnConfig": {}
      }
    }
  ],
  "NPCList": [
    {
      "ID": 400001,
      "PosX": 0.17,
      "PosY": 2.0E-6,
      "PosZ": 5.21,
      "Name": "NPC1",
      "RotY": 265.6295,
      "NPCID": 10206,
      "ValueSource": {},
      "DialogueGroups": [],
      "ServerInteractVerificationIDList": [],
      "DefaultLookAtMode": "Closed",
      "MapLayerID": 1,
      "BoardShowList": [
        1,
        64
      ],
      "TalkDialogGroupIDList": [],
      "DefaultIdleFreeStyleMotionID": 100020000,
      "InitialHiddenNodeList": [],
      "SpawnConfig": {
        "OverrideSpawn": true,
        "EntitySpawnConfig": {},
        "CaptureDistanceTolerance": 10.0
      },
      "TriggerValidGuest": {}
    },
    {
      "ID": 400002,
      "PosX": -1.04,
      "PosY": 2.0E-6,
      "PosZ": 5.14,
      "Name": "NPC2",
      "RotY": 91.14056,
      "NPCID": 10107,
      "ValueSource": {},
      "DialogueGroups": [],
      "ServerInteractVerificationIDList": [],
      "DefaultLookAtMode": "Closed",
      "MapLayerID": 1,
      "BoardShowList": [
        1,
        64
      ],
      "OverrideNPCTitle": {
        "Hash": -1987642313
      },
      "TalkDialogGroupIDList": [],
      "DefaultIdleFreeStyleMotionID": 100010000,
      "InitialHiddenNodeList": [],
      "SpawnConfig": {
        "OverrideSpawn": true,
        "EntitySpawnConfig": {},
        "CaptureDistanceTolerance": 10.0
      },
      "TriggerValidGuest": {}
    }
  ]
}