{
  "GroupGUID": "d0386522-5132-4b25-add6-64b6c479417a",
  "GroupName": "RogueDLC130_SwarmBoss",
  "Category": "Custom",
  "LevelGraph": "Config/Level/Maze/MazeRogue/Rogue130/RogueDLCModule_SwarmBossRoom.json",
  "AreaAnchorName": "LevelArea_P80209_F80209001_G32",
  "LoadSide": "Server",
  "LoadOnInitial": true,
  "ConflictIDList": [],
  "IsHoyoGroup": true,
  "ConflictSpatialInfo": {
    "CompactGridList": [
      20,
      21
    ],
    "LowerUpperBounds": {
      "x": 138,
      "y": 139
    }
  },
  "StreamingSpatialInfo": {
    "CompactGridList": [
      20,
      21
    ],
    "LowerUpperBounds": {
      "x": 138,
      "y": 139
    }
  },
  "ConflictWhiteList": [],
  "AnchorList": [],
  "MonsterList": [
    {
      "ID": 200001,
      "PosX": 40.01,
      "PosY": 60.37875,
      "PosZ": 42.33,
      "Name": "Monster1",
      "RotY": 270.0,
      "NPCMonsterID": 1002040,
      "AIConfig": {
        "AIFile": "Config/ConfigAI/Adventure/NPCMonster/ST_NPCMonster_Master_Dummy.json",
        "PathwayList": [],
        "SlaveConfigList": []
      },
      "CampID": 3,
      "BattleArea": {
        "GroupID": 20,
        "ID": 2
      },
      "EventID": 99999011,
      "MapLayerID": 1,
      "BoardShowList": [
        4
      ],
      "DefaultLookAtMode": "Closed",
      "TagList": []
    }
  ],
  "PropList": [
    {
      "ID": 300002,
      "PosX": 40.01,
      "PosY": 60.35591,
      "PosZ": 42.33,
      "Name": "Toast",
      "RotY": 285.0,
      "PropID": 100,
      "CampID": 4,
      "MapLayerID": 1,
      "CustomTriggerMap": {},
      "CustomTriggerMapV2": {},
      "BridgeStateRotations": [],
      "DialogueGroups": [],
      "TalkDialogGroupIDList": [],
      "ServerInteractVerificationIDList": []
    },
    {
      "ID": 300003,
      "PosX": 40.01,
      "PosY": 60.35591,
      "PosZ": 42.33,
      "Name": "Prop3",
      "RotY": 90.00001,
      "PropID": 100,
      "IsOverrideInitLevelGraph": true,
      "CampID": 4,
      "MapLayerID": 1,
      "CustomTriggerMap": {},
      "CustomTriggerMapV2": {},
      "BridgeStateRotations": [],
      "DialogueGroups": [],
      "TalkDialogGroupIDList": [],
      "ServerInteractVerificationIDList": [],
      "OverrideMapStateIcons": [
        {
          "IconID": 97
        }
      ]
    }
  ],
  "NPCList": []
}