{
  "GroupGUID": "7dbb51b5-e89d-4d50-b01b-09aa28ec2470",
  "GroupName": "RogueDLC130_Elite",
  "Category": "Custom",
  "LevelGraph": "Config/Level/Maze/MazeRogue/Rogue130/RogueDLCModule_EliteRoom.json",
  "AreaAnchorName": "LevelArea_P80209_F80209001_G65",
  "LoadSide": "Server",
  "LoadOnInitial": true,
  "ConflictIDList": [],
  "IsHoyoGroup": true,
  "ConflictSpatialInfo": {
    "CompactGridList": [
      3,
      21
    ],
    "LowerUpperBounds": {
      "x": 132,
      "y": 133
    }
  },
  "StreamingSpatialInfo": {
    "CompactGridList": [
      3,
      21
    ],
    "LowerUpperBounds": {
      "x": 132,
      "y": 133
    }
  },
  "ConflictWhiteList": [],
  "AnchorList": [],
  "MonsterList": [
    {
      "ID": 200001,
      "PosX": 7.050874,
      "PosY": 49.88006,
      "PosZ": 42.77,
      "Name": "Monster1",
      "RotY": 270.0,
      "NPCMonsterID": 1002040,
      "AIConfig": {
        "AIFile": "Config/ConfigAI/Adventure/NPCMonster/ST_NPCMonster_Master_Dummy.json",
        "PathwayList": [],
        "SlaveConfigList": []
      },
      "CampID": 3,
      "BattleArea": {
        "GroupID": 20,
        "ID": 1
      },
      "EventID": 99999011,
      "MapLayerID": 1,
      "BoardShowList": [
        4
      ],
      "TagList": []
    }
  ],
  "PropList": [
    {
      "ID": 300001,
      "PosX": 7.050874,
      "PosY": 49.88006,
      "PosZ": 42.77,
      "Name": "Buff",
      "RotY": 270.0,
      "PropID": 100,
      "IsOverrideInitLevelGraph": true,
      "InitLevelGraph": "Config/Level/Maze/MazeRogue/Maze_Rogue_Prop_TriggerBuffSelect.json",
      "Trigger": {
        "Radius": 2.0,
        "DimX": 1.0,
        "DimY": 1.0,
        "DimZ": 1.0,
        "PointList": []
      },
      "CampID": 4,
      "MapLayerID": 1,
      "CustomTriggerMap": {},
      "CustomTriggerMapV2": {},
      "BridgeStateRotations": [],
      "DialogueGroups": [],
      "TalkDialogGroupIDList": [],
      "ServerInteractVerificationIDList": []
    },
    {
      "ID": 300003,
      "PosX": 7.050874,
      "PosY": 49.88006,
      "PosZ": 42.77,
      "Name": "Prop3",
      "RotY": 270.0,
      "PropID": 100,
      "IsOverrideInitLevelGraph": true,
      "CampID": 4,
      "MapLayerID": 1,
      "CustomTriggerMap": {},
      "CustomTriggerMapV2": {},
      "BridgeStateRotations": [],
      "DialogueGroups": [],
      "TalkDialogGroupIDList": [],
      "ServerInteractVerificationIDList": [],
      "OverrideMapStateIcons": [
        {
          "IconID": 97
        }
      ]
    }
  ],
  "NPCList": []
}