{
  "GroupGUID": "aafaeaa1-2477-4061-b64d-751b2e6df4aa",
  "GroupName": "Default_ChallengeChest",
  "LevelGraph": "Config/Level/Maze/MazeGroup/Maze_Group_OpenTreasure_WhenMonsterDie.json",
  "AreaAnchorName": "LevelArea_P20122_F20122001_G4",
  "LoadSide": "Server",
  "LoadOnInitial": true,
  "ValueSource": {
    "Values": [
      {
        "$type": "SharedFloat",
        "Key": "MazeDF_CurrentGroup",
        "Value": 4.0
      }
    ]
  },
  "ConflictIDList": [],
  "AnchorList": [],
  "MonsterList": [
    {
      "ID": 200001,
      "PosX": -58.28,
      "PosY": -0.22,
      "PosZ": 74.68,
      "Name": "Monster1",
      "RotY": 315.0,
      "NPCMonsterID": 8003050,
      "AIConfig": {
        "SlaveConfigList": []
      },
      "ValueSource": {},
      "CampID": 3,
      "BattleArea": {
        "GroupID": 2,
        "ID": 1
      },
      "EventID": 20122232,
      "MapLayerID": 1,
      "BoardShowList": [
        4
      ],
      "TagList": [
        "ResistInstantKill"
      ]
    }
  ],
  "PropList": [
    {
      "ID": 300001,
      "PosX": -55.79,
      "PosY": -0.167883,
      "PosZ": 72.19,
      "Name": "Prop1",
      "RotY": 315.0,
      "PropID": 60103,
      "IsOverrideInitLevelGraph": true,
      "InitLevelGraph": "Config/Level/Props/Chap01/InitLevelGraph_Prop_Chap01_TreasureBox_02.json",
      "ValueSource": {
        "Values": [
          {
            "$type": "SharedString",
            "Key": "MDString_HintTextmap",
            "Value": "MazeText_MazeCommon_ChestLockedHint2"
          }
        ]
      },
      "Trigger": {
        "Radius": 1.5,
        "DimX": 1.0,
        "DimY": 1.0,
        "DimZ": 1.0,
        "PointList": []
      },
      "CampID": 4,
      "State": "ChestLocked",
      "MapLayerID": 1,
      "CustomTriggerMap": {},
      "CustomTriggerMapV2": {},
      "BridgeStateRotations": [],
      "ChestID": 20122632,
      "DialogueGroups": [],
      "TalkDialogGroupIDList": [],
      "ServerInteractVerificationIDList": []
    },
    {
      "ID": 300002,
      "Name": "Prop2",
      "PropID": 100,
      "IsOverrideInitLevelGraph": true,
      "InitLevelGraph": "Config/Level/Maze/MazeGroup/Maze_GroupProp_OpenTreasure_WhenMonsterDie.json",
      "ValueSource": {
        "Values": [
          {
            "$type": "SharedFloat",
            "Key": "MazeDF_CurrentGroup",
            "Value": 4.0
          }
        ]
      },
      "CampID": 4,
      "MapLayerID": 1,
      "CustomTriggerMap": {},
      "CustomTriggerMapV2": {},
      "BridgeStateRotations": [],
      "DialogueGroups": [],
      "TalkDialogGroupIDList": [],
      "ServerInteractVerificationIDList": []
    },
    {
      "ID": 300003,
      "PosX": -55.79,
      "PosY": -0.22,
      "PosZ": 72.19,
      "Name": "Prop3",
      "RotY": 315.0,
      "PropID": 211,
      "IsOverrideInitLevelGraph": true,
      "InitLevelGraph": "Config/Level/Maze/MazeExtra/Maze_Prop_GameplayIcon.json",
      "ValueSource": {
        "Values": [
          {
            "$type": "SharedString",
            "Key": "Chest",
            "Value": "4,300001"
          }
        ]
      },
      "CampID": 4,
      "MapLayerID": 1,
      "CustomTriggerMap": {},
      "CustomTriggerMapV2": {},
      "BridgeStateRotations": [],
      "MappingInfoID": 10035,
      "DialogueGroups": [],
      "TalkDialogGroupIDList": [],
      "ServerInteractVerificationIDList": [],
      "OverrideMapStateIcons": [
        {
          "IconID": 87
        }
      ]
    }
  ],
  "NPCList": []
}