{
  "GroupGUID": "13214930-1cab-4134-b2ea-877f6310032f",
  "GroupName": "RogueDLC130_Boss",
  "Category": "Custom",
  "LevelGraph": "Config/Level/Maze/MazeRogue/Rogue130/RogueDLCModule_BossRoom.json",
  "AreaAnchorName": "LevelArea_P80201_F80201001_G32",
  "LoadSide": "Server",
  "LoadOnInitial": true,
  "ConflictIDList": [],
  "IsHoyoGroup": true,
  "ConflictSpatialInfo": {
    "CompactGridList": [
      -49,
      -27
    ],
    "LowerUpperBounds": {
      "x": 90,
      "y": 91
    }
  },
  "StreamingSpatialInfo": {
    "CompactGridList": [
      -49,
      -27
    ],
    "LowerUpperBounds": {
      "x": 90,
      "y": 91
    }
  },
  "ConflictWhiteList": [],
  "AnchorList": [],
  "MonsterList": [
    {
      "ID": 200001,
      "PosX": -97.54745,
      "PosY": -1.113427,
      "PosZ": -52.41771,
      "Name": "Monster1",
      "RotY": 126.0137,
      "NPCMonsterID": 1002040,
      "AIConfig": {
        "AIFile": "Config/ConfigAI/Adventure/NPCMonster/ST_NPCMonster_Master_Dummy.json",
        "PathwayList": [],
        "SlaveConfigList": []
      },
      "CampID": 3,
      "BattleArea": {
        "GroupID": 2,
        "ID": 1
      },
      "EventID": 99999011,
      "MapLayerID": 2,
      "BoardShowList": [
        4
      ],
      "DefaultLookAtMode": "Closed",
      "TagList": []
    }
  ],
  "PropList": [
    {
      "ID": 300001,
      "PosX": -97.54745,
      "PosY": -1.113427,
      "PosZ": -52.41771,
      "Name": "Buff",
      "RotY": 291.0137,
      "PropID": 100,
      "IsOverrideInitLevelGraph": true,
      "InitLevelGraph": "Config/Level/Maze/MazeRogue/Maze_Rogue_Prop_TriggerBuffSelect.json",
      "Trigger": {
        "Radius": 2.0,
        "DimX": 1.0,
        "DimY": 1.0,
        "DimZ": 1.0,
        "PointList": []
      },
      "CampID": 4,
      "MapLayerID": 2,
      "CustomTriggerMap": {},
      "CustomTriggerMapV2": {},
      "BridgeStateRotations": [],
      "DialogueGroups": [],
      "TalkDialogGroupIDList": [],
      "ServerInteractVerificationIDList": []
    },
    {
      "ID": 300003,
      "PosX": -97.54745,
      "PosY": -1.113427,
      "PosZ": -52.41771,
      "Name": "Prop3",
      "RotY": 291.0137,
      "PropID": 100,
      "IsOverrideInitLevelGraph": true,
      "CampID": 4,
      "MapLayerID": 2,
      "CustomTriggerMap": {},
      "CustomTriggerMapV2": {},
      "BridgeStateRotations": [],
      "DialogueGroups": [],
      "TalkDialogGroupIDList": [],
      "ServerInteractVerificationIDList": [],
      "OverrideMapStateIcons": [
        {
          "IconID": 97
        }
      ]
    }
  ],
  "NPCList": []
}