{
  "GroupGUID": "ff6df594-e820-4ed4-9c5e-e8e69899d7ef",
  "GroupName": "RogueDLC130_MainMonster",
  "Category": "Custom",
  "LevelGraph": "Config/Level/Maze/MazeRogue/Rogue130/RogueDLCModule_MainMonster.json",
  "AreaAnchorName": "LevelArea_P80201_F80201001_G71",
  "LoadSide": "Server",
  "LoadOnInitial": true,
  "ConflictIDList": [],
  "IsHoyoGroup": true,
  "ConflictSpatialInfo": {
    "CompactGridList": [
      -22,
      -39
    ],
    "LowerUpperBounds": {
      "x": 100,
      "y": 101
    }
  },
  "StreamingSpatialInfo": {
    "CompactGridList": [
      -22,
      -39,
      -22,
      -37
    ],
    "LowerUpperBounds": {
      "x": 100,
      "y": 101
    }
  },
  "ConflictWhiteList": [],
  "AnchorList": [],
  "MonsterList": [
    {
      "ID": 200005,
      "PosX": -43.62,
      "PosY": 18.94203,
      "PosZ": -76.24,
      "Name": "Monster5",
      "RotY": 285.0,
      "NPCMonsterID": 1002040,
      "AIConfig": {
        "PathwayList": [
          {
            "UseOwnerGroup": true,
            "UseGroup": 71,
            "UseID": 1,
            "StartAt": 1
          }
        ],
        "SlaveConfigList": []
      },
      "CampID": 3,
      "BattleArea": {
        "GroupID": 2,
        "ID": 1
      },
      "EventID": 99999011,
      "MapLayerID": 3,
      "BoardShowList": [
        4
      ],
      "DefaultLookAtMode": "Closed",
      "TagList": []
    }
  ],
  "PropList": [
    {
      "ID": 300001,
      "PosX": -43.62,
      "PosY": 18.94203,
      "PosZ": -76.24,
      "Name": "Buff",
      "RotY": 285.0,
      "PropID": 100,
      "IsOverrideInitLevelGraph": true,
      "InitLevelGraph": "Config/Level/Maze/MazeRogue/Maze_Rogue_Prop_TriggerBuffSelect.json",
      "Trigger": {
        "Radius": 2.0,
        "DimX": 1.0,
        "DimY": 1.0,
        "DimZ": 1.0,
        "PointList": []
      },
      "CampID": 4,
      "MapLayerID": 3,
      "CustomTriggerMap": {},
      "CustomTriggerMapV2": {},
      "BridgeStateRotations": [],
      "DialogueGroups": [],
      "TalkDialogGroupIDList": [],
      "ServerInteractVerificationIDList": [],
      "Dialog": {
        "PackList": []
      }
    },
    {
      "ID": 300002,
      "PosX": -43.62,
      "PosY": 18.94203,
      "PosZ": -73.24,
      "Name": "Prop2",
      "RotY": 270.0,
      "PropID": 100,
      "IsOverrideInitLevelGraph": true,
      "CampID": 4,
      "MapLayerID": 3,
      "CustomTriggerMap": {},
      "CustomTriggerMapV2": {},
      "BridgeStateRotations": [],
      "DialogueGroups": [],
      "TalkDialogGroupIDList": [],
      "ServerInteractVerificationIDList": [],
      "OverrideMapStateIcons": [
        {
          "IconID": 6
        }
      ]
    }
  ],
  "NPCList": []
}