{
  "GroupGUID": "e06267cc-b199-4d0c-9bea-9e6c89a8db9f",
  "GroupName": "RogueDLC130_SubMonster",
  "Category": "Custom",
  "LevelGraph": "Config/Level/Maze/MazeRogue/Rogue130/RogueDLCModule_SubMonster.json",
  "AreaAnchorName": "LevelArea_P80201_F80201001_G50",
  "LoadSide": "Server",
  "LoadOnInitial": true,
  "ConflictIDList": [],
  "IsHoyoGroup": true,
  "ConflictSpatialInfo": {
    "CompactGridList": [
      -23,
      -30
    ],
    "LowerUpperBounds": {
      "x": 90,
      "y": 91
    }
  },
  "StreamingSpatialInfo": {
    "CompactGridList": [
      -23,
      -30
    ],
    "LowerUpperBounds": {
      "x": 90,
      "y": 91
    }
  },
  "ConflictWhiteList": [],
  "AnchorList": [],
  "MonsterList": [
    {
      "ID": 200001,
      "PosX": -44.632,
      "PosY": -1.54426,
      "PosZ": -58.572,
      "Name": "Monster1",
      "RotY": 165.0,
      "NPCMonsterID": 1002040,
      "AIConfig": {
        "PathwayList": [],
        "SlaveConfigList": []
      },
      "CampID": 3,
      "BattleArea": {
        "GroupID": 2,
        "ID": 1
      },
      "EventID": 99999011,
      "MapLayerID": 2,
      "BoardShowList": [
        4
      ],
      "DefaultLookAtMode": "Closed",
      "TagList": []
    }
  ],
  "PropList": [
    {
      "ID": 300001,
      "PosX": -44.632,
      "PosY": -1.54426,
      "PosZ": -58.572,
      "Name": "Buff",
      "RotY": 165.0,
      "PropID": 100,
      "IsOverrideInitLevelGraph": true,
      "InitLevelGraph": "Config/Level/Maze/MazeRogue/Maze_Rogue_Prop_TriggerBuffSelect.json",
      "Trigger": {
        "Radius": 2.0,
        "DimX": 1.0,
        "DimY": 1.0,
        "DimZ": 1.0,
        "PointList": []
      },
      "CampID": 4,
      "MapLayerID": 2,
      "CustomTriggerMap": {},
      "CustomTriggerMapV2": {},
      "BridgeStateRotations": [],
      "DialogueGroups": [],
      "TalkDialogGroupIDList": [],
      "ServerInteractVerificationIDList": []
    }
  ],
  "NPCList": []
}