{
  "GroupGUID": "7f338017-c731-49a6-bb33-398f7d22e864",
  "GroupName": "Default_ChallengeChest",
  "LevelGraph": "Config/Level/Maze/MazeGroup/Maze_Group_OpenTreasure_WhenMonsterDie.json",
  "AreaAnchorName": "LevelArea_P20001_F20001001_G11",
  "LoadCondition": {
    "Conditions": [
      {
        "Phase": "Finish",
        "ID": 1000401
      }
    ]
  },
  "LoadSide": "Server",
  "ValueSource": {
    "Values": [
      {
        "$type": "SharedFloat",
        "Key": "MazeDF_CurrentGroup",
        "Value": 11.0
      }
    ]
  },
  "ConflictIDList": [],
  "AnchorList": [],
  "MonsterList": [
    {
      "ID": 200001,
      "PosX": 39.76,
      "PosY": 0.1495,
      "PosZ": 186.24,
      "Name": "Monster1",
      "RotY": 300.0,
      "NPCMonsterID": 8012020,
      "AIConfig": {
        "PathwayList": [],
        "SlaveConfigList": []
      },
      "ValueSource": {},
      "CampID": 3,
      "BattleArea": {
        "GroupID": 2,
        "ID": 1
      },
      "InitialAnimState": "SpecialStandBy2",
      "EventID": 20001232,
      "MapLayerID": 1,
      "BoardShowList": [
        4
      ],
      "TagList": [
        "ResistInstantKill"
      ]
    },
    {
      "ID": 200002,
      "PosX": 41.2,
      "PosY": 0.1495,
      "PosZ": 193.52,
      "Name": "Monster2",
      "RotY": 240.0,
      "NPCMonsterID": 8012010,
      "AIConfig": {
        "PathwayList": [],
        "SlaveConfigList": []
      },
      "ValueSource": {},
      "CampID": 3,
      "BattleArea": {
        "GroupID": 2,
        "ID": 1
      },
      "InitialAnimState": "SpecialStandBy1",
      "EventID": 20001233,
      "MapLayerID": 1,
      "BoardShowList": [
        4
      ],
      "TagList": [
        "ResistInstantKill"
      ]
    }
  ],
  "PropList": [
    {
      "ID": 300001,
      "PosX": 49.61,
      "PosY": 0.147,
      "PosZ": 190.13,
      "Name": "Prop1",
      "RotY": 270.0,
      "PropID": 60003,
      "IsOverrideInitLevelGraph": true,
      "InitLevelGraph": "Config/Level/Props/Chap01/InitLevelGraph_Prop_Chap01_TreasureBox_01.json",
      "ValueSource": {
        "Values": [
          {
            "$type": "SharedString",
            "Key": "MDString_HintTextmap",
            "Value": "MazeText_MazeCommon_ChestLockedHint2"
          }
        ]
      },
      "CampID": 4,
      "State": "ChestLocked",
      "MapLayerID": 1,
      "CustomTriggerMap": {},
      "CustomTriggerMapV2": {},
      "BridgeStateRotations": [],
      "ChestID": 20001632,
      "DialogueGroups": [],
      "TalkDialogGroupIDList": [],
      "ServerInteractVerificationIDList": []
    },
    {
      "ID": 300002,
      "PosX": -14.6,
      "PosY": -10.033,
      "PosZ": 1831.2,
      "Name": "Prop2",
      "PropID": 100,
      "IsOverrideInitLevelGraph": true,
      "InitLevelGraph": "Config/Level/Maze/MazeGroup/Maze_GroupProp_OpenTreasure_WhenMonsterDie.json",
      "ValueSource": {
        "Values": [
          {
            "$type": "SharedFloat",
            "Key": "MazeDF_CurrentGroup",
            "Value": 11.0
          }
        ]
      },
      "CampID": 4,
      "MapLayerID": 1,
      "CustomTriggerMap": {},
      "CustomTriggerMapV2": {},
      "BridgeStateRotations": [],
      "DialogueGroups": [],
      "TalkDialogGroupIDList": [],
      "ServerInteractVerificationIDList": []
    },
    {
      "ID": 300003,
      "PosX": 48.53,
      "PosY": 0.147,
      "PosZ": 190.13,
      "Name": "GameplayIcon",
      "RotY": 270.0,
      "PropID": 211,
      "IsOverrideInitLevelGraph": true,
      "InitLevelGraph": "Config/Level/Maze/MazeExtra/Maze_Prop_GameplayIcon.json",
      "ValueSource": {
        "Values": [
          {
            "$type": "SharedString",
            "Key": "Chest",
            "Value": "11,300001"
          }
        ]
      },
      "CampID": 4,
      "MapLayerID": 1,
      "CustomTriggerMap": {},
      "CustomTriggerMapV2": {},
      "BridgeStateRotations": [],
      "MappingInfoID": 10025,
      "DialogueGroups": [],
      "TalkDialogGroupIDList": [],
      "ServerInteractVerificationIDList": [],
      "OverrideMapStateIcons": [
        {
          "IconID": 87
        }
      ]
    }
  ],
  "NPCList": []
}