{
  "GroupGUID": "aeef759d-bd5c-4f0f-96e6-90784fb798f2",
  "GroupName": "RogueOrigin_SubMonster",
  "Category": "Custom",
  "LevelGraph": "Config/Level/Maze/MazeRogue/RogueModule/RogueModule_SubMonster.json  ",
  "AreaAnchorName": "LevelArea_P81231_F81231001_G70",
  "LoadSide": "Server",
  "ValueSource": {},
  "ConflictIDList": [],
  "IsHoyoGroup": true,
  "ConflictSpatialInfo": {
    "CompactGridList": [
      23,
      -32
    ],
    "LowerUpperBounds": {
      "x": 207,
      "y": 208
    }
  },
  "StreamingSpatialInfo": {
    "CompactGridList": [
      23,
      -32
    ],
    "LowerUpperBounds": {
      "x": 207,
      "y": 208
    }
  },
  "ConflictWhiteList": [],
  "AnchorList": [],
  "MonsterList": [
    {
      "ID": 200001,
      "PosX": 46.47,
      "PosY": 42.42438,
      "PosZ": -63.35,
      "Name": "Monster1",
      "RotY": 270.0,
      "NPCMonsterID": 1002040,
      "AIConfig": {
        "SlaveConfigList": []
      },
      "ValueSource": {},
      "CampID": 3,
      "BattleArea": {
        "GroupID": 10,
        "ID": 1
      },
      "EventID": 99999011,
      "MapLayerID": 2,
      "BoardShowList": [
        4
      ],
      "DefaultLookAtMode": "Closed",
      "TagList": []
    }
  ],
  "PropList": [
    {
      "ID": 300001,
      "PosX": 46.47,
      "PosY": 42.42438,
      "PosZ": -63.35,
      "Name": "Buff",
      "RotY": 270.0,
      "PropID": 100,
      "IsOverrideInitLevelGraph": true,
      "InitLevelGraph": "Config/Level/Maze/MazeRogue/Maze_Rogue_Prop_TriggerBuffSelect.json",
      "ValueSource": {},
      "Trigger": {
        "Radius": 2.0,
        "DimX": 1.0,
        "DimY": 1.0,
        "DimZ": 1.0,
        "PointList": []
      },
      "CampID": 4,
      "MapLayerID": 2,
      "CustomTriggerMap": {},
      "CustomTriggerMapV2": {},
      "BridgeStateRotations": [],
      "DialogueGroups": [],
      "TalkDialogGroupIDList": [],
      "ServerInteractVerificationIDList": [],
      "TriggerValidGuest": {}
    }
  ],
  "NPCList": []
}