{
  "GroupGUID": "e725bb72-ae9d-49bc-ae6d-2bef1f63f358",
  "GroupName": "RogueOrigin_SubMonster",
  "Category": "Custom",
  "LevelGraph": "Config/Level/Maze/MazeRogue/RogueModule/RogueModule_SubMonster.json  ",
  "AreaAnchorName": "LevelArea_P81231_F81231001_G48",
  "LoadSide": "Server",
  "ValueSource": {
    "Values": []
  },
  "ConflictIDList": [],
  "IsHoyoGroup": true,
  "ConflictSpatialInfo": {
    "CompactGridList": [
      0,
      -43
    ],
    "LowerUpperBounds": {
      "x": 205,
      "y": 206
    }
  },
  "StreamingSpatialInfo": {
    "CompactGridList": [
      0,
      -43
    ],
    "LowerUpperBounds": {
      "x": 205,
      "y": 206
    }
  },
  "ConflictWhiteList": [],
  "AnchorList": [],
  "MonsterList": [
    {
      "ID": 200001,
      "PosX": 0.25,
      "PosY": 39.98709,
      "PosZ": -84.24,
      "Name": "Monster1",
      "RotY": 180.0,
      "NPCMonsterID": 1002040,
      "AIConfig": {
        "PathwayList": [
          {
            "UseOwnerGroup": true,
            "UseGroup": 48,
            "UseID": 1,
            "Type": "Reverse"
          }
        ],
        "SlaveConfigList": []
      },
      "ValueSource": {
        "Values": []
      },
      "CampID": 3,
      "BattleArea": {
        "GroupID": 10,
        "ID": 1
      },
      "EventID": 99999011,
      "MapLayerID": 2,
      "BoardShowList": [
        4
      ],
      "DefaultLookAtMode": "Closed",
      "TagList": []
    }
  ],
  "PropList": [
    {
      "ID": 300001,
      "PosX": 0.25,
      "PosY": 39.98709,
      "PosZ": -84.24,
      "Name": "Buff",
      "RotY": 180.0,
      "PropID": 100,
      "IsOverrideInitLevelGraph": true,
      "InitLevelGraph": "Config/Level/Maze/MazeRogue/Maze_Rogue_Prop_TriggerBuffSelect.json",
      "ValueSource": {},
      "Trigger": {
        "Radius": 2.0,
        "DimX": 1.0,
        "DimY": 1.0,
        "DimZ": 1.0,
        "PointList": []
      },
      "CampID": 4,
      "MapLayerID": 2,
      "CustomTriggerMap": {},
      "CustomTriggerMapV2": {},
      "BridgeStateRotations": [],
      "DialogueGroups": [],
      "TalkDialogGroupIDList": [],
      "ServerInteractVerificationIDList": [],
      "TriggerValidGuest": {}
    }
  ],
  "NPCList": []
}