{
  "GroupGUID": "97662a9b-c52c-481d-90e4-8f3471470030",
  "GroupName": "DefaultGroup",
  "AreaAnchorName": "LevelArea_P81221_F81221001_G7",
  "SaveType": "Reset",
  "SavedValueCondition": {
    "Operation": "And"
  },
  "LoadOnInitial": true,
  "ValueSource": {},
  "ConflictIDList": [],
  "IsHoyoGroup": true,
  "HoYoGroupType": "Container",
  "ConflictSpatialInfo": {
    "CompactGridList": [],
    "LowerUpperBounds": {}
  },
  "StreamingSpatialInfo": {
    "CompactGridList": [
      0,
      26
    ],
    "LowerUpperBounds": {
      "x": 73,
      "y": 74
    }
  },
  "ConflictWhiteList": [],
  "AnchorList": [],
  "MonsterList": [],
  "PropList": [
    {
      "ID": 300001,
      "PosX": 0.559,
      "PosY": 8.61,
      "PosZ": 53.911,
      "Name": "Prop1",
      "PropID": 102041,
      "IsOverrideInitLevelGraph": true,
      "InitLevelGraph": "Config/Level/Props/Chap02/InitLevelGraph_Prop_Chap02_HunTianYi_01.json",
      "ValueSource": {},
      "CampID": 4,
      "State": "Open",
      "MapLayerID": 2,
      "CustomTriggerMap": {},
      "CustomTriggerMapV2": {},
      "BridgeStateRotations": [],
      "DialogueGroups": [],
      "TalkDialogGroupIDList": [],
      "ServerInteractVerificationIDList": [],
      "StageObjectCapture": {
        "BlockAlias": "Chap02_CloseView_MAZ_X201_Part_B_BlockData",
        "PrefabAlias": "Part_B_HunTianYi_00"
      },
      "TriggerValidGuest": {}
    }
  ],
  "NPCList": []
}