{
  "GroupGUID": "ef2978a0-3256-4c90-b13f-0a403a227f35",
  "GroupName": "RogueOrigin_SubMonster",
  "Category": "Custom",
  "LevelGraph": "Config/Level/Maze/MazeRogue/RogueModule/RogueModule_SubMonster.json",
  "AreaAnchorName": "LevelArea_P81221_F81221001_G70",
  "LoadSide": "Server",
  "ValueSource": {},
  "ConflictIDList": [],
  "IsHoyoGroup": true,
  "ConflictSpatialInfo": {
    "CompactGridList": [
      -46,
      31
    ],
    "LowerUpperBounds": {
      "x": 66,
      "y": 67
    }
  },
  "StreamingSpatialInfo": {
    "CompactGridList": [
      -46,
      31
    ],
    "LowerUpperBounds": {
      "x": 66,
      "y": 67
    }
  },
  "ConflictWhiteList": [],
  "AnchorList": [],
  "MonsterList": [
    {
      "ID": 200001,
      "PosX": -90.52,
      "PosY": -4.222214,
      "PosZ": 63.07,
      "Name": "Monster1",
      "RotY": 180.0,
      "NPCMonsterID": 1002040,
      "AIConfig": {
        "PathwayList": [
          {
            "UseOwnerGroup": true,
            "UseGroup": 70,
            "UseID": 1,
            "Type": "Reverse"
          }
        ],
        "SlaveConfigList": []
      },
      "ValueSource": {},
      "CampID": 3,
      "BattleArea": {
        "GroupID": 7,
        "ID": 1
      },
      "EventID": 99999011,
      "MapLayerID": 1,
      "BoardShowList": [
        4
      ],
      "DefaultLookAtMode": "Closed",
      "TagList": []
    }
  ],
  "PropList": [
    {
      "ID": 300001,
      "PosX": -90.52,
      "PosY": -4.222214,
      "PosZ": 63.07,
      "Name": "Buff",
      "RotY": 180.0,
      "PropID": 100,
      "IsOverrideInitLevelGraph": true,
      "InitLevelGraph": "Config/Level/Maze/MazeRogue/Maze_Rogue_Prop_TriggerBuffSelect.json",
      "ValueSource": {},
      "Trigger": {
        "Radius": 2.0,
        "DimX": 1.0,
        "DimY": 1.0,
        "DimZ": 1.0,
        "PointList": []
      },
      "CampID": 4,
      "MapLayerID": 1,
      "CustomTriggerMap": {},
      "CustomTriggerMapV2": {},
      "BridgeStateRotations": [],
      "DialogueGroups": [],
      "TalkDialogGroupIDList": [],
      "ServerInteractVerificationIDList": [],
      "TriggerValidGuest": {}
    }
  ],
  "NPCList": []
}