{
  "GroupGUID": "f8817318-10d3-43ad-abaf-e9a757211acf",
  "GroupName": "RogueOrigin_SubMonster",
  "Category": "Custom",
  "LevelGraph": "Config/Level/Maze/MazeRogue/RogueModule/RogueModule_SubMonster.json",
  "AreaAnchorName": "LevelArea_P81221_F81221001_G54",
  "LoadSide": "Server",
  "ValueSource": {},
  "ConflictIDList": [],
  "IsHoyoGroup": true,
  "ConflictSpatialInfo": {
    "CompactGridList": [
      -40,
      -11
    ],
    "LowerUpperBounds": {
      "x": 69,
      "y": 70
    }
  },
  "StreamingSpatialInfo": {
    "CompactGridList": [
      -40,
      -11
    ],
    "LowerUpperBounds": {
      "x": 69,
      "y": 70
    }
  },
  "ConflictWhiteList": [],
  "AnchorList": [],
  "MonsterList": [
    {
      "ID": 200001,
      "PosX": -78.448,
      "PosY": 0.769131,
      "PosZ": -21.99,
      "Name": "Monster1",
      "RotY": 315.0,
      "NPCMonsterID": 1002040,
      "AIConfig": {
        "PathwayList": [
          {
            "UseOwnerGroup": true,
            "UseGroup": 54,
            "UseID": 1,
            "Type": "Reverse"
          }
        ],
        "SlaveConfigList": []
      },
      "ValueSource": {},
      "CampID": 3,
      "BattleArea": {
        "GroupID": 7,
        "ID": 1
      },
      "EventID": 99999011,
      "MapLayerID": 1,
      "BoardShowList": [
        4
      ],
      "DefaultLookAtMode": "Closed",
      "TagList": []
    }
  ],
  "PropList": [
    {
      "ID": 300001,
      "PosX": -78.448,
      "PosY": 0.769131,
      "PosZ": -21.99,
      "Name": "Buff",
      "RotY": 315.0,
      "PropID": 100,
      "IsOverrideInitLevelGraph": true,
      "InitLevelGraph": "Config/Level/Maze/MazeRogue/Maze_Rogue_Prop_TriggerBuffSelect.json",
      "ValueSource": {},
      "Trigger": {
        "Radius": 2.0,
        "DimX": 1.0,
        "DimY": 1.0,
        "DimZ": 1.0,
        "PointList": []
      },
      "CampID": 4,
      "MapLayerID": 1,
      "CustomTriggerMap": {},
      "CustomTriggerMapV2": {},
      "BridgeStateRotations": [],
      "DialogueGroups": [],
      "TalkDialogGroupIDList": [],
      "ServerInteractVerificationIDList": [],
      "TriggerValidGuest": {}
    }
  ],
  "NPCList": []
}