{
  "GroupGUID": "62b3a7dd-e0b6-47e6-87e6-f0d3eec7e524",
  "GroupName": "RogueOrigin_MainMonster",
  "Category": "Custom",
  "LevelGraph": "Config/Level/Maze/MazeRogue/RogueModule/RogueModule_MainMonster.json",
  "AreaAnchorName": "LevelArea_P81221_F81221001_G53",
  "LoadSide": "Server",
  "ValueSource": {},
  "ConflictIDList": [],
  "IsHoyoGroup": true,
  "ConflictSpatialInfo": {
    "CompactGridList": [
      -36,
      -16
    ],
    "LowerUpperBounds": {
      "x": 69,
      "y": 70
    }
  },
  "StreamingSpatialInfo": {
    "CompactGridList": [
      -36,
      -16
    ],
    "LowerUpperBounds": {
      "x": 69,
      "y": 70
    }
  },
  "ConflictWhiteList": [],
  "AnchorList": [],
  "MonsterList": [
    {
      "ID": 200005,
      "PosX": -70.08206,
      "PosY": 0.768826,
      "PosZ": -30.44793,
      "Name": "Monster5",
      "RotY": 315.0,
      "NPCMonsterID": 1002040,
      "AIConfig": {
        "PathwayList": [],
        "SlaveConfigList": []
      },
      "ValueSource": {},
      "CampID": 3,
      "BattleArea": {
        "GroupID": 7,
        "ID": 1
      },
      "EventID": 99999011,
      "MapLayerID": 1,
      "BoardShowList": [
        4
      ],
      "DefaultLookAtMode": "Closed",
      "TagList": []
    }
  ],
  "PropList": [
    {
      "ID": 300001,
      "PosX": -70.08208,
      "PosY": 0.769131,
      "PosZ": -30.44792,
      "Name": "Buff",
      "RotY": 315.0,
      "PropID": 100,
      "IsOverrideInitLevelGraph": true,
      "InitLevelGraph": "Config/Level/Maze/MazeRogue/Maze_Rogue_Prop_TriggerBuffSelect.json",
      "Trigger": {
        "Radius": 2.0,
        "DimX": 1.0,
        "DimY": 1.0,
        "DimZ": 1.0,
        "PointList": []
      },
      "CampID": 4,
      "MapLayerID": 1,
      "CustomTriggerMap": {},
      "CustomTriggerMapV2": {},
      "BridgeStateRotations": [],
      "DialogueGroups": [],
      "TalkDialogGroupIDList": [],
      "ServerInteractVerificationIDList": [],
      "Dialog": {
        "PackList": []
      }
    },
    {
      "ID": 300002,
      "PosX": -70.08208,
      "PosY": 0.769131,
      "PosZ": -30.44792,
      "Name": "Prop2",
      "RotY": 315.0,
      "PropID": 100,
      "IsOverrideInitLevelGraph": true,
      "CampID": 4,
      "MapLayerID": 1,
      "CustomTriggerMap": {},
      "CustomTriggerMapV2": {},
      "BridgeStateRotations": [],
      "DialogueGroups": [],
      "TalkDialogGroupIDList": [],
      "ServerInteractVerificationIDList": [],
      "OverrideMapStateIcons": [
        {
          "IconID": 6
        }
      ]
    }
  ],
  "NPCList": []
}