{
  "GroupGUID": "903bca50-d7d2-4a70-af11-7a07d436938a",
  "GroupName": "Default Group",
  "AreaAnchorName": "LevelArea_P44001_F44001002_G7",
  "SaveType": "Reset",
  "SavedValueCondition": {
    "Operation": "And"
  },
  "LoadOnInitial": true,
  "ValueSource": {},
  "ConflictIDList": [],
  "IsHoyoGroup": true,
  "HoYoGroupType": "Container",
  "AnchorList": [],
  "MonsterList": [],
  "PropList": [],
  "NPCList": []
}