{
  "GroupGUID": "b67af912-3df6-4e44-9271-9e9150561364",
  "GroupName": "AtmosphereGroup",
  "Category": "Atmosphere",
  "AreaAnchorName": "LevelArea_P20004_F20004001_G53",
  "SaveType": "Reset",
  "AtmosphereCondition": {
    "Conditions": [
      {
        "$type": "LevelGroupMissionSavedValueCondition",
        "MainMissionID": 200100139
      }
    ]
  },
  "LoadOnInitial": true,
  "ValueSource": {},
  "ConflictIDList": [],
  "IsHoyoGroup": true,
  "HoYoGroupType": "Container",
  "ConflictSpatialInfo": {
    "CompactGridList": [
      -1,
      -65,
      0,
      -65,
      -12,
      -62,
      -5,
      -57,
      0,
      -53,
      0,
      -52,
      -10,
      -47,
      -12,
      -45,
      -18,
      -44,
      -18,
      -43,
      -11,
      -43,
      -7,
      -43,
      -6,
      -43,
      -2,
      -43,
      -8,
      -42,
      -7,
      -42,
      -6,
      -42,
      -8,
      -41,
      -7,
      -41,
      -10,
      -40,
      -10,
      -39,
      -13,
      -37,
      -12,
      -37,
      -14,
      -36,
      -3,
      -26,
      -2,
      -26,
      -2,
      -25,
      20,
      16,
      23,
      16,
      24,
      16,
      18,
      17,
      20,
      17,
      23,
      17,
      24,
      17,
      17,
      19,
      21,
      19,
      21,
      23,
      22,
      23,
      21,
      24,
      22,
      24,
      12,
      28,
      12,
      29,
      30,
      33,
      30,
      35,
      31,
      35,
      29,
      36
    ],
    "LowerUpperBounds": {
      "x": 84,
      "y": 208
    }
  },
  "StreamingSpatialInfo": {
    "CompactGridList": [
      -1,
      -65,
      0,
      -65,
      -12,
      -62,
      -5,
      -57,
      0,
      -53,
      0,
      -52,
      -10,
      -47,
      -12,
      -45,
      -18,
      -44,
      -18,
      -43,
      -11,
      -43,
      -7,
      -43,
      -6,
      -43,
      -2,
      -43,
      -8,
      -42,
      -7,
      -42,
      -6,
      -42,
      -8,
      -41,
      -7,
      -41,
      -10,
      -40,
      -10,
      -39,
      -13,
      -37,
      -12,
      -37,
      -14,
      -36,
      -3,
      -26,
      -2,
      -26,
      -2,
      -25,
      20,
      16,
      23,
      16,
      24,
      16,
      18,
      17,
      20,
      17,
      23,
      17,
      24,
      17,
      19,
      18,
      17,
      19,
      21,
      19,
      21,
      23,
      22,
      23,
      21,
      24,
      22,
      24,
      12,
      28,
      12,
      29,
      30,
      33,
      30,
      35,
      31,
      35,
      29,
      36
    ],
    "LowerUpperBounds": {
      "x": 84,
      "y": 208
    }
  },
  "ConflictWhiteList": [
    56,
    57,
    73,
    63,
    64,
    76
  ],
  "AnchorList": [
    {
      "ID": 1,
      "PosX": -18.482,
      "PosY": 181.387,
      "PosZ": -77.208,
      "Name": "Anchor1",
      "MapLayerID": 2
    },
    {
      "ID": 2,
      "PosX": -24.098,
      "PosY": 181.444,
      "PosZ": -72.277,
      "Name": "Anchor2",
      "MapLayerID": 2
    },
    {
      "ID": 3,
      "PosX": -26.377,
      "PosY": 181.422,
      "PosZ": -70.458,
      "Name": "Anchor3",
      "MapLayerID": 2
    },
    {
      "ID": 4,
      "PosX": -12.832,
      "PosY": 181.483,
      "PosZ": -81.335,
      "Name": "Anchor4",
      "MapLayerID": 2
    },
    {
      "ID": 5,
      "PosX": -10.698,
      "PosY": 181.439,
      "PosZ": -83.178,
      "Name": "Anchor5",
      "MapLayerID": 2
    },
    {
      "ID": 6,
      "PosX": 40.809,
      "PosY": 172.3147,
      "PosZ": 33.093,
      "Name": "Anchor6",
      "MapLayerID": 2
    },
    {
      "ID": 7,
      "PosX": 47.984,
      "PosY": 172.5341,
      "PosZ": 33.475,
      "Name": "Anchor7",
      "MapLayerID": 2
    },
    {
      "ID": 8,
      "PosX": 45.029,
      "PosY": 172.3147,
      "PosZ": 48.267,
      "Name": "Anchor8",
      "MapLayerID": 2
    },
    {
      "ID": 9,
      "PosX": 34.613,
      "PosY": 172.3147,
      "PosZ": 38.763,
      "Name": "Anchor9",
      "MapLayerID": 2
    }
  ],
  "MonsterList": [],
  "PropList": [
    {
      "ID": 300003,
      "PosX": 61.216,
      "PosY": 169.972,
      "PosZ": 71.784,
      "Name": "Prop3",
      "PropID": 100,
      "IsOverrideInitLevelGraph": true,
      "InitLevelGraph": "Config/Level/CrowdBubble/MunicipalChat_Play_Template.json",
      "ValueSource": {
        "Values": [
          {
            "$type": "SharedString",
            "Key": "PlayMunicipalChatPath",
            "Value": "Config/Level/MunicipalChatConfig/F20004001/MunicipalChatConfig_F20004001_0002.json"
          },
          {
            "$type": "SharedString",
            "Key": "PlayMunicipalChatName",
            "Value": "MunicipalChatConfig_F20004001_0002"
          },
          {
            "$type": "SharedJsonConfigList",
            "Key": "PlayMunicipalChatCharacterList",
            "Value": [
              {
                "$type": "MunicipalChatEntityInfo",
                "UniqueName": "1",
                "GroupInstanceID": 400007
              },
              {
                "$type": "MunicipalChatEntityInfo",
                "UniqueName": "2",
                "GroupInstanceID": 400008
              }
            ]
          }
        ]
      },
      "Trigger": {
        "Radius": 3.5,
        "DimX": 1.0,
        "DimY": 1.0,
        "DimZ": 1.0,
        "PointList": []
      },
      "CampID": 4,
      "MapLayerID": 2,
      "CustomTriggerMap": {},
      "CustomTriggerMapV2": {},
      "BridgeStateRotations": [],
      "DialogueGroups": [],
      "TalkDialogGroupIDList": [],
      "ServerInteractVerificationIDList": [],
      "TriggerValidGuest": {},
      "SpawnConfig": {
        "EntitySpawnConfig": {}
      }
    },
    {
      "ID": 300004,
      "PosX": 61.216,
      "PosY": 169.972,
      "PosZ": 71.784,
      "Name": "Prop4",
      "PropID": 100,
      "IsOverrideInitLevelGraph": true,
      "InitLevelGraph": "Config/Level/CrowdBubble/Crowd_Conversation_Template.json",
      "ValueSource": {
        "Values": [
          {
            "$type": "SharedString",
            "Key": "PlayPerformanceE",
            "Value": "500500201"
          }
        ]
      },
      "Trigger": {
        "Radius": 2.0,
        "DimX": 1.0,
        "DimY": 1.0,
        "DimZ": 1.0,
        "PointList": []
      },
      "CampID": 4,
      "MapLayerID": 2,
      "CustomTriggerMap": {},
      "CustomTriggerMapV2": {},
      "BridgeStateRotations": [],
      "DialogueGroups": [],
      "TalkDialogGroupIDList": [],
      "ServerInteractVerificationIDList": [],
      "TriggerValidGuest": {},
      "SpawnConfig": {
        "EntitySpawnConfig": {}
      }
    },
    {
      "ID": 300024,
      "PosX": 61.216,
      "PosY": 169.972,
      "PosZ": 71.784,
      "Name": "Prop24",
      "PropID": 100,
      "IsOverrideInitLevelGraph": true,
      "InitLevelGraph": "Config/Level/CrowdBubble/MunicipalChat_Stop_Template.json",
      "ValueSource": {
        "Values": [
          {
            "$type": "SharedString",
            "Key": "StopMunicipalChatName",
            "Value": "MunicipalChatConfig_F20004001_0002"
          }
        ]
      },
      "Trigger": {
        "Radius": 5.0,
        "DimX": 1.0,
        "DimY": 1.0,
        "DimZ": 1.0,
        "PointList": []
      },
      "CampID": 4,
      "MapLayerID": 2,
      "CustomTriggerMap": {},
      "CustomTriggerMapV2": {},
      "BridgeStateRotations": [],
      "DialogueGroups": [],
      "TalkDialogGroupIDList": [],
      "ServerInteractVerificationIDList": [],
      "TriggerValidGuest": {},
      "SpawnConfig": {
        "EntitySpawnConfig": {}
      }
    },
    {
      "ID": 300001,
      "PosX": -20.728,
      "PosY": 181.617,
      "PosZ": -85.148,
      "Name": "Prop1",
      "PropID": 100,
      "IsOverrideInitLevelGraph": true,
      "InitLevelGraph": "Config/Level/CrowdBubble/MunicipalChat_Play_Template.json",
      "ValueSource": {
        "Values": [
          {
            "$type": "SharedString",
            "Key": "PlayMunicipalChatPath",
            "Value": "Config/Level/MunicipalChatConfig/F20004001/MunicipalChatConfig_F20004001_0001.json"
          },
          {
            "$type": "SharedString",
            "Key": "PlayMunicipalChatName",
            "Value": "MunicipalChatConfig_F20004001_0001"
          },
          {
            "$type": "SharedJsonConfigList",
            "Key": "PlayMunicipalChatCharacterList",
            "Value": [
              {
                "$type": "MunicipalChatEntityInfo",
                "UniqueName": "1",
                "GroupInstanceID": 400002
              },
              {
                "$type": "MunicipalChatEntityInfo",
                "UniqueName": "2",
                "GroupInstanceID": 400003
              }
            ]
          }
        ]
      },
      "Trigger": {
        "Radius": 3.5,
        "DimX": 1.0,
        "DimY": 1.0,
        "DimZ": 1.0,
        "PointList": []
      },
      "CampID": 4,
      "MapLayerID": 2,
      "CustomTriggerMap": {},
      "CustomTriggerMapV2": {},
      "BridgeStateRotations": [],
      "DialogueGroups": [],
      "TalkDialogGroupIDList": [],
      "ServerInteractVerificationIDList": [],
      "TriggerValidGuest": {},
      "SpawnConfig": {
        "EntitySpawnConfig": {}
      }
    },
    {
      "ID": 300002,
      "PosX": -20.72,
      "PosY": 181.617,
      "PosZ": -85.153,
      "Name": "Prop2",
      "PropID": 100,
      "IsOverrideInitLevelGraph": true,
      "InitLevelGraph": "Config/Level/CrowdBubble/Crowd_Conversation_Template.json",
      "ValueSource": {
        "Values": [
          {
            "$type": "SharedString",
            "Key": "PlayPerformanceE",
            "Value": "500500202"
          }
        ]
      },
      "Trigger": {
        "Radius": 2.0,
        "DimX": 1.0,
        "DimY": 1.0,
        "DimZ": 1.0,
        "PointList": []
      },
      "CampID": 4,
      "MapLayerID": 2,
      "CustomTriggerMap": {},
      "CustomTriggerMapV2": {},
      "BridgeStateRotations": [],
      "DialogueGroups": [],
      "TalkDialogGroupIDList": [],
      "ServerInteractVerificationIDList": [],
      "TriggerValidGuest": {},
      "SpawnConfig": {
        "EntitySpawnConfig": {}
      }
    },
    {
      "ID": 300025,
      "PosX": -20.789,
      "PosY": 180.9183,
      "PosZ": -85.265,
      "Name": "Prop25",
      "PropID": 100,
      "IsOverrideInitLevelGraph": true,
      "InitLevelGraph": "Config/Level/CrowdBubble/MunicipalChat_Stop_Template.json",
      "ValueSource": {
        "Values": [
          {
            "$type": "SharedString",
            "Key": "StopMunicipalChatName",
            "Value": "MunicipalChatConfig_F20004001_0001"
          }
        ]
      },
      "Trigger": {
        "Radius": 5.0,
        "DimX": 1.0,
        "DimY": 1.0,
        "DimZ": 1.0,
        "PointList": []
      },
      "CampID": 4,
      "MapLayerID": 2,
      "CustomTriggerMap": {},
      "CustomTriggerMapV2": {},
      "BridgeStateRotations": [],
      "DialogueGroups": [],
      "TalkDialogGroupIDList": [],
      "ServerInteractVerificationIDList": [],
      "TriggerValidGuest": {},
      "SpawnConfig": {
        "EntitySpawnConfig": {}
      }
    },
    {
      "ID": 300005,
      "PosX": -3.256,
      "PosY": 415.213,
      "PosZ": -51.215,
      "Name": "Prop5",
      "PropID": 100,
      "IsOverrideInitLevelGraph": true,
      "InitLevelGraph": "Config/Level/CrowdBubble/MunicipalChat_Play_Template.json",
      "ValueSource": {
        "Values": [
          {
            "$type": "SharedString",
            "Key": "PlayMunicipalChatPath",
            "Value": "Config/Level/MunicipalChatConfig/F20004001/MunicipalChatConfig_F20004001_0003.json"
          },
          {
            "$type": "SharedString",
            "Key": "PlayMunicipalChatName",
            "Value": "MunicipalChatConfig_F20004001_0003"
          },
          {
            "$type": "SharedJsonConfigList",
            "Key": "PlayMunicipalChatCharacterList",
            "Value": [
              {
                "$type": "MunicipalChatEntityInfo",
                "UniqueName": "1",
                "GroupInstanceID": 400005
              }
            ]
          }
        ]
      },
      "Trigger": {
        "Radius": 3.5,
        "DimX": 1.0,
        "DimY": 1.0,
        "DimZ": 1.0,
        "PointList": []
      },
      "CampID": 4,
      "MapLayerID": 3,
      "CustomTriggerMap": {},
      "CustomTriggerMapV2": {},
      "BridgeStateRotations": [],
      "DialogueGroups": [],
      "TalkDialogGroupIDList": [],
      "ServerInteractVerificationIDList": [],
      "TriggerValidGuest": {},
      "SpawnConfig": {
        "EntitySpawnConfig": {}
      }
    },
    {
      "ID": 300006,
      "PosX": -3.256,
      "PosY": 415.213,
      "PosZ": -51.215,
      "Name": "Prop6",
      "PropID": 100,
      "IsOverrideInitLevelGraph": true,
      "InitLevelGraph": "Config/Level/CrowdBubble/Crowd_Conversation_Template.json",
      "ValueSource": {
        "Values": [
          {
            "$type": "SharedString",
            "Key": "PlayPerformanceE",
            "Value": "500500203"
          }
        ]
      },
      "Trigger": {
        "Radius": 2.0,
        "DimX": 1.0,
        "DimY": 1.0,
        "DimZ": 1.0,
        "PointList": []
      },
      "CampID": 4,
      "MapLayerID": 3,
      "CustomTriggerMap": {},
      "CustomTriggerMapV2": {},
      "BridgeStateRotations": [],
      "DialogueGroups": [],
      "TalkDialogGroupIDList": [],
      "ServerInteractVerificationIDList": [],
      "TriggerValidGuest": {},
      "SpawnConfig": {
        "EntitySpawnConfig": {}
      }
    },
    {
      "ID": 300026,
      "PosX": -3.275,
      "PosY": 414.0818,
      "PosZ": -51.224,
      "Name": "Prop26",
      "PropID": 100,
      "IsOverrideInitLevelGraph": true,
      "InitLevelGraph": "Config/Level/CrowdBubble/MunicipalChat_Stop_Template.json",
      "ValueSource": {
        "Values": [
          {
            "$type": "SharedString",
            "Key": "StopMunicipalChatName",
            "Value": "MunicipalChatConfig_F20004001_0003"
          }
        ]
      },
      "Trigger": {
        "Radius": 5.0,
        "DimX": 1.0,
        "DimY": 1.0,
        "DimZ": 1.0,
        "PointList": []
      },
      "CampID": 4,
      "MapLayerID": 3,
      "CustomTriggerMap": {},
      "CustomTriggerMapV2": {},
      "BridgeStateRotations": [],
      "DialogueGroups": [],
      "TalkDialogGroupIDList": [],
      "ServerInteractVerificationIDList": [],
      "TriggerValidGuest": {},
      "SpawnConfig": {
        "EntitySpawnConfig": {}
      }
    },
    {
      "ID": 300007,
      "PosX": -3.011,
      "PosY": 173.148,
      "PosZ": -85.668,
      "Name": "Prop7",
      "PropID": 100,
      "IsOverrideInitLevelGraph": true,
      "InitLevelGraph": "Config/Level/CrowdBubble/MunicipalChat_Play_Template.json",
      "ValueSource": {
        "Values": [
          {
            "$type": "SharedString",
            "Key": "PlayMunicipalChatPath",
            "Value": "Config/Level/MunicipalChatConfig/F20004001/MunicipalChatConfig_F20004001_0012.json"
          },
          {
            "$type": "SharedString",
            "Key": "PlayMunicipalChatName",
            "Value": "MunicipalChatConfig_F20004001_0012"
          },
          {
            "$type": "SharedJsonConfigList",
            "Key": "PlayMunicipalChatCharacterList",
            "Value": [
              {
                "$type": "MunicipalChatEntityInfo",
                "UniqueName": "1",
                "GroupInstanceID": 400030
              }
            ]
          }
        ]
      },
      "Trigger": {
        "Radius": 3.5,
        "DimX": 1.0,
        "DimY": 1.0,
        "DimZ": 1.0,
        "PointList": []
      },
      "CampID": 4,
      "MapLayerID": 2,
      "CustomTriggerMap": {},
      "CustomTriggerMapV2": {},
      "BridgeStateRotations": [],
      "DialogueGroups": [],
      "TalkDialogGroupIDList": [],
      "ServerInteractVerificationIDList": [],
      "TriggerValidGuest": {},
      "SpawnConfig": {
        "EntitySpawnConfig": {}
      }
    },
    {
      "ID": 300008,
      "PosX": -3.011,
      "PosY": 173.148,
      "PosZ": -85.668,
      "Name": "Prop8",
      "PropID": 100,
      "IsOverrideInitLevelGraph": true,
      "InitLevelGraph": "Config/Level/CrowdBubble/Crowd_Conversation_Template.json",
      "ValueSource": {
        "Values": [
          {
            "$type": "SharedString",
            "Key": "PlayPerformanceE",
            "Value": "500500203"
          }
        ]
      },
      "Trigger": {
        "Radius": 2.0,
        "DimX": 1.0,
        "DimY": 1.0,
        "DimZ": 1.0,
        "PointList": []
      },
      "CampID": 4,
      "MapLayerID": 2,
      "CustomTriggerMap": {},
      "CustomTriggerMapV2": {},
      "BridgeStateRotations": [],
      "DialogueGroups": [],
      "TalkDialogGroupIDList": [],
      "ServerInteractVerificationIDList": [],
      "TriggerValidGuest": {},
      "SpawnConfig": {
        "EntitySpawnConfig": {}
      }
    },
    {
      "ID": 300027,
      "PosX": -3.035,
      "PosY": 172.2985,
      "PosZ": -85.732,
      "Name": "Prop27",
      "PropID": 100,
      "IsOverrideInitLevelGraph": true,
      "InitLevelGraph": "Config/Level/CrowdBubble/MunicipalChat_Stop_Template.json",
      "ValueSource": {
        "Values": [
          {
            "$type": "SharedString",
            "Key": "StopMunicipalChatName",
            "Value": "MunicipalChatConfig_F20004001_0012"
          }
        ]
      },
      "Trigger": {
        "Radius": 5.0,
        "DimX": 1.0,
        "DimY": 1.0,
        "DimZ": 1.0,
        "PointList": []
      },
      "CampID": 4,
      "MapLayerID": 2,
      "CustomTriggerMap": {},
      "CustomTriggerMapV2": {},
      "BridgeStateRotations": [],
      "DialogueGroups": [],
      "TalkDialogGroupIDList": [],
      "ServerInteractVerificationIDList": [],
      "TriggerValidGuest": {},
      "SpawnConfig": {
        "EntitySpawnConfig": {}
      }
    },
    {
      "ID": 300009,
      "PosX": -19.244,
      "PosY": 181.167,
      "PosZ": -93.263,
      "Name": "Prop9",
      "PropID": 100,
      "IsOverrideInitLevelGraph": true,
      "InitLevelGraph": "Config/Level/CrowdBubble/MunicipalChat_Play_Template.json",
      "ValueSource": {
        "Values": [
          {
            "$type": "SharedString",
            "Key": "PlayMunicipalChatPath",
            "Value": "Config/Level/MunicipalChatConfig/F20004001/MunicipalChatConfig_F20004001_0004.json"
          },
          {
            "$type": "SharedString",
            "Key": "PlayMunicipalChatName",
            "Value": "MunicipalChatConfig_F20004001_0004"
          },
          {
            "$type": "SharedJsonConfigList",
            "Key": "PlayMunicipalChatCharacterList",
            "Value": [
              {
                "$type": "MunicipalChatEntityInfo",
                "UniqueName": "1",
                "GroupInstanceID": 400012
              }
            ]
          }
        ]
      },
      "Trigger": {
        "Radius": 3.5,
        "DimX": 1.0,
        "DimY": 1.0,
        "DimZ": 1.0,
        "PointList": []
      },
      "CampID": 4,
      "MapLayerID": 2,
      "CustomTriggerMap": {},
      "CustomTriggerMapV2": {},
      "BridgeStateRotations": [],
      "DialogueGroups": [],
      "TalkDialogGroupIDList": [],
      "ServerInteractVerificationIDList": [],
      "TriggerValidGuest": {},
      "SpawnConfig": {
        "EntitySpawnConfig": {}
      }
    },
    {
      "ID": 300010,
      "PosX": -19.306,
      "PosY": 181.167,
      "PosZ": -93.263,
      "Name": "Prop10",
      "PropID": 100,
      "IsOverrideInitLevelGraph": true,
      "InitLevelGraph": "Config/Level/CrowdBubble/Crowd_Conversation_Template.json",
      "ValueSource": {
        "Values": [
          {
            "$type": "SharedString",
            "Key": "PlayPerformanceE",
            "Value": "500500204"
          }
        ]
      },
      "Trigger": {
        "Radius": 2.0,
        "DimX": 1.0,
        "DimY": 1.0,
        "DimZ": 1.0,
        "PointList": []
      },
      "CampID": 4,
      "MapLayerID": 2,
      "CustomTriggerMap": {},
      "CustomTriggerMapV2": {},
      "BridgeStateRotations": [],
      "DialogueGroups": [],
      "TalkDialogGroupIDList": [],
      "ServerInteractVerificationIDList": [],
      "TriggerValidGuest": {},
      "SpawnConfig": {
        "EntitySpawnConfig": {}
      }
    },
    {
      "ID": 300028,
      "PosX": -19.23,
      "PosY": 180.9183,
      "PosZ": -93.37,
      "Name": "Prop28",
      "PropID": 100,
      "IsOverrideInitLevelGraph": true,
      "InitLevelGraph": "Config/Level/CrowdBubble/MunicipalChat_Stop_Template.json",
      "ValueSource": {
        "Values": [
          {
            "$type": "SharedString",
            "Key": "StopMunicipalChatName",
            "Value": "MunicipalChatConfig_F20004001_0004"
          }
        ]
      },
      "Trigger": {
        "Radius": 5.0,
        "DimX": 1.0,
        "DimY": 1.0,
        "DimZ": 1.0,
        "PointList": []
      },
      "CampID": 4,
      "MapLayerID": 2,
      "CustomTriggerMap": {},
      "CustomTriggerMapV2": {},
      "BridgeStateRotations": [],
      "DialogueGroups": [],
      "TalkDialogGroupIDList": [],
      "ServerInteractVerificationIDList": [],
      "TriggerValidGuest": {},
      "SpawnConfig": {
        "EntitySpawnConfig": {}
      }
    },
    {
      "ID": 300011,
      "PosX": 24.494,
      "PosY": 172.633,
      "PosZ": 58.452,
      "Name": "Prop11",
      "PropID": 100,
      "IsOverrideInitLevelGraph": true,
      "InitLevelGraph": "Config/Level/CrowdBubble/MunicipalChat_Play_Template.json",
      "ValueSource": {
        "Values": [
          {
            "$type": "SharedString",
            "Key": "PlayMunicipalChatPath",
            "Value": "Config/Level/MunicipalChatConfig/F20004001/MunicipalChatConfig_F20004001_0005.json"
          },
          {
            "$type": "SharedString",
            "Key": "PlayMunicipalChatName",
            "Value": "MunicipalChatConfig_F20004001_0005"
          },
          {
            "$type": "SharedJsonConfigList",
            "Key": "PlayMunicipalChatCharacterList",
            "Value": [
              {
                "$type": "MunicipalChatEntityInfo",
                "UniqueName": "1",
                "GroupInstanceID": 400014
              },
              {
                "$type": "MunicipalChatEntityInfo",
                "UniqueName": "2",
                "GroupInstanceID": 400015
              },
              {
                "$type": "MunicipalChatEntityInfo",
                "UniqueName": "3",
                "GroupInstanceID": 400016
              }
            ]
          }
        ]
      },
      "Trigger": {
        "Radius": 3.5,
        "DimX": 1.0,
        "DimY": 1.0,
        "DimZ": 1.0,
        "PointList": []
      },
      "CampID": 4,
      "MapLayerID": 2,
      "CustomTriggerMap": {},
      "CustomTriggerMapV2": {},
      "BridgeStateRotations": [],
      "DialogueGroups": [],
      "TalkDialogGroupIDList": [],
      "ServerInteractVerificationIDList": [],
      "TriggerValidGuest": {},
      "SpawnConfig": {
        "EntitySpawnConfig": {}
      }
    },
    {
      "ID": 300012,
      "PosX": 24.494,
      "PosY": 172.633,
      "PosZ": 58.452,
      "Name": "Prop12",
      "PropID": 100,
      "IsOverrideInitLevelGraph": true,
      "InitLevelGraph": "Config/Level/CrowdBubble/Crowd_Conversation_Template.json",
      "ValueSource": {
        "Values": [
          {
            "$type": "SharedString",
            "Key": "PlayPerformanceE",
            "Value": "500500205"
          }
        ]
      },
      "Trigger": {
        "Radius": 2.0,
        "DimX": 1.0,
        "DimY": 1.0,
        "DimZ": 1.0,
        "PointList": []
      },
      "CampID": 4,
      "MapLayerID": 2,
      "CustomTriggerMap": {},
      "CustomTriggerMapV2": {},
      "BridgeStateRotations": [],
      "DialogueGroups": [],
      "TalkDialogGroupIDList": [],
      "ServerInteractVerificationIDList": [],
      "TriggerValidGuest": {},
      "SpawnConfig": {
        "EntitySpawnConfig": {}
      }
    },
    {
      "ID": 300029,
      "PosX": 24.49,
      "PosY": 172.2486,
      "PosZ": 58.41,
      "Name": "Prop29",
      "PropID": 100,
      "IsOverrideInitLevelGraph": true,
      "InitLevelGraph": "Config/Level/CrowdBubble/MunicipalChat_Stop_Template.json",
      "ValueSource": {
        "Values": [
          {
            "$type": "SharedString",
            "Key": "StopMunicipalChatName",
            "Value": "MunicipalChatConfig_F20004001_0005"
          }
        ]
      },
      "Trigger": {
        "Radius": 5.0,
        "DimX": 1.0,
        "DimY": 1.0,
        "DimZ": 1.0,
        "PointList": []
      },
      "CampID": 4,
      "MapLayerID": 2,
      "CustomTriggerMap": {},
      "CustomTriggerMapV2": {},
      "BridgeStateRotations": [],
      "DialogueGroups": [],
      "TalkDialogGroupIDList": [],
      "ServerInteractVerificationIDList": [],
      "TriggerValidGuest": {},
      "SpawnConfig": {
        "EntitySpawnConfig": {}
      }
    },
    {
      "ID": 300013,
      "PosX": -35.57,
      "PosY": 182.007,
      "PosZ": -86.179,
      "Name": "Prop13",
      "PropID": 100,
      "IsOverrideInitLevelGraph": true,
      "InitLevelGraph": "Config/Level/CrowdBubble/MunicipalChat_Play_Template.json",
      "ValueSource": {
        "Values": [
          {
            "$type": "SharedString",
            "Key": "PlayMunicipalChatPath",
            "Value": "Config/Level/MunicipalChatConfig/F20004001/MunicipalChatConfig_F20004001_0006.json"
          },
          {
            "$type": "SharedString",
            "Key": "PlayMunicipalChatName",
            "Value": "MunicipalChatConfig_F20004001_0006"
          },
          {
            "$type": "SharedJsonConfigList",
            "Key": "PlayMunicipalChatCharacterList",
            "Value": [
              {
                "$type": "MunicipalChatEntityInfo",
                "UniqueName": "1",
                "GroupInstanceID": 400017
              },
              {
                "$type": "MunicipalChatEntityInfo",
                "UniqueName": "2",
                "GroupInstanceID": 400018
              }
            ]
          }
        ]
      },
      "Trigger": {
        "Radius": 3.5,
        "DimX": 1.0,
        "DimY": 1.0,
        "DimZ": 1.0,
        "PointList": []
      },
      "CampID": 4,
      "MapLayerID": 2,
      "CustomTriggerMap": {},
      "CustomTriggerMapV2": {},
      "BridgeStateRotations": [],
      "DialogueGroups": [],
      "TalkDialogGroupIDList": [],
      "ServerInteractVerificationIDList": [],
      "TriggerValidGuest": {},
      "SpawnConfig": {
        "EntitySpawnConfig": {}
      }
    },
    {
      "ID": 300014,
      "PosX": -35.57,
      "PosY": 182.007,
      "PosZ": -86.179,
      "Name": "Prop14",
      "PropID": 100,
      "IsOverrideInitLevelGraph": true,
      "InitLevelGraph": "Config/Level/CrowdBubble/Crowd_Conversation_Template.json",
      "ValueSource": {
        "Values": [
          {
            "$type": "SharedString",
            "Key": "PlayPerformanceE",
            "Value": "500500206"
          }
        ]
      },
      "Trigger": {
        "Radius": 2.0,
        "DimX": 1.0,
        "DimY": 1.0,
        "DimZ": 1.0,
        "PointList": []
      },
      "CampID": 4,
      "MapLayerID": 2,
      "CustomTriggerMap": {},
      "CustomTriggerMapV2": {},
      "BridgeStateRotations": [],
      "DialogueGroups": [],
      "TalkDialogGroupIDList": [],
      "ServerInteractVerificationIDList": [],
      "TriggerValidGuest": {},
      "SpawnConfig": {
        "EntitySpawnConfig": {}
      }
    },
    {
      "ID": 300030,
      "PosX": -35.21,
      "PosY": 180.9183,
      "PosZ": -86.01,
      "Name": "Prop30",
      "PropID": 100,
      "IsOverrideInitLevelGraph": true,
      "InitLevelGraph": "Config/Level/CrowdBubble/MunicipalChat_Stop_Template.json",
      "ValueSource": {
        "Values": [
          {
            "$type": "SharedString",
            "Key": "StopMunicipalChatName",
            "Value": "MunicipalChatConfig_F20004001_0006"
          }
        ]
      },
      "Trigger": {
        "Radius": 5.0,
        "DimX": 1.0,
        "DimY": 1.0,
        "DimZ": 1.0,
        "PointList": []
      },
      "CampID": 4,
      "MapLayerID": 2,
      "CustomTriggerMap": {},
      "CustomTriggerMapV2": {},
      "BridgeStateRotations": [],
      "DialogueGroups": [],
      "TalkDialogGroupIDList": [],
      "ServerInteractVerificationIDList": [],
      "TriggerValidGuest": {},
      "SpawnConfig": {
        "EntitySpawnConfig": {}
      }
    },
    {
      "ID": 300015,
      "PosX": 1.221,
      "PosY": 181.441,
      "PosZ": -103.311,
      "Name": "Prop15",
      "PropID": 100,
      "IsOverrideInitLevelGraph": true,
      "InitLevelGraph": "Config/Level/CrowdBubble/MunicipalChat_Play_Template.json",
      "ValueSource": {
        "Values": [
          {
            "$type": "SharedString",
            "Key": "PlayMunicipalChatPath",
            "Value": "Config/Level/MunicipalChatConfig/F20004001/MunicipalChatConfig_F20004001_0007.json"
          },
          {
            "$type": "SharedString",
            "Key": "PlayMunicipalChatName",
            "Value": "MunicipalChatConfig_F20004001_0007"
          },
          {
            "$type": "SharedJsonConfigList",
            "Key": "PlayMunicipalChatCharacterList",
            "Value": [
              {
                "$type": "MunicipalChatEntityInfo",
                "UniqueName": "1",
                "GroupInstanceID": 400019
              },
              {
                "$type": "MunicipalChatEntityInfo",
                "UniqueName": "2",
                "GroupInstanceID": 400020
              }
            ]
          }
        ]
      },
      "Trigger": {
        "Radius": 3.5,
        "DimX": 1.0,
        "DimY": 1.0,
        "DimZ": 1.0,
        "PointList": []
      },
      "CampID": 4,
      "MapLayerID": 2,
      "CustomTriggerMap": {},
      "CustomTriggerMapV2": {},
      "BridgeStateRotations": [],
      "DialogueGroups": [],
      "TalkDialogGroupIDList": [],
      "ServerInteractVerificationIDList": [],
      "TriggerValidGuest": {},
      "SpawnConfig": {
        "EntitySpawnConfig": {}
      }
    },
    {
      "ID": 300016,
      "PosX": 1.221,
      "PosY": 181.441,
      "PosZ": -103.311,
      "Name": "Prop16",
      "PropID": 100,
      "IsOverrideInitLevelGraph": true,
      "InitLevelGraph": "Config/Level/CrowdBubble/Crowd_Conversation_Template.json",
      "ValueSource": {
        "Values": [
          {
            "$type": "SharedString",
            "Key": "PlayPerformanceE",
            "Value": "500500207"
          }
        ]
      },
      "Trigger": {
        "Radius": 2.0,
        "DimX": 1.0,
        "DimY": 1.0,
        "DimZ": 1.0,
        "PointList": []
      },
      "CampID": 4,
      "MapLayerID": 2,
      "CustomTriggerMap": {},
      "CustomTriggerMapV2": {},
      "BridgeStateRotations": [],
      "DialogueGroups": [],
      "TalkDialogGroupIDList": [],
      "ServerInteractVerificationIDList": [],
      "TriggerValidGuest": {},
      "SpawnConfig": {
        "EntitySpawnConfig": {}
      }
    },
    {
      "ID": 300031,
      "PosX": -19.23,
      "PosY": 180.9183,
      "PosZ": -93.37,
      "Name": "Prop31",
      "PropID": 100,
      "IsOverrideInitLevelGraph": true,
      "InitLevelGraph": "Config/Level/CrowdBubble/MunicipalChat_Stop_Template.json",
      "ValueSource": {
        "Values": [
          {
            "$type": "SharedString",
            "Key": "StopMunicipalChatName",
            "Value": "MunicipalChatConfig_F20004001_0007"
          }
        ]
      },
      "Trigger": {
        "Radius": 5.0,
        "DimX": 1.0,
        "DimY": 1.0,
        "DimZ": 1.0,
        "PointList": []
      },
      "CampID": 4,
      "MapLayerID": 2,
      "CustomTriggerMap": {},
      "CustomTriggerMapV2": {},
      "BridgeStateRotations": [],
      "DialogueGroups": [],
      "TalkDialogGroupIDList": [],
      "ServerInteractVerificationIDList": [],
      "TriggerValidGuest": {},
      "SpawnConfig": {
        "EntitySpawnConfig": {}
      }
    },
    {
      "ID": 300017,
      "PosX": 38.076,
      "PosY": 172.3147,
      "PosZ": 36.73,
      "Name": "Prop17",
      "RotY": 230.5,
      "PropID": 100,
      "IsOverrideInitLevelGraph": true,
      "InitLevelGraph": "Config/Level/CrowdBubble/MunicipalChat_Play_Template.json",
      "ValueSource": {
        "Values": [
          {
            "$type": "SharedString",
            "Key": "PlayMunicipalChatPath",
            "Value": "Config/Level/MunicipalChatConfig/F20004001/MunicipalChatConfig_F20004001_0008.json"
          },
          {
            "$type": "SharedString",
            "Key": "PlayMunicipalChatName",
            "Value": "MunicipalChatConfig_F20004001_0008"
          },
          {
            "$type": "SharedJsonConfigList",
            "Key": "PlayMunicipalChatCharacterList",
            "Value": [
              {
                "$type": "MunicipalChatEntityInfo",
                "UniqueName": "1",
                "GroupInstanceID": 400021
              }
            ]
          }
        ]
      },
      "Trigger": {
        "Shape": "Box",
        "Radius": 3.5,
        "DimX": 5.5,
        "DimY": 1.0,
        "DimZ": 2.8,
        "PointList": []
      },
      "CampID": 4,
      "MapLayerID": 2,
      "CustomTriggerMap": {},
      "CustomTriggerMapV2": {},
      "BridgeStateRotations": [],
      "DialogueGroups": [],
      "TalkDialogGroupIDList": [],
      "ServerInteractVerificationIDList": [],
      "TriggerValidGuest": {},
      "SpawnConfig": {
        "EntitySpawnConfig": {}
      }
    },
    {
      "ID": 300018,
      "PosX": 38.076,
      "PosY": 172.3147,
      "PosZ": 36.73,
      "Name": "Prop18",
      "RotY": 230.5,
      "PropID": 100,
      "IsOverrideInitLevelGraph": true,
      "InitLevelGraph": "Config/Level/CrowdBubble/Crowd_Conversation_Template.json",
      "ValueSource": {
        "Values": [
          {
            "$type": "SharedString",
            "Key": "PlayPerformanceE",
            "Value": "500500208"
          }
        ]
      },
      "Trigger": {
        "Shape": "Box",
        "Radius": 2.0,
        "DimX": 5.5,
        "DimY": 1.0,
        "DimZ": 2.8,
        "PointList": []
      },
      "CampID": 4,
      "MapLayerID": 2,
      "CustomTriggerMap": {},
      "CustomTriggerMapV2": {},
      "BridgeStateRotations": [],
      "DialogueGroups": [],
      "TalkDialogGroupIDList": [],
      "ServerInteractVerificationIDList": [],
      "TriggerValidGuest": {},
      "SpawnConfig": {
        "EntitySpawnConfig": {}
      }
    },
    {
      "ID": 300032,
      "PosX": 38.01,
      "PosY": 172.2477,
      "PosZ": 36.8,
      "Name": "Prop32",
      "PropID": 100,
      "IsOverrideInitLevelGraph": true,
      "InitLevelGraph": "Config/Level/CrowdBubble/MunicipalChat_Stop_Template.json",
      "ValueSource": {
        "Values": [
          {
            "$type": "SharedString",
            "Key": "StopMunicipalChatName",
            "Value": "MunicipalChatConfig_F20004001_0008"
          }
        ]
      },
      "Trigger": {
        "Radius": 5.0,
        "DimX": 1.0,
        "DimY": 1.0,
        "DimZ": 1.0,
        "PointList": []
      },
      "CampID": 4,
      "MapLayerID": 2,
      "CustomTriggerMap": {},
      "CustomTriggerMapV2": {},
      "BridgeStateRotations": [],
      "DialogueGroups": [],
      "TalkDialogGroupIDList": [],
      "ServerInteractVerificationIDList": [],
      "TriggerValidGuest": {},
      "SpawnConfig": {
        "EntitySpawnConfig": {}
      }
    },
    {
      "ID": 300019,
      "PosX": -0.077,
      "PosY": 178.078,
      "PosZ": -128.454,
      "Name": "Prop19",
      "PropID": 100,
      "IsOverrideInitLevelGraph": true,
      "InitLevelGraph": "Config/Level/CrowdBubble/MunicipalChat_Play_Template.json",
      "ValueSource": {
        "Values": [
          {
            "$type": "SharedString",
            "Key": "PlayMunicipalChatPath",
            "Value": "Config/Level/MunicipalChatConfig/F20004001/MunicipalChatConfig_F20004001_0009.json"
          },
          {
            "$type": "SharedString",
            "Key": "PlayMunicipalChatName",
            "Value": "MunicipalChatConfig_F20004001_0009"
          },
          {
            "$type": "SharedJsonConfigList",
            "Key": "PlayMunicipalChatCharacterList",
            "Value": [
              {
                "$type": "MunicipalChatEntityInfo",
                "UniqueName": "1",
                "GroupInstanceID": 400022
              },
              {
                "$type": "MunicipalChatEntityInfo",
                "UniqueName": "2",
                "GroupInstanceID": 400023
              }
            ]
          }
        ]
      },
      "Trigger": {
        "Radius": 3.5,
        "DimX": 1.0,
        "DimY": 1.0,
        "DimZ": 1.0,
        "PointList": []
      },
      "CampID": 4,
      "MapLayerID": 2,
      "CustomTriggerMap": {},
      "CustomTriggerMapV2": {},
      "BridgeStateRotations": [],
      "DialogueGroups": [],
      "TalkDialogGroupIDList": [],
      "ServerInteractVerificationIDList": [],
      "TriggerValidGuest": {},
      "SpawnConfig": {
        "EntitySpawnConfig": {}
      }
    },
    {
      "ID": 300020,
      "PosX": -0.077,
      "PosY": 178.078,
      "PosZ": -128.454,
      "Name": "Prop20",
      "PropID": 100,
      "IsOverrideInitLevelGraph": true,
      "InitLevelGraph": "Config/Level/CrowdBubble/Crowd_Conversation_Template.json",
      "ValueSource": {
        "Values": [
          {
            "$type": "SharedString",
            "Key": "PlayPerformanceE",
            "Value": "500500209"
          }
        ]
      },
      "Trigger": {
        "Radius": 3.5,
        "DimX": 1.0,
        "DimY": 1.0,
        "DimZ": 1.0,
        "PointList": []
      },
      "CampID": 4,
      "MapLayerID": 2,
      "CustomTriggerMap": {},
      "CustomTriggerMapV2": {},
      "BridgeStateRotations": [],
      "DialogueGroups": [],
      "TalkDialogGroupIDList": [],
      "ServerInteractVerificationIDList": [],
      "TriggerValidGuest": {},
      "SpawnConfig": {
        "EntitySpawnConfig": {}
      }
    },
    {
      "ID": 300033,
      "PosX": -0.09,
      "PosY": 178.1748,
      "PosZ": -128.42,
      "Name": "Prop33",
      "PropID": 100,
      "IsOverrideInitLevelGraph": true,
      "InitLevelGraph": "Config/Level/CrowdBubble/MunicipalChat_Stop_Template.json",
      "ValueSource": {
        "Values": [
          {
            "$type": "SharedString",
            "Key": "StopMunicipalChatName",
            "Value": "MunicipalChatConfig_F20004001_0009"
          }
        ]
      },
      "Trigger": {
        "Radius": 5.0,
        "DimX": 1.0,
        "DimY": 1.0,
        "DimZ": 1.0,
        "PointList": []
      },
      "CampID": 4,
      "MapLayerID": 2,
      "CustomTriggerMap": {},
      "CustomTriggerMapV2": {},
      "BridgeStateRotations": [],
      "DialogueGroups": [],
      "TalkDialogGroupIDList": [],
      "ServerInteractVerificationIDList": [],
      "TriggerValidGuest": {},
      "SpawnConfig": {
        "EntitySpawnConfig": {}
      }
    },
    {
      "ID": 300021,
      "PosX": -9.532,
      "PosY": 177.4117,
      "PosZ": -112.827,
      "Name": "Prop21",
      "PropID": 100,
      "IsOverrideInitLevelGraph": true,
      "InitLevelGraph": "Config/Level/CrowdBubble/MunicipalChat_Play_Template.json",
      "ValueSource": {
        "Values": [
          {
            "$type": "SharedString",
            "Key": "PlayMunicipalChatPath",
            "Value": "Config/Level/MunicipalChatConfig/F20004001/MunicipalChatConfig_F20004001_0010.json"
          },
          {
            "$type": "SharedString",
            "Key": "PlayMunicipalChatName",
            "Value": "MunicipalChatConfig_F20004001_0010"
          },
          {
            "$type": "SharedJsonConfigList",
            "Key": "PlayMunicipalChatCharacterList",
            "Value": [
              {
                "$type": "MunicipalChatEntityInfo",
                "UniqueName": "1",
                "GroupInstanceID": 400024
              },
              {
                "$type": "MunicipalChatEntityInfo",
                "UniqueName": "2",
                "GroupInstanceID": 400025
              }
            ]
          }
        ]
      },
      "Trigger": {
        "Radius": 3.5,
        "DimX": 1.0,
        "DimY": 1.0,
        "DimZ": 1.0,
        "PointList": []
      },
      "CampID": 4,
      "MapLayerID": 2,
      "CustomTriggerMap": {},
      "CustomTriggerMapV2": {},
      "BridgeStateRotations": [],
      "DialogueGroups": [],
      "TalkDialogGroupIDList": [],
      "ServerInteractVerificationIDList": [],
      "TriggerValidGuest": {},
      "SpawnConfig": {
        "EntitySpawnConfig": {}
      }
    },
    {
      "ID": 300022,
      "PosX": -9.532,
      "PosY": 177.4117,
      "PosZ": -112.827,
      "Name": "Prop22",
      "PropID": 100,
      "IsOverrideInitLevelGraph": true,
      "InitLevelGraph": "Config/Level/CrowdBubble/Crowd_Conversation_Template.json",
      "ValueSource": {
        "Values": [
          {
            "$type": "SharedString",
            "Key": "PlayPerformanceE",
            "Value": "500500210"
          }
        ]
      },
      "Trigger": {
        "Radius": 2.0,
        "DimX": 1.0,
        "DimY": 1.0,
        "DimZ": 1.0,
        "PointList": []
      },
      "CampID": 4,
      "MapLayerID": 2,
      "CustomTriggerMap": {},
      "CustomTriggerMapV2": {},
      "BridgeStateRotations": [],
      "DialogueGroups": [],
      "TalkDialogGroupIDList": [],
      "ServerInteractVerificationIDList": [],
      "TriggerValidGuest": {},
      "SpawnConfig": {
        "EntitySpawnConfig": {}
      }
    },
    {
      "ID": 300034,
      "PosX": -9.51,
      "PosY": 178.411,
      "PosZ": -112.89,
      "Name": "Prop34",
      "PropID": 100,
      "IsOverrideInitLevelGraph": true,
      "InitLevelGraph": "Config/Level/CrowdBubble/MunicipalChat_Stop_Template.json",
      "ValueSource": {
        "Values": [
          {
            "$type": "SharedString",
            "Key": "StopMunicipalChatName",
            "Value": "MunicipalChatConfig_F20004001_0010"
          }
        ]
      },
      "Trigger": {
        "Radius": 5.0,
        "DimX": 1.0,
        "DimY": 1.0,
        "DimZ": 1.0,
        "PointList": []
      },
      "CampID": 4,
      "MapLayerID": 2,
      "CustomTriggerMap": {},
      "CustomTriggerMapV2": {},
      "BridgeStateRotations": [],
      "DialogueGroups": [],
      "TalkDialogGroupIDList": [],
      "ServerInteractVerificationIDList": [],
      "TriggerValidGuest": {},
      "SpawnConfig": {
        "EntitySpawnConfig": {}
      }
    },
    {
      "ID": 300023,
      "PosX": -10.112,
      "PosY": 144.659,
      "PosZ": -18.103,
      "IsDelete": true,
      "Name": "Prop23",
      "PropID": 100,
      "IsOverrideInitLevelGraph": true,
      "InitLevelGraph": "Config/Level/CrowdBubble/MunicipalChat_Play_Template.json",
      "ValueSource": {
        "Values": [
          {
            "$type": "SharedString",
            "Key": "PlayMunicipalChatPath",
            "Value": "Config/Level/MunicipalChatConfig/F20004001/MunicipalChatConfig_F20004001_0011.json"
          },
          {
            "$type": "SharedString",
            "Key": "PlayMunicipalChatName",
            "Value": "MunicipalChatConfig_F20004001_0011"
          },
          {
            "$type": "SharedJsonConfigList",
            "Key": "PlayMunicipalChatCharacterList",
            "Value": [
              {
                "$type": "MunicipalChatEntityInfo",
                "UniqueName": "1",
                "GroupInstanceID": 400027
              }
            ]
          }
        ]
      },
      "Trigger": {
        "Radius": 3.5,
        "DimX": 1.0,
        "DimY": 1.0,
        "DimZ": 1.0,
        "PointList": []
      },
      "CampID": 4,
      "MapLayerID": 1,
      "CustomTriggerMap": {},
      "CustomTriggerMapV2": {},
      "BridgeStateRotations": [],
      "DialogueGroups": [],
      "TalkDialogGroupIDList": [],
      "ServerInteractVerificationIDList": [],
      "TriggerValidGuest": {},
      "SpawnConfig": {
        "EntitySpawnConfig": {}
      }
    },
    {
      "ID": 300035,
      "PosX": -19.23,
      "PosY": 180.9183,
      "PosZ": -93.37,
      "IsDelete": true,
      "Name": "Prop35",
      "PropID": 100,
      "IsOverrideInitLevelGraph": true,
      "InitLevelGraph": "Config/Level/CrowdBubble/MunicipalChat_Stop_Template.json",
      "ValueSource": {
        "Values": [
          {
            "$type": "SharedString",
            "Key": "StopMunicipalChatName",
            "Value": "MunicipalChatConfig_F20004001_0002"
          }
        ]
      },
      "Trigger": {
        "Radius": 5.0,
        "DimX": 1.0,
        "DimY": 1.0,
        "DimZ": 1.0,
        "PointList": []
      },
      "CampID": 4,
      "MapLayerID": 2,
      "CustomTriggerMap": {},
      "CustomTriggerMapV2": {},
      "BridgeStateRotations": [],
      "DialogueGroups": [],
      "TalkDialogGroupIDList": [],
      "ServerInteractVerificationIDList": [],
      "TriggerValidGuest": {},
      "SpawnConfig": {
        "EntitySpawnConfig": {}
      }
    }
  ],
  "NPCList": [
    {
      "ID": 400001,
      "PosX": -19.1,
      "PosY": 180.92,
      "PosZ": -77.871,
      "Name": "NPC1",
      "RotY": 47.39711,
      "NPCID": 3002,
      "LevelGraph": "Config/Level/Mission/5005002/Act/Act500500295.json",
      "ValueSource": {},
      "SOConfig": {
        "InstanceID": 1
      },
      "DialogueGroups": [],
      "ServerInteractVerificationIDList": [],
      "DefaultLookAtMode": "Closed",
      "MapLayerID": 2,
      "BoardShowList": [
        8
      ],
      "TalkDialogGroupIDList": [],
      "DefaultAnimationType": "IdleState",
      "DefaultIdleFreeStyleMotionID": 900020000,
      "InitialHiddenNodeList": [],
      "SpawnConfig": {
        "EntitySpawnConfig": {},
        "CaptureDistanceTolerance": 10.0
      },
      "TriggerValidGuest": {}
    },
    {
      "ID": 400037,
      "PosX": 43.984,
      "PosY": 172.3147,
      "PosZ": 38.989,
      "Name": "NPC37",
      "RotY": 136.0,
      "NPCID": 3002,
      "LevelGraph": "Config/Level/Mission/5005002/Act/Act500500295.json",
      "ValueSource": {},
      "SOConfig": {
        "InstanceID": 2
      },
      "DialogueGroups": [],
      "ServerInteractVerificationIDList": [],
      "DefaultLookAtMode": "Closed",
      "MapLayerID": 2,
      "BoardShowList": [
        8
      ],
      "TalkDialogGroupIDList": [],
      "DefaultAnimationType": "IdleState",
      "DefaultIdleFreeStyleMotionID": 900020000,
      "InitialHiddenNodeList": [],
      "SpawnConfig": {
        "EntitySpawnConfig": {},
        "CaptureDistanceTolerance": 10.0
      },
      "TriggerValidGuest": {}
    },
    {
      "ID": 400002,
      "PosX": -21.01,
      "PosY": 181.669,
      "PosZ": -85.152,
      "Name": "NPC2",
      "RotY": 47.39711,
      "NPCID": 3044,
      "ValueSource": {},
      "StaticNPC": true,
      "DialogueGroups": [],
      "ServerInteractVerificationIDList": [],
      "MapLayerID": 2,
      "BoardShowList": [
        8
      ],
      "TalkDialogGroupIDList": [],
      "DefaultAnimationType": "FreeStyleGraph",
      "DefaultIdleFreeStyleMotionID": 200080000,
      "AnimGroupName": "Talk01_StandBy",
      "InitialHiddenNodeList": [],
      "SpawnConfig": {
        "EntitySpawnConfig": {},
        "CaptureDistanceTolerance": 10.0
      },
      "TriggerValidGuest": {}
    },
    {
      "ID": 400003,
      "PosX": -20.544,
      "PosY": 181.661,
      "PosZ": -85.673,
      "Name": "NPC3",
      "RotY": 9.900014,
      "NPCID": 3048,
      "ValueSource": {},
      "StaticNPC": true,
      "DialogueGroups": [],
      "ServerInteractVerificationIDList": [],
      "MapLayerID": 2,
      "BoardShowList": [
        8
      ],
      "TalkDialogGroupIDList": [],
      "DefaultAnimationType": "FreeStyleGraph",
      "DefaultIdleFreeStyleMotionID": 200080000,
      "AnimGroupName": "Talk01_StandBy",
      "IsNeedFade": true,
      "InitialHiddenNodeList": [],
      "SpawnConfig": {
        "EntitySpawnConfig": {},
        "CaptureDistanceTolerance": 10.0
      },
      "TriggerValidGuest": {}
    },
    {
      "ID": 400004,
      "PosX": -2.934,
      "PosY": 413.9755,
      "PosZ": -49.468,
      "Name": "NPC4",
      "RotY": 172.6,
      "NPCID": 3002,
      "LevelGraph": "Config/Level/Mission/5005002/Act/Act500500295.json",
      "ValueSource": {},
      "SOConfig": {
        "InstanceID": 4
      },
      "StaticNPC": true,
      "DialogueGroups": [],
      "ServerInteractVerificationIDList": [],
      "DefaultLookAtMode": "Closed",
      "MapLayerID": 3,
      "BoardShowList": [],
      "TalkDialogGroupIDList": [],
      "DefaultAnimationType": "FreeStyleGraph",
      "DefaultIdleFreeStyleMotionID": 900020000,
      "AnimGroupName": "Repair01_StandBy",
      "InitialHiddenNodeList": [],
      "SpawnConfig": {
        "EntitySpawnConfig": {},
        "CaptureDistanceTolerance": 10.0
      },
      "TriggerValidGuest": {}
    },
    {
      "ID": 400005,
      "PosX": -2.313,
      "PosY": 414.0818,
      "PosZ": -51.42,
      "Name": "NPC5",
      "RotY": 347.7,
      "NPCID": 3002,
      "LevelGraph": "Config/Level/Mission/5005002/Act/Act500500295.json",
      "ValueSource": {},
      "SOConfig": {
        "InstanceID": 4
      },
      "StaticNPC": true,
      "DialogueGroups": [],
      "ServerInteractVerificationIDList": [],
      "DefaultLookAtMode": "Closed",
      "MapLayerID": 3,
      "BoardShowList": [
        8
      ],
      "TalkDialogGroupIDList": [],
      "DefaultAnimationType": "FreeStyleGraph",
      "DefaultIdleFreeStyleMotionID": 200080000,
      "AnimGroupName": "Repair01_StandBy",
      "InitialHiddenNodeList": [],
      "SpawnConfig": {
        "EntitySpawnConfig": {},
        "CaptureDistanceTolerance": 10.0
      },
      "TriggerValidGuest": {}
    },
    {
      "ID": 400006,
      "PosX": -4.15,
      "PosY": 414.0818,
      "PosZ": -50.736,
      "Name": "NPC6",
      "RotY": 129.5,
      "NPCID": 3002,
      "LevelGraph": "Config/Level/Mission/5005002/Act/Act500500298.json",
      "ValueSource": {},
      "StaticNPC": true,
      "DialogueGroups": [],
      "ServerInteractVerificationIDList": [],
      "DefaultIdleStateName": "Repair01",
      "DefaultLookAtMode": "Closed",
      "MapLayerID": 3,
      "BoardShowList": [],
      "TalkDialogGroupIDList": [],
      "DefaultIdleFreeStyleMotionID": 900020000,
      "InitialHiddenNodeList": [],
      "SpawnConfig": {
        "EntitySpawnConfig": {},
        "CaptureDistanceTolerance": 10.0
      },
      "TriggerValidGuest": {}
    },
    {
      "ID": 400007,
      "PosX": 60.486,
      "PosY": 170.1037,
      "PosZ": 71.985,
      "Name": "NPC7",
      "RotY": 161.5538,
      "NPCID": 3046,
      "ValueSource": {},
      "StaticNPC": true,
      "DialogueGroups": [],
      "ServerInteractVerificationIDList": [],
      "MapLayerID": 2,
      "BoardShowList": [
        8
      ],
      "TalkDialogGroupIDList": [],
      "DefaultAnimationType": "FreeStyleGraph",
      "DefaultIdleFreeStyleMotionID": 200080000,
      "AnimGroupName": "Talk01_StandBy",
      "InitialHiddenNodeList": [],
      "SpawnConfig": {
        "EntitySpawnConfig": {},
        "CaptureDistanceTolerance": 10.0
      },
      "TriggerValidGuest": {}
    },
    {
      "ID": 400008,
      "PosX": 61.29101,
      "PosY": 169.648,
      "PosZ": 71.18102,
      "Name": "NPC8",
      "RotY": 290.4,
      "NPCID": 3044,
      "ValueSource": {},
      "StaticNPC": true,
      "DialogueGroups": [],
      "ServerInteractVerificationIDList": [],
      "MapLayerID": 2,
      "BoardShowList": [
        8
      ],
      "TalkDialogGroupIDList": [],
      "DefaultAnimationType": "FreeStyleGraph",
      "DefaultIdleFreeStyleMotionID": 200080000,
      "AnimGroupName": "Talk01_StandBy",
      "InitialHiddenNodeList": [],
      "SpawnConfig": {
        "EntitySpawnConfig": {},
        "CaptureDistanceTolerance": 10.0
      },
      "TriggerValidGuest": {}
    },
    {
      "ID": 400009,
      "PosX": 62.254,
      "PosY": 169.634,
      "PosZ": 71.769,
      "Name": "NPC9",
      "RotY": 258.5,
      "NPCID": 3002,
      "LevelGraph": "Config/Level/Mission/5005002/Act/Act500500297.json",
      "ValueSource": {},
      "SOConfig": {
        "InstanceID": 5
      },
      "StaticNPC": true,
      "DialogueGroups": [],
      "ServerInteractVerificationIDList": [],
      "MapLayerID": 2,
      "BoardShowList": [
        8
      ],
      "TalkDialogGroupIDList": [],
      "DefaultAnimationType": "FreeStyleGraph",
      "DefaultIdleFreeStyleMotionID": 900020248,
      "AnimGroupName": "Great01_StandBy",
      "InitialHiddenNodeList": [],
      "SpawnConfig": {
        "EntitySpawnConfig": {},
        "CaptureDistanceTolerance": 10.0
      },
      "TriggerValidGuest": {}
    },
    {
      "ID": 400010,
      "PosX": 59.651,
      "PosY": 169.7268,
      "PosZ": 72.089,
      "Name": "NPC10",
      "RotY": 95.9,
      "NPCID": 3002,
      "LevelGraph": "Config/Level/Mission/5005002/Act/Act500500297.json",
      "ValueSource": {},
      "SOConfig": {
        "InstanceID": 5
      },
      "StaticNPC": true,
      "DialogueGroups": [],
      "ServerInteractVerificationIDList": [],
      "MapLayerID": 2,
      "BoardShowList": [
        8
      ],
      "TalkDialogGroupIDList": [],
      "DefaultAnimationType": "FreeStyleGraph",
      "DefaultIdleFreeStyleMotionID": 900020248,
      "AnimGroupName": "Great01_StandBy",
      "InitialHiddenNodeList": [],
      "SpawnConfig": {
        "EntitySpawnConfig": {},
        "CaptureDistanceTolerance": 10.0
      },
      "TriggerValidGuest": {}
    },
    {
      "ID": 400011,
      "PosX": 61.816,
      "PosY": 169.648,
      "PosZ": 66.469,
      "Name": "NPC11",
      "RotY": 340.7,
      "NPCID": 3002,
      "LevelGraph": "Config/Level/Mission/5005002/Act/Act500500293.json",
      "ValueSource": {},
      "SOConfig": {
        "InstanceID": 5
      },
      "StaticNPC": true,
      "DialogueGroups": [],
      "ServerInteractVerificationIDList": [],
      "DefaultIdleStateName": "Idleshow01",
      "MapLayerID": 2,
      "BoardShowList": [
        8
      ],
      "TalkDialogGroupIDList": [],
      "DefaultAnimationType": "FreeStyleGraph",
      "DefaultIdleFreeStyleMotionID": 900020248,
      "AnimGroupName": "Great01_StandBy",
      "InitialHiddenNodeList": [],
      "SpawnConfig": {
        "EntitySpawnConfig": {},
        "CaptureDistanceTolerance": 10.0
      },
      "TriggerValidGuest": {}
    },
    {
      "ID": 400012,
      "PosX": -19.071,
      "PosY": 180.903,
      "PosZ": -93.198,
      "Name": "NPC12",
      "RotY": 305.6,
      "NPCID": 3002,
      "LevelGraph": "Config/Level/Mission/5005002/Act/Act500500298.json",
      "ValueSource": {},
      "StaticNPC": true,
      "DialogueGroups": [],
      "ServerInteractVerificationIDList": [],
      "MapLayerID": 2,
      "BoardShowList": [
        8
      ],
      "TalkDialogGroupIDList": [],
      "DefaultIdleFreeStyleMotionID": 900020014,
      "InitialHiddenNodeList": [],
      "SpawnConfig": {
        "EntitySpawnConfig": {},
        "CaptureDistanceTolerance": 10.0
      },
      "TriggerValidGuest": {}
    },
    {
      "ID": 400013,
      "PosX": -23.647,
      "PosY": 181.8563,
      "PosZ": -89.219,
      "Name": "NPC13",
      "RotY": 123.5,
      "NPCID": 3002,
      "LevelGraph": "Config/Level/Mission/5005002/Act/Act500500295.json",
      "ValueSource": {},
      "SOConfig": {
        "InstanceID": 4
      },
      "StaticNPC": true,
      "DialogueGroups": [],
      "ServerInteractVerificationIDList": [],
      "MapLayerID": 2,
      "BoardShowList": [],
      "TalkDialogGroupIDList": [],
      "DefaultAnimationType": "FreeStyleGraph",
      "DefaultIdleFreeStyleMotionID": 900020000,
      "AnimGroupName": "Repair01_StandBy",
      "InitialHiddenNodeList": [],
      "SpawnConfig": {
        "EntitySpawnConfig": {},
        "CaptureDistanceTolerance": 10.0
      },
      "TriggerValidGuest": {}
    },
    {
      "ID": 400014,
      "PosX": 24.509,
      "PosY": 172.6562,
      "PosZ": 59.2,
      "Name": "NPC14",
      "RotY": 195.7,
      "NPCID": 3044,
      "ValueSource": {
        "Values": []
      },
      "StaticNPC": true,
      "DialogueGroups": [],
      "ServerInteractVerificationIDList": [],
      "MapLayerID": 2,
      "BoardShowList": [
        8
      ],
      "TalkDialogGroupIDList": [],
      "DefaultAnimationType": "FreeStyleGraph",
      "DefaultIdleFreeStyleMotionID": 900130000,
      "AnimGroupName": "Talk01_StandBy",
      "InitialHiddenNodeList": [],
      "SpawnConfig": {
        "EntitySpawnConfig": {},
        "CaptureDistanceTolerance": 10.0
      },
      "TriggerValidGuest": {
        "TargetList": []
      }
    },
    {
      "ID": 400015,
      "PosX": 24.984,
      "PosY": 172.52,
      "PosZ": 58.421,
      "Name": "NPC15",
      "RotY": 300.7,
      "NPCID": 3045,
      "ValueSource": {},
      "StaticNPC": true,
      "DialogueGroups": [],
      "ServerInteractVerificationIDList": [],
      "MapLayerID": 2,
      "BoardShowList": [
        8
      ],
      "TalkDialogGroupIDList": [],
      "DefaultAnimationType": "FreeStyleGraph",
      "DefaultIdleFreeStyleMotionID": 900130000,
      "AnimGroupName": "Talk01_StandBy",
      "InitialHiddenNodeList": [],
      "SpawnConfig": {
        "EntitySpawnConfig": {},
        "CaptureDistanceTolerance": 10.0
      },
      "TriggerValidGuest": {}
    },
    {
      "ID": 400016,
      "PosX": 24.465,
      "PosY": 172.2357,
      "PosZ": 57.40301,
      "Name": "NPC16",
      "RotY": 356.1,
      "NPCID": 3049,
      "ValueSource": {
        "Values": []
      },
      "StaticNPC": true,
      "DialogueGroups": [],
      "ServerInteractVerificationIDList": [],
      "MapLayerID": 2,
      "BoardShowList": [
        8
      ],
      "TalkDialogGroupIDList": [],
      "DefaultAnimationType": "FreeStyleGraph",
      "DefaultIdleFreeStyleMotionID": 900140000,
      "AnimGroupName": "Talk01_StandBy",
      "InitialHiddenNodeList": [],
      "SpawnConfig": {
        "EntitySpawnConfig": {},
        "CaptureDistanceTolerance": 10.0
      },
      "TriggerValidGuest": {
        "TargetList": []
      }
    },
    {
      "ID": 400017,
      "PosX": -35.146,
      "PosY": 181.653,
      "PosZ": -86.533,
      "Name": "NPC17",
      "RotY": 325.2,
      "NPCID": 3049,
      "ValueSource": {},
      "StaticNPC": true,
      "DialogueGroups": [],
      "ServerInteractVerificationIDList": [],
      "MapLayerID": 2,
      "BoardShowList": [
        8
      ],
      "TalkDialogGroupIDList": [],
      "DefaultAnimationType": "FreeStyleGraph",
      "DefaultIdleFreeStyleMotionID": 900140000,
      "AnimGroupName": "Talk01_StandBy",
      "InitialHiddenNodeList": [],
      "SpawnConfig": {
        "EntitySpawnConfig": {},
        "CaptureDistanceTolerance": 10.0
      },
      "TriggerValidGuest": {}
    },
    {
      "ID": 400018,
      "PosX": -35.413,
      "PosY": 181.6634,
      "PosZ": -85.729,
      "Name": "NPC18",
      "RotY": 196.7,
      "NPCID": 3046,
      "ValueSource": {},
      "StaticNPC": true,
      "DialogueGroups": [],
      "ServerInteractVerificationIDList": [],
      "MapLayerID": 2,
      "BoardShowList": [
        8
      ],
      "TalkDialogGroupIDList": [],
      "DefaultAnimationType": "FreeStyleGraph",
      "DefaultIdleFreeStyleMotionID": 900130000,
      "AnimGroupName": "Talk01_StandBy",
      "InitialHiddenNodeList": [],
      "SpawnConfig": {
        "EntitySpawnConfig": {},
        "CaptureDistanceTolerance": 10.0
      },
      "TriggerValidGuest": {}
    },
    {
      "ID": 400019,
      "PosX": 0.482,
      "PosY": 180.903,
      "PosZ": -103.043,
      "Name": "NPC19",
      "RotY": 121.1,
      "NPCID": 3048,
      "ValueSource": {},
      "StaticNPC": true,
      "DialogueGroups": [],
      "ServerInteractVerificationIDList": [],
      "MapLayerID": 2,
      "BoardShowList": [
        8
      ],
      "TalkDialogGroupIDList": [],
      "DefaultAnimationType": "FreeStyleGraph",
      "DefaultIdleFreeStyleMotionID": 900140000,
      "AnimGroupName": "Talk01_StandBy",
      "InitialHiddenNodeList": [],
      "SpawnConfig": {
        "EntitySpawnConfig": {},
        "CaptureDistanceTolerance": 10.0
      },
      "TriggerValidGuest": {}
    },
    {
      "ID": 400020,
      "PosX": 1.477,
      "PosY": 180.903,
      "PosZ": -104.195,
      "Name": "NPC20",
      "RotY": 339.6,
      "NPCID": 3049,
      "ValueSource": {},
      "StaticNPC": true,
      "DialogueGroups": [],
      "ServerInteractVerificationIDList": [],
      "MapLayerID": 2,
      "BoardShowList": [
        8
      ],
      "TalkDialogGroupIDList": [],
      "DefaultAnimationType": "FreeStyleGraph",
      "DefaultIdleFreeStyleMotionID": 900140000,
      "AnimGroupName": "Talk01_StandBy",
      "InitialHiddenNodeList": [],
      "SpawnConfig": {
        "EntitySpawnConfig": {},
        "CaptureDistanceTolerance": 10.0
      },
      "TriggerValidGuest": {}
    },
    {
      "ID": 400021,
      "PosX": 37.089,
      "PosY": 172.7526,
      "PosZ": 35.315,
      "Name": "NPC21",
      "RotY": 237.1,
      "NPCID": 3045,
      "ValueSource": {
        "Values": []
      },
      "StaticNPC": true,
      "DialogueGroups": [],
      "ServerInteractVerificationIDList": [],
      "MapLayerID": 2,
      "BoardShowList": [
        8
      ],
      "TalkDialogGroupIDList": [],
      "DefaultAnimationType": "FreeStyleGraph",
      "DefaultIdleFreeStyleMotionID": 900130000,
      "AnimGroupName": "Talk01_StandBy",
      "InitialHiddenNodeList": [],
      "SpawnConfig": {
        "EntitySpawnConfig": {},
        "CaptureDistanceTolerance": 10.0
      },
      "TriggerValidGuest": {
        "TargetList": []
      }
    },
    {
      "ID": 400022,
      "PosX": 0.417,
      "PosY": 177.934,
      "PosZ": -128.277,
      "Name": "NPC22",
      "RotY": 295.2,
      "NPCID": 3047,
      "ValueSource": {
        "Values": []
      },
      "StaticNPC": true,
      "DialogueGroups": [],
      "ServerInteractVerificationIDList": [],
      "MapLayerID": 2,
      "BoardShowList": [
        8
      ],
      "TalkDialogGroupIDList": [],
      "DefaultAnimationType": "FreeStyleGraph",
      "DefaultIdleFreeStyleMotionID": 900130000,
      "AnimGroupName": "Talk01_StandBy",
      "InitialHiddenNodeList": [],
      "SpawnConfig": {
        "EntitySpawnConfig": {},
        "CaptureDistanceTolerance": 10.0
      },
      "TriggerValidGuest": {
        "TargetList": []
      }
    },
    {
      "ID": 400023,
      "PosX": -0.206,
      "PosY": 177.924,
      "PosZ": -129.041,
      "Name": "NPC23",
      "RotY": 322.8,
      "NPCID": 3044,
      "ValueSource": {
        "Values": []
      },
      "StaticNPC": true,
      "DialogueGroups": [],
      "ServerInteractVerificationIDList": [],
      "MapLayerID": 2,
      "BoardShowList": [
        8
      ],
      "TalkDialogGroupIDList": [],
      "DefaultAnimationType": "FreeStyleGraph",
      "DefaultIdleFreeStyleMotionID": 900130000,
      "AnimGroupName": "Talk01_StandBy",
      "InitialHiddenNodeList": [],
      "SpawnConfig": {
        "EntitySpawnConfig": {},
        "CaptureDistanceTolerance": 10.0
      },
      "TriggerValidGuest": {}
    },
    {
      "ID": 400024,
      "PosX": -9.68,
      "PosY": 177.9057,
      "PosZ": -113.145,
      "Name": "NPC24",
      "RotY": 85.7,
      "NPCID": 3046,
      "ValueSource": {
        "Values": []
      },
      "StaticNPC": true,
      "DialogueGroups": [],
      "ServerInteractVerificationIDList": [],
      "MapLayerID": 2,
      "BoardShowList": [
        8
      ],
      "TalkDialogGroupIDList": [],
      "DefaultAnimationType": "FreeStyleGraph",
      "DefaultIdleFreeStyleMotionID": 900130000,
      "AnimGroupName": "Talk01_StandBy",
      "InitialHiddenNodeList": [],
      "SpawnConfig": {
        "EntitySpawnConfig": {},
        "CaptureDistanceTolerance": 10.0
      },
      "TriggerValidGuest": {}
    },
    {
      "ID": 400025,
      "PosX": -9.172,
      "PosY": 177.9088,
      "PosZ": -112.629,
      "Name": "NPC25",
      "RotY": 207.0,
      "NPCID": 3044,
      "ValueSource": {
        "Values": []
      },
      "StaticNPC": true,
      "DialogueGroups": [],
      "ServerInteractVerificationIDList": [],
      "MapLayerID": 2,
      "BoardShowList": [
        8
      ],
      "TalkDialogGroupIDList": [],
      "DefaultAnimationType": "FreeStyleGraph",
      "DefaultIdleFreeStyleMotionID": 900130000,
      "AnimGroupName": "Talk01_StandBy",
      "InitialHiddenNodeList": [],
      "SpawnConfig": {
        "EntitySpawnConfig": {},
        "CaptureDistanceTolerance": 10.0
      },
      "TriggerValidGuest": {}
    },
    {
      "ID": 400026,
      "PosX": -23.267,
      "PosY": 177.4144,
      "PosZ": -122.696,
      "Name": "NPC26",
      "RotY": 238.3,
      "NPCID": 3002,
      "LevelGraph": "Config/Level/Mission/5005002/Act/Act500500295.json",
      "ValueSource": {},
      "SOConfig": {
        "InstanceID": 4
      },
      "StaticNPC": true,
      "DialogueGroups": [],
      "ServerInteractVerificationIDList": [],
      "MapLayerID": 2,
      "BoardShowList": [
        8
      ],
      "TalkDialogGroupIDList": [],
      "DefaultAnimationType": "FreeStyleGraph",
      "DefaultIdleFreeStyleMotionID": 900020247,
      "AnimGroupName": "Repair01_StandBy",
      "InitialHiddenNodeList": [],
      "SpawnConfig": {
        "EntitySpawnConfig": {},
        "CaptureDistanceTolerance": 10.0
      },
      "TriggerValidGuest": {}
    },
    {
      "ID": 400027,
      "PosX": -10.237,
      "PosY": 144.1314,
      "PosZ": -18.163,
      "IsDelete": true,
      "Name": "NPC27",
      "RotY": 240.5,
      "NPCID": 3002,
      "LevelGraph": "Config/Level/Mission/5005002/Act/Act500500295.json",
      "ValueSource": {
        "Values": []
      },
      "SOConfig": {
        "InstanceID": 4
      },
      "StaticNPC": true,
      "DialogueGroups": [],
      "ServerInteractVerificationIDList": [],
      "MapLayerID": 1,
      "BoardShowList": [
        8
      ],
      "TalkDialogGroupIDList": [],
      "DefaultIdleFreeStyleMotionID": 900020000,
      "AnimGroupName": "Repair01_StandBy",
      "InitialHiddenNodeList": [],
      "SpawnConfig": {
        "EntitySpawnConfig": {},
        "CaptureDistanceTolerance": 10.0
      },
      "TriggerValidGuest": {}
    },
    {
      "ID": 400029,
      "PosX": 7.518,
      "PosY": 144.1314,
      "PosZ": -15.616,
      "IsDelete": true,
      "Name": "NPC29",
      "RotY": 285.5,
      "NPCID": 3002,
      "LevelGraph": "Config/Level/Mission/5005002/Act/Act500500295.json",
      "ValueSource": {},
      "SOConfig": {
        "InstanceID": 4
      },
      "StaticNPC": true,
      "DialogueGroups": [],
      "ServerInteractVerificationIDList": [],
      "MapLayerID": 1,
      "BoardShowList": [
        8
      ],
      "TalkDialogGroupIDList": [],
      "DefaultIdleFreeStyleMotionID": 900020000,
      "AnimGroupName": "Repair01_StandBy",
      "InitialHiddenNodeList": [],
      "SpawnConfig": {
        "EntitySpawnConfig": {},
        "CaptureDistanceTolerance": 10.0
      },
      "TriggerValidGuest": {}
    },
    {
      "ID": 400030,
      "PosX": -3.194775,
      "PosY": 172.28,
      "PosZ": -85.68053,
      "Name": "NPC30",
      "RotY": 244.3,
      "NPCID": 3002,
      "LevelGraph": "Config/Level/Mission/5005002/Act/Act500500296.json",
      "ValueSource": {},
      "SOConfig": {
        "InstanceID": 4
      },
      "StaticNPC": true,
      "DialogueGroups": [],
      "ServerInteractVerificationIDList": [],
      "MapLayerID": 2,
      "BoardShowList": [
        8
      ],
      "TalkDialogGroupIDList": [],
      "DefaultAnimationType": "FreeStyleGraph",
      "DefaultIdleFreeStyleMotionID": 900020000,
      "AnimGroupName": "Repair01_StandBy",
      "InitialHiddenNodeList": [],
      "SpawnConfig": {
        "EntitySpawnConfig": {},
        "CaptureDistanceTolerance": 10.0
      },
      "TriggerValidGuest": {}
    },
    {
      "ID": 400031,
      "PosX": -5.586,
      "PosY": 172.2414,
      "PosZ": 90.778,
      "IsDelete": true,
      "Name": "NPC31",
      "RotY": 263.4299,
      "NPCID": 3080,
      "ValueSource": {},
      "DialogueGroups": [],
      "ServerInteractVerificationIDList": [],
      "MapLayerID": 2,
      "BoardShowList": [],
      "TalkDialogGroupIDList": [],
      "DefaultIdleFreeStyleMotionID": 900130000,
      "InitialHiddenNodeList": [],
      "SpawnConfig": {
        "EntitySpawnConfig": {}
      },
      "TriggerValidGuest": {}
    },
    {
      "ID": 400032,
      "PosX": -5.938004,
      "PosY": 172.2414,
      "PosZ": 91.878,
      "IsDelete": true,
      "Name": "NPC32",
      "RotY": 215.5643,
      "NPCID": 3081,
      "ValueSource": {},
      "DialogueGroups": [],
      "ServerInteractVerificationIDList": [],
      "MapLayerID": 2,
      "BoardShowList": [],
      "TalkDialogGroupIDList": [],
      "DefaultIdleFreeStyleMotionID": 900130000,
      "InitialHiddenNodeList": [],
      "SpawnConfig": {
        "EntitySpawnConfig": {}
      },
      "TriggerValidGuest": {}
    },
    {
      "ID": 400033,
      "PosX": -6.933,
      "PosY": 172.2414,
      "PosZ": 91.803,
      "IsDelete": true,
      "Name": "NPC33",
      "RotY": 165.7417,
      "NPCID": 3082,
      "ValueSource": {},
      "DialogueGroups": [],
      "ServerInteractVerificationIDList": [],
      "MapLayerID": 2,
      "BoardShowList": [],
      "TalkDialogGroupIDList": [],
      "DefaultIdleFreeStyleMotionID": 900130000,
      "InitialHiddenNodeList": [],
      "SpawnConfig": {
        "EntitySpawnConfig": {}
      },
      "TriggerValidGuest": {}
    },
    {
      "ID": 400034,
      "PosX": -4.685,
      "PosY": 172.2414,
      "PosZ": 82.707,
      "IsDelete": true,
      "Name": "NPC34",
      "NPCID": 3083,
      "ValueSource": {},
      "DialogueGroups": [],
      "ServerInteractVerificationIDList": [],
      "MapLayerID": 2,
      "BoardShowList": [],
      "TalkDialogGroupIDList": [],
      "DefaultIdleFreeStyleMotionID": 900130000,
      "InitialHiddenNodeList": [],
      "SpawnConfig": {
        "EntitySpawnConfig": {}
      },
      "TriggerValidGuest": {}
    },
    {
      "ID": 400035,
      "PosX": -4.295,
      "PosY": 172.2414,
      "PosZ": 83.679,
      "IsDelete": true,
      "Name": "NPC35",
      "RotY": 278.989,
      "NPCID": 3084,
      "ValueSource": {},
      "DialogueGroups": [],
      "ServerInteractVerificationIDList": [],
      "MapLayerID": 2,
      "BoardShowList": [],
      "TalkDialogGroupIDList": [],
      "DefaultIdleFreeStyleMotionID": 900130000,
      "InitialHiddenNodeList": [],
      "SpawnConfig": {
        "EntitySpawnConfig": {}
      },
      "TriggerValidGuest": {}
    },
    {
      "ID": 400036,
      "PosX": -5.755997,
      "PosY": 172.2414,
      "PosZ": 82.57264,
      "IsDelete": true,
      "Name": "NPC36",
      "NPCID": 3085,
      "ValueSource": {},
      "DialogueGroups": [],
      "ServerInteractVerificationIDList": [],
      "MapLayerID": 2,
      "BoardShowList": [],
      "TalkDialogGroupIDList": [],
      "DefaultIdleFreeStyleMotionID": 900130000,
      "InitialHiddenNodeList": [],
      "SpawnConfig": {
        "EntitySpawnConfig": {}
      },
      "TriggerValidGuest": {}
    },
    {
      "ID": 400038,
      "PosX": -12.4179,
      "PosY": 172.2414,
      "PosZ": 88.5138,
      "IsDelete": true,
      "Name": "NPC38",
      "NPCID": 3086,
      "ValueSource": {},
      "DialogueGroups": [],
      "ServerInteractVerificationIDList": [],
      "MapLayerID": 2,
      "BoardShowList": [],
      "TalkDialogGroupIDList": [],
      "DefaultIdleFreeStyleMotionID": 900130000,
      "InitialHiddenNodeList": [],
      "SpawnConfig": {
        "EntitySpawnConfig": {}
      },
      "TriggerValidGuest": {}
    },
    {
      "ID": 400039,
      "PosX": -12.67265,
      "PosY": 172.2414,
      "PosZ": 87.467,
      "IsDelete": true,
      "Name": "NPC39",
      "RotY": 39.68673,
      "NPCID": 3087,
      "ValueSource": {},
      "DialogueGroups": [],
      "ServerInteractVerificationIDList": [],
      "MapLayerID": 2,
      "BoardShowList": [],
      "TalkDialogGroupIDList": [],
      "DefaultIdleFreeStyleMotionID": 900130000,
      "InitialHiddenNodeList": [],
      "SpawnConfig": {
        "EntitySpawnConfig": {}
      },
      "TriggerValidGuest": {}
    },
    {
      "ID": 400040,
      "PosX": -11.526,
      "PosY": 172.2414,
      "PosZ": 88.4155,
      "IsDelete": true,
      "Name": "NPC40",
      "NPCID": 3088,
      "ValueSource": {},
      "DialogueGroups": [],
      "ServerInteractVerificationIDList": [],
      "MapLayerID": 2,
      "BoardShowList": [],
      "TalkDialogGroupIDList": [],
      "DefaultIdleFreeStyleMotionID": 900130000,
      "InitialHiddenNodeList": [],
      "SpawnConfig": {
        "EntitySpawnConfig": {}
      },
      "TriggerValidGuest": {}
    }
  ]
}