{
  "GroupGUID": "74170a5b-4ee1-4fa9-878a-3d8bcb331947",
  "GroupName": "Crowd",
  "Category": "Atmosphere",
  "AreaAnchorName": "LevelArea_P20004_F20004001_G50",
  "SaveType": "Reset",
  "AtmosphereCondition": {
    "Conditions": [
      {
        "$type": "LevelGroupMissionSavedValueCondition",
        "MainMissionID": 200100139
      }
    ]
  },
  "LoadOnInitial": true,
  "ValueSource": {},
  "ConflictIDList": [],
  "IsHoyoGroup": true,
  "HoYoGroupType": "Container",
  "ConflictSpatialInfo": {
    "CompactGridList": [
      -1,
      -65,
      3,
      -61,
      -7,
      -56,
      -6,
      -56,
      -6,
      -55,
      -9,
      -54,
      0,
      -44,
      -19,
      -38,
      29,
      -21,
      -31,
      15,
      -36,
      19,
      32,
      24,
      21,
      25,
      34,
      25,
      24,
      28,
      32,
      28,
      23,
      29,
      8,
      31,
      22,
      32,
      23,
      32,
      8,
      33,
      9,
      33,
      31,
      33,
      25,
      35
    ],
    "LowerUpperBounds": {
      "x": 84,
      "y": 92
    }
  },
  "StreamingSpatialInfo": {
    "CompactGridList": [
      -1,
      -65,
      3,
      -61,
      -7,
      -56,
      -6,
      -56,
      -6,
      -55,
      -9,
      -54,
      0,
      -44,
      -19,
      -38,
      29,
      -21,
      -31,
      15,
      -36,
      19,
      32,
      24,
      21,
      25,
      34,
      25,
      24,
      28,
      32,
      28,
      23,
      29,
      8,
      31,
      22,
      32,
      23,
      32,
      8,
      33,
      9,
      33,
      31,
      33,
      25,
      35
    ],
    "LowerUpperBounds": {
      "x": 84,
      "y": 92
    }
  },
  "ConflictWhiteList": [],
  "AnchorList": [],
  "MonsterList": [],
  "PropList": [],
  "NPCList": [
    {
      "ID": 400001,
      "PosX": -10.975,
      "PosY": 180.9264,
      "PosZ": -109.278,
      "Name": "NPC1",
      "RotY": 169.4,
      "NPCID": 3045,
      "ValueSource": {},
      "DialogueGroups": [],
      "ServerInteractVerificationIDList": [],
      "MapLayerID": 2,
      "BoardShowList": [],
      "TalkDialogGroupIDList": [],
      "DefaultAnimationType": "FreeStyleGraph",
      "DefaultIdleFreeStyleMotionID": 900130000,
      "AnimGroupName": "Talk01_StandBy",
      "InitialHiddenNodeList": [],
      "SpawnConfig": {
        "EntitySpawnConfig": {}
      },
      "TriggerValidGuest": {}
    },
    {
      "ID": 400002,
      "PosX": 50.598,
      "PosY": 169.648,
      "PosZ": 71.68501,
      "Name": "NPC2",
      "RotY": 295.2,
      "NPCID": 3048,
      "ValueSource": {
        "Values": []
      },
      "StaticNPC": true,
      "DialogueGroups": [],
      "ServerInteractVerificationIDList": [],
      "MapLayerID": 2,
      "BoardShowList": [
        8
      ],
      "TalkDialogGroupIDList": [],
      "DefaultAnimationType": "FreeStyleGraph",
      "DefaultIdleFreeStyleMotionID": 900140000,
      "AnimGroupName": "Talk01_StandBy",
      "InitialHiddenNodeList": [],
      "SpawnConfig": {
        "EntitySpawnConfig": {},
        "CaptureDistanceTolerance": 10.0
      },
      "TriggerValidGuest": {}
    },
    {
      "ID": 400003,
      "PosX": 50.519,
      "PosY": 169.648,
      "PosZ": 71.044,
      "Name": "NPC3",
      "RotY": 300.2,
      "NPCID": 3044,
      "ValueSource": {
        "Values": []
      },
      "StaticNPC": true,
      "DialogueGroups": [],
      "ServerInteractVerificationIDList": [],
      "MapLayerID": 2,
      "BoardShowList": [
        8
      ],
      "TalkDialogGroupIDList": [],
      "DefaultAnimationType": "FreeStyleGraph",
      "DefaultIdleFreeStyleMotionID": 900130000,
      "AnimGroupName": "Talk01_StandBy",
      "InitialHiddenNodeList": [],
      "SpawnConfig": {
        "EntitySpawnConfig": {},
        "CaptureDistanceTolerance": 10.0
      },
      "TriggerValidGuest": {}
    },
    {
      "ID": 400004,
      "PosX": 44.699,
      "PosY": 171.021,
      "PosZ": 65.736,
      "Name": "NPC4",
      "RotY": 134.7,
      "NPCID": 3049,
      "ValueSource": {
        "Values": []
      },
      "StaticNPC": true,
      "DialogueGroups": [],
      "ServerInteractVerificationIDList": [],
      "MapLayerID": 2,
      "BoardShowList": [
        8
      ],
      "TalkDialogGroupIDList": [],
      "DefaultAnimationType": "FreeStyleGraph",
      "DefaultIdleFreeStyleMotionID": 900140000,
      "AnimGroupName": "Talk01_StandBy",
      "InitialHiddenNodeList": [],
      "SpawnConfig": {
        "EntitySpawnConfig": {},
        "CaptureDistanceTolerance": 10.0
      },
      "TriggerValidGuest": {}
    },
    {
      "ID": 400005,
      "PosX": 46.59359,
      "PosY": 170.433,
      "PosZ": 64.62066,
      "Name": "NPC5",
      "RotY": 300.2,
      "NPCID": 3045,
      "ValueSource": {
        "Values": []
      },
      "StaticNPC": true,
      "DialogueGroups": [],
      "ServerInteractVerificationIDList": [],
      "MapLayerID": 2,
      "BoardShowList": [
        8
      ],
      "TalkDialogGroupIDList": [],
      "DefaultAnimationType": "FreeStyleGraph",
      "DefaultIdleFreeStyleMotionID": 900130000,
      "AnimGroupName": "Talk01_StandBy",
      "InitialHiddenNodeList": [],
      "SpawnConfig": {
        "EntitySpawnConfig": {},
        "CaptureDistanceTolerance": 10.0
      },
      "TriggerValidGuest": {}
    },
    {
      "ID": 400006,
      "PosX": 65.074,
      "PosY": 169.648,
      "PosZ": 49.318,
      "Name": "NPC6",
      "RotY": 83.3,
      "NPCID": 3044,
      "ValueSource": {},
      "StaticNPC": true,
      "DialogueGroups": [],
      "ServerInteractVerificationIDList": [],
      "MapLayerID": 2,
      "BoardShowList": [
        8
      ],
      "TalkDialogGroupIDList": [],
      "DefaultIdleFreeStyleMotionID": 900130000,
      "InitialHiddenNodeList": [],
      "SpawnConfig": {
        "EntitySpawnConfig": {},
        "CaptureDistanceTolerance": 10.0
      },
      "TriggerValidGuest": {}
    },
    {
      "ID": 400007,
      "PosX": 65.356,
      "PosY": 170.0996,
      "PosZ": 48.6,
      "Name": "NPC7",
      "RotY": 63.09999,
      "NPCID": 3047,
      "ValueSource": {
        "Values": []
      },
      "StaticNPC": true,
      "DialogueGroups": [],
      "ServerInteractVerificationIDList": [],
      "MapLayerID": 2,
      "BoardShowList": [
        8
      ],
      "TalkDialogGroupIDList": [],
      "DefaultIdleFreeStyleMotionID": 900130000,
      "InitialHiddenNodeList": [],
      "SpawnConfig": {
        "EntitySpawnConfig": {},
        "CaptureDistanceTolerance": 10.0
      },
      "TriggerValidGuest": {}
    },
    {
      "ID": 400008,
      "PosX": 16.601,
      "PosY": 173.5676,
      "PosZ": 67.105,
      "Name": "NPC8",
      "RotY": 128.1,
      "NPCID": 3047,
      "ValueSource": {
        "Values": []
      },
      "StaticNPC": true,
      "DialogueGroups": [],
      "ServerInteractVerificationIDList": [],
      "MapLayerID": 2,
      "BoardShowList": [
        8
      ],
      "TalkDialogGroupIDList": [],
      "DefaultAnimationType": "FreeStyleGraph",
      "DefaultIdleFreeStyleMotionID": 900130000,
      "AnimGroupName": "Talk01_StandBy",
      "InitialHiddenNodeList": [],
      "SpawnConfig": {
        "EntitySpawnConfig": {},
        "CaptureDistanceTolerance": 10.0
      },
      "TriggerValidGuest": {}
    },
    {
      "ID": 400009,
      "PosX": 17.3023,
      "PosY": 173.617,
      "PosZ": 67.66,
      "Name": "NPC9",
      "RotY": 154.1,
      "NPCID": 3108,
      "ValueSource": {
        "Values": []
      },
      "StaticNPC": true,
      "DialogueGroups": [],
      "ServerInteractVerificationIDList": [],
      "MapLayerID": 2,
      "BoardShowList": [
        8
      ],
      "TalkDialogGroupIDList": [],
      "DefaultIdleFreeStyleMotionID": 900130000,
      "InitialHiddenNodeList": [],
      "SpawnConfig": {
        "EntitySpawnConfig": {},
        "CaptureDistanceTolerance": 10.0
      },
      "TriggerValidGuest": {}
    },
    {
      "ID": 400010,
      "PosX": 16.224,
      "PosY": 172.3147,
      "PosZ": 62.555,
      "Name": "NPC10",
      "RotY": 79.9,
      "NPCID": 3002,
      "LevelGraph": "Config/Level/Mission/5005002/Act/Act500500296.json",
      "ValueSource": {},
      "StaticNPC": true,
      "DialogueGroups": [],
      "ServerInteractVerificationIDList": [],
      "DefaultLookAtMode": "Closed",
      "MapLayerID": 2,
      "BoardShowList": [],
      "TalkDialogGroupIDList": [],
      "DefaultAnimationType": "FreeStyleGraph",
      "DefaultIdleFreeStyleMotionID": 900020229,
      "AnimGroupName": "Sad01_StandBy",
      "InitialHiddenNodeList": [],
      "SpawnConfig": {
        "EntitySpawnConfig": {},
        "CaptureDistanceTolerance": 10.0
      },
      "TriggerValidGuest": {}
    },
    {
      "ID": 400011,
      "PosX": 18.461,
      "PosY": 172.3147,
      "PosZ": 67.258,
      "Name": "NPC11",
      "RotY": 231.5,
      "NPCID": 3002,
      "LevelGraph": "Config/Level/Mission/5005002/Act/Act500500296.json",
      "ValueSource": {},
      "StaticNPC": true,
      "DialogueGroups": [],
      "ServerInteractVerificationIDList": [],
      "DefaultLookAtMode": "Closed",
      "MapLayerID": 2,
      "BoardShowList": [],
      "TalkDialogGroupIDList": [],
      "DefaultAnimationType": "FreeStyleGraph",
      "DefaultIdleFreeStyleMotionID": 900020229,
      "AnimGroupName": "Sad01_StandBy",
      "InitialHiddenNodeList": [],
      "SpawnConfig": {
        "EntitySpawnConfig": {},
        "CaptureDistanceTolerance": 10.0
      },
      "TriggerValidGuest": {}
    },
    {
      "ID": 400012,
      "PosX": 16.568,
      "PosY": 172.3147,
      "PosZ": 66.155,
      "Name": "NPC12",
      "RotY": 127.4,
      "NPCID": 3002,
      "LevelGraph": "Config/Level/Mission/5005002/Act/Act500500296.json",
      "ValueSource": {},
      "StaticNPC": true,
      "DialogueGroups": [],
      "ServerInteractVerificationIDList": [],
      "DefaultLookAtMode": "Closed",
      "MapLayerID": 2,
      "BoardShowList": [],
      "TalkDialogGroupIDList": [],
      "DefaultAnimationType": "FreeStyleGraph",
      "DefaultIdleFreeStyleMotionID": 900020229,
      "AnimGroupName": "Sad01_StandBy",
      "InitialHiddenNodeList": [],
      "SpawnConfig": {
        "EntitySpawnConfig": {},
        "CaptureDistanceTolerance": 10.0
      },
      "TriggerValidGuest": {}
    },
    {
      "ID": 400013,
      "PosX": 65.207,
      "PosY": 169.648,
      "PosZ": 57.974,
      "Name": "NPC13",
      "RotY": 242.4,
      "NPCID": 3002,
      "LevelGraph": "Config/Level/Mission/5005002/Act/Act500500296.json",
      "ValueSource": {},
      "StaticNPC": true,
      "DialogueGroups": [],
      "ServerInteractVerificationIDList": [],
      "DefaultLookAtMode": "Closed",
      "MapLayerID": 2,
      "BoardShowList": [],
      "TalkDialogGroupIDList": [],
      "DefaultAnimationType": "FreeStyleGraph",
      "DefaultIdleFreeStyleMotionID": 900020229,
      "AnimGroupName": "Sad01_StandBy",
      "InitialHiddenNodeList": [],
      "SpawnConfig": {
        "EntitySpawnConfig": {},
        "CaptureDistanceTolerance": 10.0
      },
      "TriggerValidGuest": {}
    },
    {
      "ID": 400014,
      "PosX": 48.325,
      "PosY": 173.057,
      "PosZ": 57.952,
      "Name": "NPC14",
      "RotY": 338.2,
      "NPCID": 3002,
      "LevelGraph": "Config/Level/Mission/5005002/Act/Act500500295.json",
      "ValueSource": {},
      "StaticNPC": true,
      "DialogueGroups": [],
      "ServerInteractVerificationIDList": [],
      "DefaultLookAtMode": "Closed",
      "MapLayerID": 2,
      "BoardShowList": [],
      "TalkDialogGroupIDList": [],
      "DefaultIdleFreeStyleMotionID": 900020000,
      "AnimGroupName": "Repair01_StandBy",
      "InitialHiddenNodeList": [],
      "SpawnConfig": {
        "EntitySpawnConfig": {},
        "CaptureDistanceTolerance": 10.0
      },
      "TriggerValidGuest": {}
    },
    {
      "ID": 400015,
      "PosX": 47.294,
      "PosY": 172.3147,
      "PosZ": 58.876,
      "Name": "NPC15",
      "RotY": 43.4,
      "NPCID": 3002,
      "LevelGraph": "Config/Level/Mission/5005002/Act/Act500500295.json",
      "ValueSource": {},
      "StaticNPC": true,
      "DialogueGroups": [],
      "ServerInteractVerificationIDList": [],
      "DefaultLookAtMode": "Closed",
      "MapLayerID": 2,
      "BoardShowList": [],
      "TalkDialogGroupIDList": [],
      "DefaultAnimationType": "FreeStyleGraph",
      "DefaultIdleFreeStyleMotionID": 900020247,
      "AnimGroupName": "Repair01_StandBy",
      "IsMapContent": true,
      "InitialHiddenNodeList": [],
      "SpawnConfig": {
        "EntitySpawnConfig": {},
        "CaptureDistanceTolerance": 10.0
      },
      "TriggerValidGuest": {}
    },
    {
      "ID": 400016,
      "PosX": -60.389,
      "PosY": 177.5692,
      "PosZ": 31.477,
      "Name": "NPC16",
      "RotY": 52.0,
      "NPCID": 3002,
      "LevelGraph": "Config/Level/Mission/5005002/Act/Act500500295.json",
      "ValueSource": {},
      "StaticNPC": true,
      "DialogueGroups": [],
      "ServerInteractVerificationIDList": [],
      "DefaultLookAtMode": "Closed",
      "MapLayerID": 2,
      "BoardShowList": [],
      "TalkDialogGroupIDList": [],
      "DefaultAnimationType": "FreeStyleGraph",
      "DefaultIdleFreeStyleMotionID": 900020247,
      "AnimGroupName": "Repair01_StandBy",
      "InitialHiddenNodeList": [],
      "SpawnConfig": {
        "EntitySpawnConfig": {},
        "CaptureDistanceTolerance": 10.0
      },
      "TriggerValidGuest": {}
    },
    {
      "ID": 400017,
      "PosX": -71.394,
      "PosY": 177.5692,
      "PosZ": 38.419,
      "Name": "NPC17",
      "RotY": 346.7,
      "NPCID": 3002,
      "LevelGraph": "Config/Level/Mission/5005002/Act/Act500500295.json",
      "ValueSource": {},
      "StaticNPC": true,
      "DialogueGroups": [],
      "ServerInteractVerificationIDList": [],
      "DefaultLookAtMode": "Closed",
      "MapLayerID": 2,
      "BoardShowList": [],
      "TalkDialogGroupIDList": [],
      "DefaultAnimationType": "FreeStyleGraph",
      "DefaultIdleFreeStyleMotionID": 900020000,
      "AnimGroupName": "Repair01_StandBy",
      "InitialHiddenNodeList": [],
      "SpawnConfig": {
        "EntitySpawnConfig": {},
        "CaptureDistanceTolerance": 10.0
      },
      "TriggerValidGuest": {}
    },
    {
      "ID": 400019,
      "PosX": 43.147,
      "PosY": 172.2476,
      "PosZ": 50.286,
      "Name": "NPC19",
      "RotY": 313.6,
      "NPCID": 3002,
      "LevelGraph": "Config/Level/Mission/5005002/Act/Act500500293.json",
      "ValueSource": {},
      "StaticNPC": true,
      "DialogueGroups": [],
      "ServerInteractVerificationIDList": [],
      "DefaultLookAtMode": "Closed",
      "MapLayerID": 2,
      "BoardShowList": [],
      "TalkDialogGroupIDList": [],
      "DefaultIdleFreeStyleMotionID": 900020000,
      "AnimGroupName": "Great01_StandBy",
      "InitialHiddenNodeList": [],
      "SpawnConfig": {
        "EntitySpawnConfig": {},
        "CaptureDistanceTolerance": 10.0
      },
      "TriggerValidGuest": {}
    },
    {
      "ID": 400021,
      "PosX": 68.684,
      "PosY": 169.7268,
      "PosZ": 51.205,
      "Name": "NPC21",
      "RotY": 232.2,
      "NPCID": 3002,
      "LevelGraph": "Config/Level/Mission/5005002/Act/Act500500293.json",
      "ValueSource": {},
      "StaticNPC": true,
      "DialogueGroups": [],
      "ServerInteractVerificationIDList": [],
      "DefaultLookAtMode": "Closed",
      "MapLayerID": 2,
      "BoardShowList": [],
      "TalkDialogGroupIDList": [],
      "DefaultAnimationType": "IdleState",
      "DefaultIdleFreeStyleMotionID": 900020248,
      "InitialHiddenNodeList": [],
      "SpawnConfig": {
        "EntitySpawnConfig": {},
        "CaptureDistanceTolerance": 10.0
      },
      "TriggerValidGuest": {}
    },
    {
      "ID": 400022,
      "PosX": 59.333,
      "PosY": 173.021,
      "PosZ": -41.71,
      "Name": "NPC22",
      "RotY": 237.6,
      "NPCID": 3002,
      "LevelGraph": "Config/Level/Mission/5005002/Act/Act500500295.json",
      "ValueSource": {},
      "StaticNPC": true,
      "DialogueGroups": [],
      "ServerInteractVerificationIDList": [],
      "DefaultLookAtMode": "Closed",
      "MapLayerID": 2,
      "BoardShowList": [],
      "TalkDialogGroupIDList": [],
      "DefaultAnimationType": "IdleState",
      "DefaultIdleFreeStyleMotionID": 900020247,
      "InitialHiddenNodeList": [],
      "SpawnConfig": {
        "EntitySpawnConfig": {},
        "CaptureDistanceTolerance": 10.0
      },
      "TriggerValidGuest": {}
    },
    {
      "ID": 400023,
      "PosX": -1.952,
      "PosY": 177.4144,
      "PosZ": -129.067,
      "Name": "NPC23",
      "RotY": 26.2,
      "NPCID": 3002,
      "LevelGraph": "Config/Level/Mission/5005002/Act/Act500500293.json",
      "ValueSource": {},
      "StaticNPC": true,
      "DialogueGroups": [],
      "ServerInteractVerificationIDList": [],
      "DefaultLookAtMode": "Closed",
      "MapLayerID": 2,
      "BoardShowList": [],
      "TalkDialogGroupIDList": [],
      "DefaultAnimationType": "FreeStyleGraph",
      "DefaultIdleFreeStyleMotionID": 900020248,
      "AnimGroupName": "Great01_StandBy",
      "InitialHiddenNodeList": [],
      "SpawnConfig": {
        "EntitySpawnConfig": {},
        "CaptureDistanceTolerance": 10.0
      },
      "TriggerValidGuest": {}
    },
    {
      "ID": 400024,
      "PosX": -10.674,
      "PosY": 180.9264,
      "PosZ": -110.115,
      "Name": "NPC24",
      "RotY": 295.4,
      "NPCID": 3002,
      "LevelGraph": "Config/Level/Mission/5005002/Act/Act500500298.json",
      "ValueSource": {},
      "StaticNPC": true,
      "DialogueGroups": [],
      "ServerInteractVerificationIDList": [],
      "DefaultIdleStateName": "Talk01",
      "DefaultLookAtMode": "Closed",
      "MapLayerID": 2,
      "BoardShowList": [],
      "TalkDialogGroupIDList": [],
      "DefaultIdleFreeStyleMotionID": 900020000,
      "InitialHiddenNodeList": [],
      "SpawnConfig": {
        "EntitySpawnConfig": {},
        "CaptureDistanceTolerance": 10.0
      },
      "TriggerValidGuest": {}
    },
    {
      "ID": 400026,
      "PosX": -12.457,
      "PosY": 180.9203,
      "PosZ": -111.16,
      "Name": "NPC26",
      "RotY": 92.90001,
      "NPCID": 3047,
      "ValueSource": {
        "Values": []
      },
      "StaticNPC": true,
      "DialogueGroups": [],
      "ServerInteractVerificationIDList": [],
      "MapLayerID": 2,
      "BoardShowList": [
        8
      ],
      "TalkDialogGroupIDList": [],
      "DefaultAnimationType": "FreeStyleGraph",
      "DefaultIdleFreeStyleMotionID": 900130000,
      "AnimGroupName": "Talk01_StandBy",
      "InitialHiddenNodeList": [],
      "SpawnConfig": {
        "EntitySpawnConfig": {},
        "CaptureDistanceTolerance": 10.0
      },
      "TriggerValidGuest": {}
    },
    {
      "ID": 400027,
      "PosX": -16.466,
      "PosY": 180.9203,
      "PosZ": -107.351,
      "Name": "NPC27",
      "RotY": 197.6,
      "NPCID": 3002,
      "LevelGraph": "Config/Level/Mission/5005002/Act/Act500500295.json",
      "ValueSource": {},
      "StaticNPC": true,
      "DialogueGroups": [],
      "ServerInteractVerificationIDList": [],
      "DefaultLookAtMode": "Closed",
      "MapLayerID": 2,
      "BoardShowList": [],
      "TalkDialogGroupIDList": [],
      "DefaultAnimationType": "FreeStyleGraph",
      "DefaultIdleFreeStyleMotionID": 900020247,
      "AnimGroupName": "Repair01_StandBy",
      "InitialHiddenNodeList": [],
      "SpawnConfig": {
        "EntitySpawnConfig": {},
        "CaptureDistanceTolerance": 10.0
      },
      "TriggerValidGuest": {}
    },
    {
      "ID": 400028,
      "PosX": 1.908,
      "PosY": 182.271,
      "PosZ": -87.471,
      "Name": "NPC28",
      "RotY": 286.5,
      "NPCID": 3002,
      "LevelGraph": "Config/Level/Mission/5005002/Act/Act500500295.json",
      "ValueSource": {},
      "StaticNPC": true,
      "DialogueGroups": [],
      "ServerInteractVerificationIDList": [],
      "DefaultLookAtMode": "Closed",
      "MapLayerID": 2,
      "BoardShowList": [],
      "TalkDialogGroupIDList": [],
      "DefaultAnimationType": "IdleState",
      "DefaultIdleFreeStyleMotionID": 900020247,
      "InitialHiddenNodeList": [],
      "SpawnConfig": {
        "EntitySpawnConfig": {},
        "CaptureDistanceTolerance": 10.0
      },
      "TriggerValidGuest": {}
    },
    {
      "ID": 400029,
      "PosX": 6.587,
      "PosY": 177.4117,
      "PosZ": -121.041,
      "Name": "NPC29",
      "RotY": 297.4,
      "NPCID": 3002,
      "LevelGraph": "Config/Level/Mission/5005002/Act/Act500500298.json",
      "ValueSource": {},
      "StaticNPC": true,
      "DialogueGroups": [],
      "ServerInteractVerificationIDList": [],
      "DefaultIdleStateName": "Talk01",
      "DefaultLookAtMode": "Closed",
      "MapLayerID": 2,
      "BoardShowList": [],
      "TalkDialogGroupIDList": [],
      "DefaultIdleFreeStyleMotionID": 900020000,
      "InitialHiddenNodeList": [],
      "SpawnConfig": {
        "EntitySpawnConfig": {},
        "CaptureDistanceTolerance": 10.0
      },
      "TriggerValidGuest": {}
    },
    {
      "ID": 400030,
      "PosX": -37.269,
      "PosY": 182.93,
      "PosZ": -75.611,
      "Name": "NPC30",
      "RotY": 294.2,
      "NPCID": 3002,
      "LevelGraph": "Config/Level/Mission/5005002/Act/Act500500293.json",
      "ValueSource": {},
      "StaticNPC": true,
      "DialogueGroups": [],
      "ServerInteractVerificationIDList": [],
      "DefaultIdleStateName": "Talk01",
      "DefaultLookAtMode": "Closed",
      "MapLayerID": 2,
      "BoardShowList": [],
      "TalkDialogGroupIDList": [],
      "DefaultIdleFreeStyleMotionID": 900020000,
      "InitialHiddenNodeList": [],
      "SpawnConfig": {
        "EntitySpawnConfig": {},
        "CaptureDistanceTolerance": 10.0
      },
      "TriggerValidGuest": {}
    },
    {
      "ID": 400031,
      "PosX": 51.388,
      "PosY": 169.7268,
      "PosZ": 71.97,
      "Name": "NPC31",
      "RotY": 265.9,
      "NPCID": 3002,
      "LevelGraph": "Config/Level/Mission/5005002/Act/Act500500297.json",
      "ValueSource": {},
      "StaticNPC": true,
      "DialogueGroups": [],
      "ServerInteractVerificationIDList": [],
      "DefaultLookAtMode": "Closed",
      "MapLayerID": 2,
      "BoardShowList": [],
      "TalkDialogGroupIDList": [],
      "DefaultAnimationType": "FreeStyleGraph",
      "DefaultIdleFreeStyleMotionID": 900020000,
      "AnimGroupName": "Great01_StandBy",
      "InitialHiddenNodeList": [],
      "SpawnConfig": {
        "EntitySpawnConfig": {},
        "CaptureDistanceTolerance": 10.0
      },
      "TriggerValidGuest": {}
    },
    {
      "ID": 400033,
      "PosX": 62.862,
      "PosY": 169.648,
      "PosZ": 66.59,
      "Name": "NPC33",
      "RotY": 319.1,
      "NPCID": 3002,
      "LevelGraph": "Config/Level/Mission/5005002/Act/Act500500297.json",
      "ValueSource": {},
      "StaticNPC": true,
      "DialogueGroups": [],
      "ServerInteractVerificationIDList": [],
      "DefaultLookAtMode": "Closed",
      "MapLayerID": 2,
      "BoardShowList": [],
      "TalkDialogGroupIDList": [],
      "DefaultAnimationType": "IdleState",
      "DefaultIdleFreeStyleMotionID": 900020000,
      "InitialHiddenNodeList": [],
      "SpawnConfig": {
        "EntitySpawnConfig": {},
        "CaptureDistanceTolerance": 10.0
      },
      "TriggerValidGuest": {}
    }
  ]
}