{
  "GroupGUID": "b5c57feb-29ae-4811-8848-0db6fa763aae",
  "GroupName": "Rogue140_SubMonster",
  "Category": "Custom",
  "LevelGraph": "Config/Level/Maze/MazeRogue/Rogue140/Rogue140Module_SubMonster.json",
  "AreaAnchorName": "LevelArea_P80305_F80305001_G94",
  "LoadSide": "Server",
  "LoadOnInitial": true,
  "ConflictIDList": [],
  "IsHoyoGroup": true,
  "ConflictSpatialInfo": {
    "CompactGridList": [
      -48,
      72
    ],
    "LowerUpperBounds": {
      "x": 131,
      "y": 132
    }
  },
  "StreamingSpatialInfo": {
    "CompactGridList": [
      -48,
      72
    ],
    "LowerUpperBounds": {
      "x": 131,
      "y": 132
    }
  },
  "ConflictWhiteList": [],
  "AnchorList": [],
  "MonsterList": [
    {
      "ID": 200001,
      "PosX": -94.1178,
      "PosY": 47.31338,
      "PosZ": 144.8671,
      "Name": "Monster1",
      "RotY": 74.99999,
      "NPCMonsterID": 1002040,
      "AIConfig": {
        "PathwayList": [
          {
            "UseOwnerGroup": true,
            "UseGroup": 94,
            "UseID": 1
          }
        ],
        "SlaveConfigList": []
      },
      "CampID": 3,
      "BattleArea": {
        "GroupID": 3,
        "ID": 1
      },
      "EventID": 99999011,
      "MapLayerID": 1,
      "BoardShowList": [
        4
      ],
      "DefaultLookAtMode": "Closed",
      "TagList": []
    }
  ],
  "PropList": [
    {
      "ID": 300001,
      "PosX": -94.1178,
      "PosY": 47.31338,
      "PosZ": 144.8671,
      "Name": "Buff",
      "RotY": 74.99999,
      "PropID": 100,
      "IsOverrideInitLevelGraph": true,
      "InitLevelGraph": "Config/Level/Maze/MazeRogue/Maze_Rogue_Prop_TriggerBuffSelect.json",
      "Trigger": {
        "Radius": 2.0,
        "DimX": 1.0,
        "DimY": 1.0,
        "DimZ": 1.0,
        "PointList": []
      },
      "CampID": 4,
      "MapLayerID": 1,
      "CustomTriggerMap": {},
      "CustomTriggerMapV2": {},
      "BridgeStateRotations": [],
      "DialogueGroups": [],
      "TalkDialogGroupIDList": [],
      "ServerInteractVerificationIDList": []
    }
  ],
  "NPCList": []
}