{
  "GroupGUID": "ea91ca3f-2bbe-4572-9f3e-b1e4d7160666",
  "GroupName": "RogueDLC130_SubMonster",
  "Category": "Custom",
  "LevelGraph": "Config/Level/Maze/MazeRogue/Rogue130/RogueDLCModule_SubMonster.json",
  "AreaAnchorName": "LevelArea_P80204_F80204001_G90",
  "LoadSide": "Server",
  "LoadOnInitial": true,
  "ConflictIDList": [],
  "IsHoyoGroup": true,
  "ConflictSpatialInfo": {
    "CompactGridList": [
      -16,
      42
    ],
    "LowerUpperBounds": {
      "x": 262,
      "y": 263
    }
  },
  "StreamingSpatialInfo": {
    "CompactGridList": [
      -19,
      42,
      -16,
      42
    ],
    "LowerUpperBounds": {
      "x": 262,
      "y": 263
    }
  },
  "ConflictWhiteList": [],
  "AnchorList": [],
  "MonsterList": [
    {
      "ID": 200001,
      "PosX": -31.79,
      "PosY": -2.244379,
      "PosZ": 85.02999,
      "Name": "Monster1",
      "RotY": 180.0,
      "NPCMonsterID": 1002040,
      "AIConfig": {
        "PathwayList": [
          {
            "UseOwnerGroup": true,
            "UseGroup": 90,
            "UseID": 1
          }
        ],
        "SlaveConfigList": []
      },
      "CampID": 3,
      "BattleArea": {
        "GroupID": 2,
        "ID": 1
      },
      "EventID": 99999011,
      "MapLayerID": 1,
      "BoardShowList": [
        4
      ],
      "DefaultLookAtMode": "Closed",
      "TagList": []
    }
  ],
  "PropList": [
    {
      "ID": 300001,
      "PosX": -37.79,
      "PosY": -2.28825,
      "PosZ": 85.03,
      "Name": "Buff",
      "RotY": 165.0,
      "PropID": 100,
      "IsOverrideInitLevelGraph": true,
      "InitLevelGraph": "Config/Level/Maze/MazeRogue/Maze_Rogue_Prop_TriggerBuffSelect.json",
      "Trigger": {
        "Radius": 2.0,
        "DimX": 1.0,
        "DimY": 1.0,
        "DimZ": 1.0,
        "PointList": []
      },
      "CampID": 4,
      "MapLayerID": 1,
      "CustomTriggerMap": {},
      "CustomTriggerMapV2": {},
      "BridgeStateRotations": [],
      "DialogueGroups": [],
      "TalkDialogGroupIDList": [],
      "ServerInteractVerificationIDList": []
    }
  ],
  "NPCList": []
}