{
  "GroupGUID": "8359ef2c-444c-4426-910d-de07e0e89c30",
  "GroupName": "RogueDLC130_MainMonster",
  "Category": "Custom",
  "LevelGraph": "Config/Level/Maze/MazeRogue/Rogue130/RogueDLCModule_MainMonster.json",
  "AreaAnchorName": "LevelArea_P80204_F80204001_G84",
  "LoadSide": "Server",
  "LoadOnInitial": true,
  "ConflictIDList": [],
  "IsHoyoGroup": true,
  "ConflictSpatialInfo": {
    "CompactGridList": [
      -1,
      35
    ],
    "LowerUpperBounds": {
      "x": 264,
      "y": 265
    }
  },
  "StreamingSpatialInfo": {
    "CompactGridList": [
      -1,
      35,
      1,
      35
    ],
    "LowerUpperBounds": {
      "x": 264,
      "y": 265
    }
  },
  "ConflictWhiteList": [],
  "AnchorList": [],
  "MonsterList": [
    {
      "ID": 200005,
      "PosX": -0.520002,
      "PosY": 1.762889,
      "PosZ": 71.38999,
      "Name": "Monster5",
      "RotY": 15.00001,
      "NPCMonsterID": 1002040,
      "AIConfig": {
        "PathwayList": [
          {
            "UseOwnerGroup": true,
            "UseGroup": 84,
            "UseID": 1
          }
        ],
        "SlaveConfigList": []
      },
      "CampID": 3,
      "BattleArea": {
        "GroupID": 2,
        "ID": 1
      },
      "EventID": 99999011,
      "MapLayerID": 1,
      "BoardShowList": [
        4
      ],
      "DefaultLookAtMode": "Closed",
      "TagList": []
    }
  ],
  "PropList": [
    {
      "ID": 300001,
      "PosX": -0.520002,
      "PosY": 1.762889,
      "PosZ": 71.38999,
      "Name": "Buff",
      "RotY": 15.00001,
      "PropID": 100,
      "IsOverrideInitLevelGraph": true,
      "InitLevelGraph": "Config/Level/Maze/MazeRogue/Maze_Rogue_Prop_TriggerBuffSelect.json",
      "Trigger": {
        "Radius": 2.0,
        "DimX": 1.0,
        "DimY": 1.0,
        "DimZ": 1.0,
        "PointList": []
      },
      "CampID": 4,
      "MapLayerID": 1,
      "CustomTriggerMap": {},
      "CustomTriggerMapV2": {},
      "BridgeStateRotations": [],
      "DialogueGroups": [],
      "TalkDialogGroupIDList": [],
      "ServerInteractVerificationIDList": [],
      "Dialog": {
        "PackList": []
      }
    },
    {
      "ID": 300002,
      "PosX": 2.479999,
      "PosY": 1.735977,
      "PosZ": 71.39,
      "Name": "Prop2",
      "RotY": 1.0E-5,
      "PropID": 100,
      "IsOverrideInitLevelGraph": true,
      "CampID": 4,
      "MapLayerID": 1,
      "CustomTriggerMap": {},
      "CustomTriggerMapV2": {},
      "BridgeStateRotations": [],
      "DialogueGroups": [],
      "TalkDialogGroupIDList": [],
      "ServerInteractVerificationIDList": [],
      "OverrideMapStateIcons": [
        {
          "IconID": 6
        }
      ]
    }
  ],
  "NPCList": []
}