{
  "GroupGUID": "7010dc9c-9a9b-45f4-8bb1-af2aa5c64953",
  "GroupName": "RogueDLC130_SwarmBoss",
  "Category": "Custom",
  "LevelGraph": "Config/Level/Maze/MazeRogue/Rogue130/RogueDLCModule_SwarmBossRoom.json",
  "AreaAnchorName": "LevelArea_P80204_F80204001_G57",
  "LoadSide": "Server",
  "LoadOnInitial": true,
  "ConflictIDList": [],
  "IsHoyoGroup": true,
  "ConflictSpatialInfo": {
    "CompactGridList": [
      -20,
      57
    ],
    "LowerUpperBounds": {
      "x": 262,
      "y": 263
    }
  },
  "StreamingSpatialInfo": {
    "CompactGridList": [
      -20,
      57
    ],
    "LowerUpperBounds": {
      "x": 262,
      "y": 263
    }
  },
  "ConflictWhiteList": [],
  "AnchorList": [],
  "MonsterList": [
    {
      "ID": 200001,
      "PosX": -39.26,
      "PosY": -2.596621,
      "PosZ": 115.12,
      "Name": "Monster1",
      "RotY": 237.2868,
      "NPCMonsterID": 1002040,
      "AIConfig": {
        "AIFile": "Config/ConfigAI/Adventure/NPCMonster/ST_NPCMonster_Master_Dummy.json",
        "PathwayList": [],
        "SlaveConfigList": []
      },
      "CampID": 3,
      "BattleArea": {
        "GroupID": 2,
        "ID": 1
      },
      "EventID": 99999011,
      "MapLayerID": 1,
      "BoardShowList": [
        4
      ],
      "DefaultLookAtMode": "Closed",
      "TagList": []
    }
  ],
  "PropList": [
    {
      "ID": 300002,
      "PosX": -39.26,
      "PosY": -2.596621,
      "PosZ": 115.12,
      "Name": "Toast",
      "RotY": 237.2868,
      "PropID": 100,
      "CampID": 4,
      "MapLayerID": 1,
      "CustomTriggerMap": {},
      "CustomTriggerMapV2": {},
      "BridgeStateRotations": [],
      "DialogueGroups": [],
      "TalkDialogGroupIDList": [],
      "ServerInteractVerificationIDList": []
    },
    {
      "ID": 300003,
      "PosX": -39.13666,
      "PosY": -2.596079,
      "PosZ": 115.1523,
      "Name": "Prop3",
      "RotY": 57.31338,
      "PropID": 100,
      "IsOverrideInitLevelGraph": true,
      "CampID": 4,
      "MapLayerID": 1,
      "CustomTriggerMap": {},
      "CustomTriggerMapV2": {},
      "BridgeStateRotations": [],
      "DialogueGroups": [],
      "TalkDialogGroupIDList": [],
      "ServerInteractVerificationIDList": [],
      "OverrideMapStateIcons": [
        {
          "IconID": 97
        }
      ]
    }
  ],
  "NPCList": []
}