{
  "GroupGUID": "d55811e2-6e63-4d61-87ac-b297bbf93f4a",
  "GroupName": "Rogue140_MainMonster",
  "Category": "Custom",
  "LevelGraph": "Config/Level/Maze/MazeRogue/Rogue140/Rogue140Module_Level4_EliteRoom.json",
  "AreaAnchorName": "LevelArea_P80302_F80302001_G87",
  "LoadSide": "Server",
  "LoadOnInitial": true,
  "ConflictIDList": [],
  "IsHoyoGroup": true,
  "ConflictSpatialInfo": {
    "CompactGridList": [
      134,
      -78
    ],
    "LowerUpperBounds": {
      "x": 203,
      "y": 204
    }
  },
  "StreamingSpatialInfo": {
    "CompactGridList": [
      134,
      -78,
      133,
      -77
    ],
    "LowerUpperBounds": {
      "x": 203,
      "y": 204
    }
  },
  "ConflictWhiteList": [],
  "AnchorList": [],
  "MonsterList": [
    {
      "ID": 200005,
      "PosX": 269.7042,
      "PosY": 52.54485,
      "PosZ": -155.1184,
      "Name": "Monster5",
      "RotY": 240.0,
      "NPCMonsterID": 1002040,
      "AIConfig": {
        "AIFile": "Config/ConfigAI/Adventure/NPCMonster/ST_NPCMonster_Master_Dummy.json",
        "PathwayList": [],
        "SlaveConfigList": []
      },
      "CampID": 3,
      "BattleArea": {
        "GroupID": 4,
        "ID": 1
      },
      "EventID": 99999011,
      "MapLayerID": 1,
      "BoardShowList": [
        4
      ],
      "DefaultLookAtMode": "Closed",
      "TagList": []
    }
  ],
  "PropList": [
    {
      "ID": 300002,
      "PosX": 267.5829,
      "PosY": 52.54492,
      "PosZ": -152.9971,
      "Name": "Prop2",
      "RotY": 225.0,
      "PropID": 100,
      "IsOverrideInitLevelGraph": true,
      "CampID": 4,
      "MapLayerID": 1,
      "CustomTriggerMap": {},
      "CustomTriggerMapV2": {},
      "BridgeStateRotations": [],
      "DialogueGroups": [],
      "TalkDialogGroupIDList": [],
      "ServerInteractVerificationIDList": [],
      "OverrideMapStateIcons": [
        {
          "IconID": 6
        }
      ]
    }
  ],
  "NPCList": []
}