{
  "GroupGUID": "636cc6a1-344a-4b35-844d-d001d47c8548",
  "GroupName": "Rogue140_SubMonster",
  "Category": "Custom",
  "LevelGraph": "Config/Level/Maze/MazeRogue/Rogue140/Rogue140Module_SubMonster.json",
  "AreaAnchorName": "LevelArea_P80302_F80302001_G81",
  "LoadSide": "Server",
  "LoadOnInitial": true,
  "ValueSource": {},
  "ConflictIDList": [],
  "IsHoyoGroup": true,
  "ConflictSpatialInfo": {
    "CompactGridList": [
      118,
      -36
    ],
    "LowerUpperBounds": {
      "x": 199,
      "y": 200
    }
  },
  "StreamingSpatialInfo": {
    "CompactGridList": [
      118,
      -36
    ],
    "LowerUpperBounds": {
      "x": 199,
      "y": 200
    }
  },
  "ConflictWhiteList": [],
  "AnchorList": [],
  "MonsterList": [
    {
      "ID": 200001,
      "PosX": 237.47,
      "PosY": 45.26504,
      "PosZ": -70.404,
      "Name": "Monster1",
      "RotY": 16.68212,
      "NPCMonsterID": 1002040,
      "AIConfig": {
        "PathwayList": [
          {
            "UseOwnerGroup": true,
            "UseGroup": 81,
            "UseID": 1
          }
        ],
        "SlaveConfigList": []
      },
      "ValueSource": {},
      "CampID": 3,
      "BattleArea": {
        "GroupID": 4,
        "ID": 1
      },
      "EventID": 99999011,
      "MapLayerID": 1,
      "BoardShowList": [
        4
      ],
      "DefaultLookAtMode": "Closed",
      "TagList": []
    }
  ],
  "PropList": [
    {
      "ID": 300001,
      "PosX": 237.5862,
      "PosY": 45.26504,
      "PosZ": -70.45,
      "Name": "Buff",
      "RotY": 14.99999,
      "PropID": 100,
      "IsOverrideInitLevelGraph": true,
      "InitLevelGraph": "Config/Level/Maze/MazeRogue/Maze_Rogue_Prop_TriggerBuffSelect.json",
      "ValueSource": {},
      "Trigger": {
        "Radius": 2.0,
        "DimX": 1.0,
        "DimY": 1.0,
        "DimZ": 1.0,
        "PointList": []
      },
      "CampID": 4,
      "MapLayerID": 1,
      "CustomTriggerMap": {},
      "CustomTriggerMapV2": {},
      "BridgeStateRotations": [],
      "DialogueGroups": [],
      "TalkDialogGroupIDList": [],
      "ServerInteractVerificationIDList": []
    }
  ],
  "NPCList": []
}