{
  "GroupGUID": "ee319af9-cd0b-4369-9003-a681eac126fc",
  "GroupName": "NPC",
  "AreaAnchorName": "LevelArea_P20123_F20123001_G98",
  "SaveType": "Reset",
  "LoadCondition": {
    "Conditions": [
      {
        "Phase": "Finish",
        "ID": 1011501
      }
    ]
  },
  "RandomInit": {
    "ControlList": [
      {
        "ControlID": 1,
        "Weight": 1.0,
        "NPCIDList": [],
        "PropIDList": [
          300001,
          300002
        ],
        "CrowdIDList": []
      },
      {
        "ControlID": 1,
        "Weight": 1.0,
        "NPCIDList": [],
        "PropIDList": [
          300003,
          300004
        ],
        "CrowdIDList": []
      },
      {
        "ControlID": 2,
        "Weight": 1.0,
        "NPCIDList": [],
        "PropIDList": [
          300005,
          300006
        ],
        "CrowdIDList": []
      },
      {
        "ControlID": 2,
        "Weight": 1.0,
        "NPCIDList": [],
        "PropIDList": [
          300007,
          300008
        ],
        "CrowdIDList": []
      },
      {
        "ControlID": 3,
        "Weight": 1.0,
        "NPCIDList": [],
        "PropIDList": [
          300009,
          300010
        ],
        "CrowdIDList": []
      },
      {
        "ControlID": 3,
        "Weight": 1.0,
        "NPCIDList": [],
        "PropIDList": [
          300011,
          300012
        ],
        "CrowdIDList": []
      },
      {
        "ControlID": 4,
        "Weight": 1.0,
        "NPCIDList": [],
        "PropIDList": [
          300013,
          300014
        ],
        "CrowdIDList": []
      },
      {
        "ControlID": 4,
        "Weight": 1.0,
        "NPCIDList": [],
        "PropIDList": [
          300015,
          300016
        ],
        "CrowdIDList": []
      },
      {
        "ControlID": 5,
        "Weight": 1.0,
        "NPCIDList": [],
        "PropIDList": [
          300017,
          300018
        ],
        "CrowdIDList": []
      },
      {
        "ControlID": 5,
        "Weight": 1.0,
        "NPCIDList": [],
        "PropIDList": [
          300019,
          300020
        ],
        "CrowdIDList": []
      },
      {
        "ControlID": 6,
        "Weight": 1.0,
        "NPCIDList": [],
        "PropIDList": [
          300021,
          300022
        ],
        "CrowdIDList": []
      },
      {
        "ControlID": 6,
        "Weight": 1.0,
        "NPCIDList": [],
        "PropIDList": [
          300023,
          300024
        ],
        "CrowdIDList": []
      }
    ]
  },
  "ValueSource": {},
  "ConflictIDList": [],
  "AnchorList": [],
  "MonsterList": [],
  "PropList": [
    {
      "ID": 300001,
      "PosX": -10.24,
      "PosY": 19.97976,
      "PosZ": -43.02,
      "Name": "Prop1",
      "RotY": 176.7148,
      "PropID": 100,
      "IsOverrideInitLevelGraph": true,
      "InitLevelGraph": "Config/Level/CrowdBubble/MunicipalChat_Play_Template.json",
      "ValueSource": {
        "Values": [
          {
            "$type": "SharedString",
            "Key": "PlayMunicipalChatPath",
            "Value": "Config/Level/MunicipalChatConfig/F20123001/MunicipalChatConfig_F20123001_0005.json"
          },
          {
            "$type": "SharedString",
            "Key": "PlayMunicipalChatName",
            "Value": "MunicipalChatConfig_F20123001_0005"
          },
          {
            "$type": "SharedJsonConfigList",
            "Key": "PlayMunicipalChatCharacterList",
            "Value": [
              {
                "$type": "MunicipalChatEntityInfo",
                "UniqueName": "1",
                "GroupInstanceID": 400007
              },
              {
                "$type": "MunicipalChatEntityInfo",
                "UniqueName": "2",
                "GroupInstanceID": 400008
              }
            ]
          }
        ]
      },
      "Trigger": {
        "Radius": 3.5,
        "DimX": 1.0,
        "DimY": 1.0,
        "DimZ": 1.0,
        "PointList": []
      },
      "CampID": 4,
      "MapLayerID": 2,
      "CustomTriggerMap": {},
      "CustomTriggerMapV2": {},
      "BridgeStateRotations": [],
      "DialogueGroups": [],
      "TalkDialogGroupIDList": [],
      "ServerInteractVerificationIDList": []
    },
    {
      "ID": 300002,
      "PosX": -10.23,
      "PosY": 19.97829,
      "PosZ": -42.97,
      "Name": "Prop2",
      "PropID": 100,
      "IsOverrideInitLevelGraph": true,
      "InitLevelGraph": "Config/Level/CrowdBubble/MunicipalChat_Stop_Template.json",
      "ValueSource": {
        "Values": [
          {
            "$type": "SharedString",
            "Key": "StopMunicipalChatName",
            "Value": "MunicipalChatConfig_F20123001_0005"
          }
        ]
      },
      "Trigger": {
        "Radius": 3.5,
        "DimX": 1.0,
        "DimY": 1.0,
        "DimZ": 1.0,
        "PointList": []
      },
      "CampID": 4,
      "MapLayerID": 2,
      "CustomTriggerMap": {},
      "CustomTriggerMapV2": {},
      "BridgeStateRotations": [],
      "DialogueGroups": [],
      "TalkDialogGroupIDList": [],
      "ServerInteractVerificationIDList": []
    },
    {
      "ID": 300003,
      "PosX": -10.24,
      "PosY": 19.97976,
      "PosZ": -43.02,
      "Name": "Prop3",
      "RotY": 176.7148,
      "PropID": 100,
      "IsOverrideInitLevelGraph": true,
      "InitLevelGraph": "Config/Level/CrowdBubble/MunicipalChat_Play_Template.json",
      "ValueSource": {
        "Values": [
          {
            "$type": "SharedString",
            "Key": "PlayMunicipalChatPath",
            "Value": "Config/Level/MunicipalChatConfig/F20123001/MunicipalChatConfig_F20123001_0006.json"
          },
          {
            "$type": "SharedString",
            "Key": "PlayMunicipalChatName",
            "Value": "MunicipalChatConfig_F20123001_0006"
          },
          {
            "$type": "SharedJsonConfigList",
            "Key": "PlayMunicipalChatCharacterList",
            "Value": [
              {
                "$type": "MunicipalChatEntityInfo",
                "UniqueName": "1",
                "GroupInstanceID": 400007
              },
              {
                "$type": "MunicipalChatEntityInfo",
                "UniqueName": "2",
                "GroupInstanceID": 400008
              }
            ]
          }
        ]
      },
      "Trigger": {
        "Radius": 3.5,
        "DimX": 1.0,
        "DimY": 1.0,
        "DimZ": 1.0,
        "PointList": []
      },
      "CampID": 4,
      "MapLayerID": 2,
      "CustomTriggerMap": {},
      "CustomTriggerMapV2": {},
      "BridgeStateRotations": [],
      "DialogueGroups": [],
      "TalkDialogGroupIDList": [],
      "ServerInteractVerificationIDList": []
    },
    {
      "ID": 300004,
      "PosX": -10.23,
      "PosY": 19.97829,
      "PosZ": -42.97,
      "Name": "Prop4",
      "PropID": 100,
      "IsOverrideInitLevelGraph": true,
      "InitLevelGraph": "Config/Level/CrowdBubble/MunicipalChat_Stop_Template.json",
      "ValueSource": {
        "Values": [
          {
            "$type": "SharedString",
            "Key": "StopMunicipalChatName",
            "Value": "MunicipalChatConfig_F20123001_0006"
          }
        ]
      },
      "Trigger": {
        "Radius": 3.5,
        "DimX": 1.0,
        "DimY": 1.0,
        "DimZ": 1.0,
        "PointList": []
      },
      "CampID": 4,
      "MapLayerID": 2,
      "CustomTriggerMap": {},
      "CustomTriggerMapV2": {},
      "BridgeStateRotations": [],
      "DialogueGroups": [],
      "TalkDialogGroupIDList": [],
      "ServerInteractVerificationIDList": []
    },
    {
      "ID": 300005,
      "PosX": -6.24,
      "PosY": 19.98427,
      "PosZ": -56.44,
      "Name": "Prop5",
      "RotY": 176.7148,
      "PropID": 100,
      "IsOverrideInitLevelGraph": true,
      "InitLevelGraph": "Config/Level/CrowdBubble/MunicipalChat_Play_Template.json",
      "ValueSource": {
        "Values": [
          {
            "$type": "SharedString",
            "Key": "PlayMunicipalChatPath",
            "Value": "Config/Level/MunicipalChatConfig/F20123001/MunicipalChatConfig_F20123001_0007.json"
          },
          {
            "$type": "SharedString",
            "Key": "PlayMunicipalChatName",
            "Value": "MunicipalChatConfig_F20123001_0007"
          },
          {
            "$type": "SharedJsonConfigList",
            "Key": "PlayMunicipalChatCharacterList",
            "Value": [
              {
                "$type": "MunicipalChatEntityInfo",
                "UniqueName": "1",
                "GroupInstanceID": 400017
              },
              {
                "$type": "MunicipalChatEntityInfo",
                "UniqueName": "2",
                "GroupInstanceID": 400018
              }
            ]
          }
        ]
      },
      "Trigger": {
        "Radius": 3.5,
        "DimX": 1.0,
        "DimY": 1.0,
        "DimZ": 1.0,
        "PointList": []
      },
      "CampID": 4,
      "MapLayerID": 2,
      "CustomTriggerMap": {},
      "CustomTriggerMapV2": {},
      "BridgeStateRotations": [],
      "DialogueGroups": [],
      "TalkDialogGroupIDList": [],
      "ServerInteractVerificationIDList": []
    },
    {
      "ID": 300006,
      "PosX": -6.23,
      "PosY": 19.97829,
      "PosZ": -56.48,
      "Name": "Prop6",
      "PropID": 100,
      "IsOverrideInitLevelGraph": true,
      "InitLevelGraph": "Config/Level/CrowdBubble/MunicipalChat_Stop_Template.json",
      "ValueSource": {
        "Values": [
          {
            "$type": "SharedString",
            "Key": "StopMunicipalChatName",
            "Value": "MunicipalChatConfig_F20123001_0007"
          }
        ]
      },
      "Trigger": {
        "Radius": 3.5,
        "DimX": 1.0,
        "DimY": 1.0,
        "DimZ": 1.0,
        "PointList": []
      },
      "CampID": 4,
      "MapLayerID": 2,
      "CustomTriggerMap": {},
      "CustomTriggerMapV2": {},
      "BridgeStateRotations": [],
      "DialogueGroups": [],
      "TalkDialogGroupIDList": [],
      "ServerInteractVerificationIDList": []
    },
    {
      "ID": 300007,
      "PosX": -6.24,
      "PosY": 19.98427,
      "PosZ": -56.44,
      "Name": "Prop7",
      "RotY": 176.7148,
      "PropID": 100,
      "IsOverrideInitLevelGraph": true,
      "InitLevelGraph": "Config/Level/CrowdBubble/MunicipalChat_Play_Template.json",
      "ValueSource": {
        "Values": [
          {
            "$type": "SharedString",
            "Key": "PlayMunicipalChatPath",
            "Value": "Config/Level/MunicipalChatConfig/F20123001/MunicipalChatConfig_F20123001_0008.json"
          },
          {
            "$type": "SharedString",
            "Key": "PlayMunicipalChatName",
            "Value": "MunicipalChatConfig_F20123001_0008"
          },
          {
            "$type": "SharedJsonConfigList",
            "Key": "PlayMunicipalChatCharacterList",
            "Value": [
              {
                "$type": "MunicipalChatEntityInfo",
                "UniqueName": "1",
                "GroupInstanceID": 400017
              },
              {
                "$type": "MunicipalChatEntityInfo",
                "UniqueName": "2",
                "GroupInstanceID": 400018
              }
            ]
          }
        ]
      },
      "Trigger": {
        "Radius": 3.5,
        "DimX": 1.0,
        "DimY": 1.0,
        "DimZ": 1.0,
        "PointList": []
      },
      "CampID": 4,
      "MapLayerID": 2,
      "CustomTriggerMap": {},
      "CustomTriggerMapV2": {},
      "BridgeStateRotations": [],
      "DialogueGroups": [],
      "TalkDialogGroupIDList": [],
      "ServerInteractVerificationIDList": []
    },
    {
      "ID": 300008,
      "PosX": -6.23,
      "PosY": 19.97829,
      "PosZ": -56.48,
      "Name": "Prop8",
      "PropID": 100,
      "IsOverrideInitLevelGraph": true,
      "InitLevelGraph": "Config/Level/CrowdBubble/MunicipalChat_Stop_Template.json",
      "ValueSource": {
        "Values": [
          {
            "$type": "SharedString",
            "Key": "StopMunicipalChatName",
            "Value": "MunicipalChatConfig_F20123001_0008"
          }
        ]
      },
      "Trigger": {
        "Radius": 3.5,
        "DimX": 1.0,
        "DimY": 1.0,
        "DimZ": 1.0,
        "PointList": []
      },
      "CampID": 4,
      "MapLayerID": 2,
      "CustomTriggerMap": {},
      "CustomTriggerMapV2": {},
      "BridgeStateRotations": [],
      "DialogueGroups": [],
      "TalkDialogGroupIDList": [],
      "ServerInteractVerificationIDList": []
    },
    {
      "ID": 300009,
      "PosX": 8.42,
      "PosY": 19.97829,
      "PosZ": -49.87,
      "Name": "Prop9",
      "RotY": 176.7148,
      "PropID": 100,
      "IsOverrideInitLevelGraph": true,
      "InitLevelGraph": "Config/Level/CrowdBubble/MunicipalChat_Play_Template.json",
      "ValueSource": {
        "Values": [
          {
            "$type": "SharedString",
            "Key": "PlayMunicipalChatPath",
            "Value": "Config/Level/MunicipalChatConfig/F20123001/MunicipalChatConfig_F20123001_0009.json"
          },
          {
            "$type": "SharedString",
            "Key": "PlayMunicipalChatName",
            "Value": "MunicipalChatConfig_F20123001_0009"
          },
          {
            "$type": "SharedJsonConfigList",
            "Key": "PlayMunicipalChatCharacterList",
            "Value": [
              {
                "$type": "MunicipalChatEntityInfo",
                "UniqueName": "1",
                "GroupInstanceID": 400002
              },
              {
                "$type": "MunicipalChatEntityInfo",
                "UniqueName": "2",
                "GroupInstanceID": 400005
              },
              {
                "$type": "MunicipalChatEntityInfo",
                "UniqueName": "3",
                "GroupInstanceID": 400009
              },
              {
                "$type": "MunicipalChatEntityInfo",
                "UniqueName": "4",
                "GroupInstanceID": 400012
              }
            ]
          }
        ]
      },
      "Trigger": {
        "Radius": 7.0,
        "DimX": 1.0,
        "DimY": 1.0,
        "DimZ": 1.0,
        "PointList": []
      },
      "CampID": 4,
      "MapLayerID": 2,
      "CustomTriggerMap": {},
      "CustomTriggerMapV2": {},
      "BridgeStateRotations": [],
      "DialogueGroups": [],
      "TalkDialogGroupIDList": [],
      "ServerInteractVerificationIDList": []
    },
    {
      "ID": 300010,
      "PosX": 8.36,
      "PosY": 19.97829,
      "PosZ": -49.78,
      "Name": "Prop10",
      "PropID": 100,
      "IsOverrideInitLevelGraph": true,
      "InitLevelGraph": "Config/Level/CrowdBubble/MunicipalChat_Stop_Template.json",
      "ValueSource": {
        "Values": [
          {
            "$type": "SharedString",
            "Key": "StopMunicipalChatName",
            "Value": "MunicipalChatConfig_F20123001_0009"
          }
        ]
      },
      "Trigger": {
        "Radius": 7.0,
        "DimX": 1.0,
        "DimY": 1.0,
        "DimZ": 1.0,
        "PointList": []
      },
      "CampID": 4,
      "MapLayerID": 2,
      "CustomTriggerMap": {},
      "CustomTriggerMapV2": {},
      "BridgeStateRotations": [],
      "DialogueGroups": [],
      "TalkDialogGroupIDList": [],
      "ServerInteractVerificationIDList": []
    },
    {
      "ID": 300011,
      "PosX": 8.42,
      "PosY": 19.97829,
      "PosZ": -49.87,
      "Name": "Prop11",
      "RotY": 176.7148,
      "PropID": 100,
      "IsOverrideInitLevelGraph": true,
      "InitLevelGraph": "Config/Level/CrowdBubble/MunicipalChat_Play_Template.json",
      "ValueSource": {
        "Values": [
          {
            "$type": "SharedString",
            "Key": "PlayMunicipalChatPath",
            "Value": "Config/Level/MunicipalChatConfig/F20123001/MunicipalChatConfig_F20123001_0010.json"
          },
          {
            "$type": "SharedString",
            "Key": "PlayMunicipalChatName",
            "Value": "MunicipalChatConfig_F20123001_0010"
          },
          {
            "$type": "SharedJsonConfigList",
            "Key": "PlayMunicipalChatCharacterList",
            "Value": [
              {
                "$type": "MunicipalChatEntityInfo",
                "UniqueName": "1",
                "GroupInstanceID": 400002
              },
              {
                "$type": "MunicipalChatEntityInfo",
                "UniqueName": "2",
                "GroupInstanceID": 400005
              },
              {
                "$type": "MunicipalChatEntityInfo",
                "UniqueName": "3",
                "GroupInstanceID": 400009
              },
              {
                "$type": "MunicipalChatEntityInfo",
                "UniqueName": "4",
                "GroupInstanceID": 400012
              }
            ]
          }
        ]
      },
      "Trigger": {
        "Radius": 7.0,
        "DimX": 1.0,
        "DimY": 1.0,
        "DimZ": 1.0,
        "PointList": []
      },
      "CampID": 4,
      "MapLayerID": 2,
      "CustomTriggerMap": {},
      "CustomTriggerMapV2": {},
      "BridgeStateRotations": [],
      "DialogueGroups": [],
      "TalkDialogGroupIDList": [],
      "ServerInteractVerificationIDList": []
    },
    {
      "ID": 300012,
      "PosX": 8.36,
      "PosY": 19.97829,
      "PosZ": -49.78,
      "Name": "Prop12",
      "PropID": 100,
      "IsOverrideInitLevelGraph": true,
      "InitLevelGraph": "Config/Level/CrowdBubble/MunicipalChat_Stop_Template.json",
      "ValueSource": {
        "Values": [
          {
            "$type": "SharedString",
            "Key": "StopMunicipalChatName",
            "Value": "MunicipalChatConfig_F20123001_0010"
          }
        ]
      },
      "Trigger": {
        "Radius": 7.0,
        "DimX": 1.0,
        "DimY": 1.0,
        "DimZ": 1.0,
        "PointList": []
      },
      "CampID": 4,
      "MapLayerID": 2,
      "CustomTriggerMap": {},
      "CustomTriggerMapV2": {},
      "BridgeStateRotations": [],
      "DialogueGroups": [],
      "TalkDialogGroupIDList": [],
      "ServerInteractVerificationIDList": []
    },
    {
      "ID": 300013,
      "PosX": 26.78,
      "PosY": 19.97829,
      "PosZ": -39.74,
      "Name": "Prop13",
      "RotY": 176.7148,
      "PropID": 100,
      "IsOverrideInitLevelGraph": true,
      "InitLevelGraph": "Config/Level/CrowdBubble/MunicipalChat_Play_Template.json",
      "ValueSource": {
        "Values": [
          {
            "$type": "SharedString",
            "Key": "PlayMunicipalChatPath",
            "Value": "Config/Level/MunicipalChatConfig/F20123001/MunicipalChatConfig_F20123001_0011.json"
          },
          {
            "$type": "SharedString",
            "Key": "PlayMunicipalChatName",
            "Value": "MunicipalChatConfig_F20123001_0011"
          },
          {
            "$type": "SharedJsonConfigList",
            "Key": "PlayMunicipalChatCharacterList",
            "Value": [
              {
                "$type": "MunicipalChatEntityInfo",
                "UniqueName": "1",
                "GroupInstanceID": 400024
              }
            ]
          }
        ]
      },
      "Trigger": {
        "Radius": 3.5,
        "DimX": 1.0,
        "DimY": 1.0,
        "DimZ": 1.0,
        "PointList": []
      },
      "CampID": 4,
      "MapLayerID": 2,
      "CustomTriggerMap": {},
      "CustomTriggerMapV2": {},
      "BridgeStateRotations": [],
      "DialogueGroups": [],
      "TalkDialogGroupIDList": [],
      "ServerInteractVerificationIDList": []
    },
    {
      "ID": 300014,
      "PosX": 26.9,
      "PosY": 19.97829,
      "PosZ": -39.73,
      "Name": "Prop14",
      "PropID": 100,
      "IsOverrideInitLevelGraph": true,
      "InitLevelGraph": "Config/Level/CrowdBubble/MunicipalChat_Stop_Template.json",
      "ValueSource": {
        "Values": [
          {
            "$type": "SharedString",
            "Key": "StopMunicipalChatName",
            "Value": "MunicipalChatConfig_F20123001_0011"
          }
        ]
      },
      "Trigger": {
        "Radius": 3.5,
        "DimX": 1.0,
        "DimY": 1.0,
        "DimZ": 1.0,
        "PointList": []
      },
      "CampID": 4,
      "MapLayerID": 2,
      "CustomTriggerMap": {},
      "CustomTriggerMapV2": {},
      "BridgeStateRotations": [],
      "DialogueGroups": [],
      "TalkDialogGroupIDList": [],
      "ServerInteractVerificationIDList": []
    },
    {
      "ID": 300015,
      "PosX": 26.78,
      "PosY": 19.97829,
      "PosZ": -39.74,
      "Name": "Prop15",
      "RotY": 176.7148,
      "PropID": 100,
      "IsOverrideInitLevelGraph": true,
      "InitLevelGraph": "Config/Level/CrowdBubble/MunicipalChat_Play_Template.json",
      "ValueSource": {
        "Values": [
          {
            "$type": "SharedString",
            "Key": "PlayMunicipalChatPath",
            "Value": "Config/Level/MunicipalChatConfig/F20123001/MunicipalChatConfig_F20123001_0012.json"
          },
          {
            "$type": "SharedString",
            "Key": "PlayMunicipalChatName",
            "Value": "MunicipalChatConfig_F20123001_0012"
          },
          {
            "$type": "SharedJsonConfigList",
            "Key": "PlayMunicipalChatCharacterList",
            "Value": [
              {
                "$type": "MunicipalChatEntityInfo",
                "UniqueName": "1",
                "GroupInstanceID": 400024
              }
            ]
          }
        ]
      },
      "Trigger": {
        "Radius": 3.5,
        "DimX": 1.0,
        "DimY": 1.0,
        "DimZ": 1.0,
        "PointList": []
      },
      "CampID": 4,
      "MapLayerID": 2,
      "CustomTriggerMap": {},
      "CustomTriggerMapV2": {},
      "BridgeStateRotations": [],
      "DialogueGroups": [],
      "TalkDialogGroupIDList": [],
      "ServerInteractVerificationIDList": []
    },
    {
      "ID": 300016,
      "PosX": 26.9,
      "PosY": 19.97829,
      "PosZ": -39.73,
      "Name": "Prop16",
      "PropID": 100,
      "IsOverrideInitLevelGraph": true,
      "InitLevelGraph": "Config/Level/CrowdBubble/MunicipalChat_Stop_Template.json",
      "ValueSource": {
        "Values": [
          {
            "$type": "SharedString",
            "Key": "StopMunicipalChatName",
            "Value": "MunicipalChatConfig_F20123001_0012"
          }
        ]
      },
      "Trigger": {
        "Radius": 3.5,
        "DimX": 1.0,
        "DimY": 1.0,
        "DimZ": 1.0,
        "PointList": []
      },
      "CampID": 4,
      "MapLayerID": 2,
      "CustomTriggerMap": {},
      "CustomTriggerMapV2": {},
      "BridgeStateRotations": [],
      "DialogueGroups": [],
      "TalkDialogGroupIDList": [],
      "ServerInteractVerificationIDList": []
    },
    {
      "ID": 300017,
      "PosX": 27.48,
      "PosY": 19.97829,
      "PosZ": -58.7,
      "Name": "Prop17",
      "RotY": 176.7148,
      "PropID": 100,
      "IsOverrideInitLevelGraph": true,
      "InitLevelGraph": "Config/Level/CrowdBubble/MunicipalChat_Play_Template.json",
      "ValueSource": {
        "Values": [
          {
            "$type": "SharedString",
            "Key": "PlayMunicipalChatPath",
            "Value": "Config/Level/MunicipalChatConfig/F20123001/MunicipalChatConfig_F20123001_0013.json"
          },
          {
            "$type": "SharedString",
            "Key": "PlayMunicipalChatName",
            "Value": "MunicipalChatConfig_F20123001_0013"
          },
          {
            "$type": "SharedJsonConfigList",
            "Key": "PlayMunicipalChatCharacterList",
            "Value": [
              {
                "$type": "MunicipalChatEntityInfo",
                "UniqueName": "1",
                "GroupInstanceID": 400016
              }
            ]
          }
        ]
      },
      "Trigger": {
        "Radius": 2.0,
        "DimX": 1.0,
        "DimY": 1.0,
        "DimZ": 1.0,
        "PointList": []
      },
      "CampID": 4,
      "MapLayerID": 2,
      "CustomTriggerMap": {},
      "CustomTriggerMapV2": {},
      "BridgeStateRotations": [],
      "DialogueGroups": [],
      "TalkDialogGroupIDList": [],
      "ServerInteractVerificationIDList": []
    },
    {
      "ID": 300018,
      "PosX": 27.42,
      "PosY": 19.97829,
      "PosZ": -58.73,
      "Name": "Prop18",
      "PropID": 100,
      "IsOverrideInitLevelGraph": true,
      "InitLevelGraph": "Config/Level/CrowdBubble/MunicipalChat_Stop_Template.json",
      "ValueSource": {
        "Values": [
          {
            "$type": "SharedString",
            "Key": "StopMunicipalChatName",
            "Value": "MunicipalChatConfig_F20123001_0013"
          }
        ]
      },
      "Trigger": {
        "Radius": 2.0,
        "DimX": 1.0,
        "DimY": 1.0,
        "DimZ": 1.0,
        "PointList": []
      },
      "CampID": 4,
      "MapLayerID": 2,
      "CustomTriggerMap": {},
      "CustomTriggerMapV2": {},
      "BridgeStateRotations": [],
      "DialogueGroups": [],
      "TalkDialogGroupIDList": [],
      "ServerInteractVerificationIDList": []
    },
    {
      "ID": 300019,
      "PosX": 27.48,
      "PosY": 19.97829,
      "PosZ": -58.7,
      "Name": "Prop19",
      "RotY": 176.7148,
      "PropID": 100,
      "IsOverrideInitLevelGraph": true,
      "InitLevelGraph": "Config/Level/CrowdBubble/MunicipalChat_Play_Template.json",
      "ValueSource": {
        "Values": [
          {
            "$type": "SharedString",
            "Key": "PlayMunicipalChatPath",
            "Value": "Config/Level/MunicipalChatConfig/F20123001/MunicipalChatConfig_F20123001_0014.json"
          },
          {
            "$type": "SharedString",
            "Key": "PlayMunicipalChatName",
            "Value": "MunicipalChatConfig_F20123001_0014"
          },
          {
            "$type": "SharedJsonConfigList",
            "Key": "PlayMunicipalChatCharacterList",
            "Value": [
              {
                "$type": "MunicipalChatEntityInfo",
                "UniqueName": "1",
                "GroupInstanceID": 400016
              }
            ]
          }
        ]
      },
      "Trigger": {
        "Radius": 2.0,
        "DimX": 1.0,
        "DimY": 1.0,
        "DimZ": 1.0,
        "PointList": []
      },
      "CampID": 4,
      "MapLayerID": 2,
      "CustomTriggerMap": {},
      "CustomTriggerMapV2": {},
      "BridgeStateRotations": [],
      "DialogueGroups": [],
      "TalkDialogGroupIDList": [],
      "ServerInteractVerificationIDList": []
    },
    {
      "ID": 300020,
      "PosX": 27.451,
      "PosY": 19.99007,
      "PosZ": -58.697,
      "Name": "Prop20",
      "PropID": 100,
      "IsOverrideInitLevelGraph": true,
      "InitLevelGraph": "Config/Level/CrowdBubble/MunicipalChat_Stop_Template.json",
      "ValueSource": {
        "Values": [
          {
            "$type": "SharedString",
            "Key": "StopMunicipalChatName",
            "Value": "MunicipalChatConfig_F20123001_0014"
          }
        ]
      },
      "Trigger": {
        "Radius": 2.0,
        "DimX": 1.0,
        "DimY": 1.0,
        "DimZ": 1.0,
        "PointList": []
      },
      "CampID": 4,
      "MapLayerID": 2,
      "CustomTriggerMap": {},
      "CustomTriggerMapV2": {},
      "BridgeStateRotations": [],
      "DialogueGroups": [],
      "TalkDialogGroupIDList": [],
      "ServerInteractVerificationIDList": []
    },
    {
      "ID": 300021,
      "PosX": 0.84,
      "PosY": 19.98524,
      "PosZ": -68.77,
      "Name": "Prop21",
      "RotY": 176.7148,
      "PropID": 100,
      "IsOverrideInitLevelGraph": true,
      "InitLevelGraph": "Config/Level/CrowdBubble/MunicipalChat_Play_Template.json",
      "ValueSource": {
        "Values": [
          {
            "$type": "SharedString",
            "Key": "PlayMunicipalChatPath",
            "Value": "Config/Level/MunicipalChatConfig/F20123001/MunicipalChatConfig_F20123001_0015.json"
          },
          {
            "$type": "SharedString",
            "Key": "PlayMunicipalChatName",
            "Value": "MunicipalChatConfig_F20123001_0015"
          },
          {
            "$type": "SharedJsonConfigList",
            "Key": "PlayMunicipalChatCharacterList",
            "Value": [
              {
                "$type": "MunicipalChatEntityInfo",
                "UniqueName": "1",
                "GroupInstanceID": 400001
              }
            ]
          }
        ]
      },
      "Trigger": {
        "Radius": 3.5,
        "DimX": 1.0,
        "DimY": 1.0,
        "DimZ": 1.0,
        "PointList": []
      },
      "CampID": 4,
      "MapLayerID": 2,
      "CustomTriggerMap": {},
      "CustomTriggerMapV2": {},
      "BridgeStateRotations": [],
      "DialogueGroups": [],
      "TalkDialogGroupIDList": [],
      "ServerInteractVerificationIDList": []
    },
    {
      "ID": 300022,
      "PosX": 0.78,
      "PosY": 20.03735,
      "PosZ": -68.76,
      "Name": "Prop22",
      "PropID": 100,
      "IsOverrideInitLevelGraph": true,
      "InitLevelGraph": "Config/Level/CrowdBubble/MunicipalChat_Stop_Template.json",
      "ValueSource": {
        "Values": [
          {
            "$type": "SharedString",
            "Key": "StopMunicipalChatName",
            "Value": "MunicipalChatConfig_F20123001_0015"
          }
        ]
      },
      "Trigger": {
        "Radius": 3.5,
        "DimX": 1.0,
        "DimY": 1.0,
        "DimZ": 1.0,
        "PointList": []
      },
      "CampID": 4,
      "MapLayerID": 2,
      "CustomTriggerMap": {},
      "CustomTriggerMapV2": {},
      "BridgeStateRotations": [],
      "DialogueGroups": [],
      "TalkDialogGroupIDList": [],
      "ServerInteractVerificationIDList": []
    },
    {
      "ID": 300023,
      "PosX": 0.84,
      "PosY": 19.98524,
      "PosZ": -68.77,
      "Name": "Prop23",
      "RotY": 176.7148,
      "PropID": 100,
      "IsOverrideInitLevelGraph": true,
      "InitLevelGraph": "Config/Level/CrowdBubble/MunicipalChat_Play_Template.json",
      "ValueSource": {
        "Values": [
          {
            "$type": "SharedString",
            "Key": "PlayMunicipalChatPath",
            "Value": "Config/Level/MunicipalChatConfig/F20123001/MunicipalChatConfig_F20123001_0016.json"
          },
          {
            "$type": "SharedString",
            "Key": "PlayMunicipalChatName",
            "Value": "MunicipalChatConfig_F20123001_0016"
          },
          {
            "$type": "SharedJsonConfigList",
            "Key": "PlayMunicipalChatCharacterList",
            "Value": [
              {
                "$type": "MunicipalChatEntityInfo",
                "UniqueName": "1",
                "GroupInstanceID": 400001
              }
            ]
          }
        ]
      },
      "Trigger": {
        "Radius": 3.5,
        "DimX": 1.0,
        "DimY": 1.0,
        "DimZ": 1.0,
        "PointList": []
      },
      "CampID": 4,
      "MapLayerID": 2,
      "CustomTriggerMap": {},
      "CustomTriggerMapV2": {},
      "BridgeStateRotations": [],
      "DialogueGroups": [],
      "TalkDialogGroupIDList": [],
      "ServerInteractVerificationIDList": []
    },
    {
      "ID": 300024,
      "PosX": 0.78,
      "PosY": 20.03735,
      "PosZ": -68.76,
      "Name": "Prop24",
      "PropID": 100,
      "IsOverrideInitLevelGraph": true,
      "InitLevelGraph": "Config/Level/CrowdBubble/MunicipalChat_Stop_Template.json",
      "ValueSource": {
        "Values": [
          {
            "$type": "SharedString",
            "Key": "StopMunicipalChatName",
            "Value": "MunicipalChatConfig_F20123001_0016"
          }
        ]
      },
      "Trigger": {
        "Radius": 3.5,
        "DimX": 1.0,
        "DimY": 1.0,
        "DimZ": 1.0,
        "PointList": []
      },
      "CampID": 4,
      "MapLayerID": 2,
      "CustomTriggerMap": {},
      "CustomTriggerMapV2": {},
      "BridgeStateRotations": [],
      "DialogueGroups": [],
      "TalkDialogGroupIDList": [],
      "ServerInteractVerificationIDList": []
    }
  ],
  "NPCList": [
    {
      "ID": 400019,
      "PosX": -2.68,
      "PosY": 20.12357,
      "PosZ": -18.87,
      "Name": "NPC19",
      "RotY": 336.275,
      "NPCID": 2104,
      "DialogueGroups": [],
      "ServerInteractVerificationIDList": [],
      "DefaultLookAtMode": "Closed",
      "MapLayerID": 2,
      "BoardShowList": [
        1,
        64
      ],
      "OverrideNPCName": {
        "Hash": 179953086
      },
      "OverrideNPCTitle": {
        "Hash": -1987642313
      },
      "TalkDialogGroupIDList": [],
      "DefaultAnimationType": "IdleState",
      "BornType": "Permanent",
      "InitialHiddenNodeList": [],
      "Dialog": {
        "LevelGraph": "Config/Level/NPCDialogue/P20123/F20123001_G98/DialogueMain_F20123001_G98_N400019.json",
        "PackList": []
      },
      "SpawnConfig": {
        "CaptureDistanceTolerance": 10.0
      }
    },
    {
      "ID": 400001,
      "PosX": -2.09,
      "PosY": 19.99217,
      "PosZ": -68.21,
      "Name": "NPC1",
      "RotY": 72.22944,
      "NPCID": 2102,
      "DialogueGroups": [],
      "ServerInteractVerificationIDList": [],
      "DefaultLookAtMode": "Closed",
      "MapLayerID": 2,
      "BoardShowList": [
        4,
        8
      ],
      "TalkDialogGroupIDList": [],
      "DefaultIdleFreeStyleMotionID": 200110000,
      "InitialHiddenNodeList": []
    },
    {
      "ID": 400002,
      "PosX": 12.0,
      "PosY": 19.97829,
      "PosZ": -52.01,
      "Name": "NPC2",
      "RotY": 309.7202,
      "NPCID": 11202,
      "DialogueGroups": [],
      "ServerInteractVerificationIDList": [],
      "DefaultLookAtMode": "Closed",
      "MapLayerID": 2,
      "BoardShowList": [
        8
      ],
      "TalkDialogGroupIDList": [],
      "DefaultIdleFreeStyleMotionID": 100020230,
      "BornType": "Permanent",
      "InitialHiddenNodeList": [],
      "SpawnConfig": {
        "EntitySpawnConfig": {},
        "CaptureDistanceTolerance": 10.0
      }
    },
    {
      "ID": 400003,
      "PosX": 9.08,
      "PosY": 19.97829,
      "PosZ": -51.12,
      "Name": "NPC3",
      "RotY": 321.7916,
      "NPCID": 2103,
      "DialogueGroups": [],
      "ServerInteractVerificationIDList": [],
      "MapLayerID": 2,
      "BoardShowList": [],
      "TalkDialogGroupIDList": [],
      "DefaultIdleFreeStyleMotionID": 200070000,
      "InitialHiddenNodeList": [],
      "SpawnConfig": {
        "EntitySpawnConfig": {},
        "CaptureDistanceTolerance": 10.0
      }
    },
    {
      "ID": 400004,
      "PosX": 6.42,
      "PosY": 19.97829,
      "PosZ": -48.49,
      "Name": "NPC4",
      "RotY": 137.9937,
      "NPCID": 2104,
      "DialogueGroups": [],
      "ServerInteractVerificationIDList": [],
      "MapLayerID": 2,
      "BoardShowList": [],
      "TalkDialogGroupIDList": [],
      "DefaultIdleFreeStyleMotionID": 200070000,
      "InitialHiddenNodeList": [],
      "SpawnConfig": {
        "EntitySpawnConfig": {},
        "CaptureDistanceTolerance": 10.0
      }
    },
    {
      "ID": 400005,
      "PosX": 3.92,
      "PosY": 19.97829,
      "PosZ": -48.05,
      "Name": "NPC5",
      "RotY": 137.3098,
      "NPCID": 11101,
      "DialogueGroups": [],
      "ServerInteractVerificationIDList": [],
      "MapLayerID": 2,
      "BoardShowList": [
        8
      ],
      "TalkDialogGroupIDList": [],
      "DefaultIdleFreeStyleMotionID": 100010209,
      "InitialHiddenNodeList": []
    },
    {
      "ID": 400007,
      "PosX": -11.417,
      "PosY": 22.058,
      "PosZ": -41.97,
      "Name": "NPC7",
      "RotY": 99.80072,
      "NPCID": 11314,
      "StaticNPC": true,
      "DialogueGroups": [],
      "ServerInteractVerificationIDList": [],
      "MapLayerID": 2,
      "BoardShowList": [
        8
      ],
      "TalkDialogGroupIDList": [],
      "DefaultIdleFreeStyleMotionID": 100040298,
      "InitialHiddenNodeList": []
    },
    {
      "ID": 400008,
      "PosX": -8.966,
      "PosY": 19.97829,
      "PosZ": -43.403,
      "Name": "NPC8",
      "RotY": 299.4043,
      "NPCID": 11313,
      "DialogueGroups": [],
      "ServerInteractVerificationIDList": [],
      "MapLayerID": 2,
      "BoardShowList": [
        8
      ],
      "TalkDialogGroupIDList": [],
      "DefaultIdleFreeStyleMotionID": 100040291,
      "InitialHiddenNodeList": []
    },
    {
      "ID": 400009,
      "PosX": 6.9,
      "PosY": 19.97829,
      "PosZ": -44.58,
      "Name": "NPC9",
      "RotY": 180.2695,
      "NPCID": 11312,
      "DialogueGroups": [],
      "ServerInteractVerificationIDList": [],
      "MapLayerID": 2,
      "BoardShowList": [
        8
      ],
      "TalkDialogGroupIDList": [],
      "DefaultIdleFreeStyleMotionID": 100040328,
      "InitialHiddenNodeList": []
    },
    {
      "ID": 400010,
      "PosX": 10.07,
      "PosY": 19.97829,
      "PosZ": -54.9,
      "Name": "NPC10",
      "RotY": 325.4628,
      "NPCID": 11309,
      "DialogueGroups": [],
      "ServerInteractVerificationIDList": [],
      "MapLayerID": 2,
      "BoardShowList": [],
      "TalkDialogGroupIDList": [],
      "DefaultIdleFreeStyleMotionID": 100040329,
      "InitialHiddenNodeList": []
    },
    {
      "ID": 400011,
      "PosX": 8.68,
      "PosY": 19.97829,
      "PosZ": -44.19,
      "Name": "NPC11",
      "RotY": 188.5841,
      "NPCID": 11229,
      "DialogueGroups": [],
      "ServerInteractVerificationIDList": [],
      "MapLayerID": 2,
      "BoardShowList": [],
      "TalkDialogGroupIDList": [],
      "DefaultIdleFreeStyleMotionID": 100020222,
      "InitialHiddenNodeList": []
    },
    {
      "ID": 400012,
      "PosX": 5.42,
      "PosY": 19.97829,
      "PosZ": -54.32,
      "Name": "NPC12",
      "RotY": 37.39341,
      "NPCID": 11105,
      "DialogueGroups": [],
      "ServerInteractVerificationIDList": [],
      "MapLayerID": 2,
      "BoardShowList": [
        8
      ],
      "TalkDialogGroupIDList": [],
      "DefaultIdleFreeStyleMotionID": 100010296,
      "InitialHiddenNodeList": []
    },
    {
      "ID": 400013,
      "PosX": 9.45,
      "PosY": 19.97829,
      "PosZ": -45.0,
      "Name": "NPC13",
      "RotY": 213.0794,
      "NPCID": 11104,
      "DialogueGroups": [],
      "ServerInteractVerificationIDList": [],
      "MapLayerID": 2,
      "BoardShowList": [],
      "TalkDialogGroupIDList": [],
      "DefaultIdleFreeStyleMotionID": 100010210,
      "InitialHiddenNodeList": []
    },
    {
      "ID": 400014,
      "PosX": 2.57,
      "PosY": 19.97829,
      "PosZ": -51.01,
      "Name": "NPC14",
      "RotY": 86.26649,
      "NPCID": 11103,
      "DialogueGroups": [],
      "ServerInteractVerificationIDList": [],
      "MapLayerID": 2,
      "BoardShowList": [],
      "TalkDialogGroupIDList": [],
      "DefaultIdleFreeStyleMotionID": 100010000,
      "InitialHiddenNodeList": []
    },
    {
      "ID": 400015,
      "PosX": 3.17,
      "PosY": 19.97829,
      "PosZ": -51.29,
      "Name": "NPC15",
      "RotY": 59.19733,
      "NPCID": 11310,
      "DialogueGroups": [],
      "ServerInteractVerificationIDList": [],
      "MapLayerID": 2,
      "BoardShowList": [],
      "TalkDialogGroupIDList": [],
      "DefaultIdleFreeStyleMotionID": 100040210,
      "InitialHiddenNodeList": []
    },
    {
      "ID": 400016,
      "PosX": 27.383,
      "PosY": 19.99979,
      "PosZ": -58.445,
      "Name": "NPC16",
      "RotY": 132.6668,
      "NPCID": 11306,
      "DialogueGroups": [],
      "ServerInteractVerificationIDList": [],
      "MapLayerID": 2,
      "BoardShowList": [
        8
      ],
      "TalkDialogGroupIDList": [],
      "DefaultIdleFreeStyleMotionID": 100040327,
      "InitialHiddenNodeList": []
    },
    {
      "ID": 400017,
      "PosX": -6.29,
      "PosY": 19.98597,
      "PosZ": -55.04,
      "Name": "NPC17",
      "RotY": 163.7357,
      "NPCID": 2103,
      "DialogueGroups": [],
      "ServerInteractVerificationIDList": [],
      "MapLayerID": 2,
      "BoardShowList": [
        8
      ],
      "TalkDialogGroupIDList": [],
      "DefaultIdleFreeStyleMotionID": 200070211,
      "InitialHiddenNodeList": []
    },
    {
      "ID": 400018,
      "PosX": -5.55,
      "PosY": 19.98005,
      "PosZ": -57.65,
      "Name": "NPC18",
      "RotY": 337.7329,
      "NPCID": 11308,
      "DialogueGroups": [],
      "ServerInteractVerificationIDList": [],
      "MapLayerID": 2,
      "BoardShowList": [
        8
      ],
      "TalkDialogGroupIDList": [],
      "DefaultIdleFreeStyleMotionID": 100040222,
      "InitialHiddenNodeList": []
    },
    {
      "ID": 400006,
      "PosX": -11.85,
      "PosY": 19.97403,
      "PosZ": -41.96,
      "Name": "NPC6",
      "RotY": 72.66044,
      "NPCID": 2107,
      "DialogueGroups": [],
      "ServerInteractVerificationIDList": [],
      "MapLayerID": 2,
      "BoardShowList": [],
      "TalkDialogGroupIDList": [],
      "DefaultIdleFreeStyleMotionID": 200090000,
      "InitialHiddenNodeList": []
    },
    {
      "ID": 400020,
      "PosX": 11.2,
      "PosY": 19.97829,
      "PosZ": -37.54,
      "Name": "NPC20",
      "RotY": 323.691,
      "NPCID": 11103,
      "StaticNPC": true,
      "DialogueGroups": [],
      "ServerInteractVerificationIDList": [],
      "DefaultIdleStateName": "Distress01Loop",
      "DefaultLookAtMode": "Closed",
      "MapLayerID": 2,
      "BoardShowList": [
        8
      ],
      "TalkDialogGroupIDList": [],
      "DefaultIdleFreeStyleMotionID": 100010291,
      "BornType": "Permanent",
      "InitialHiddenNodeList": []
    },
    {
      "ID": 400021,
      "PosX": 26.45,
      "PosY": 19.97829,
      "PosZ": -48.04,
      "Name": "NPC21",
      "RotY": 172.9882,
      "NPCID": 2103,
      "StaticNPC": true,
      "DialogueGroups": [],
      "ServerInteractVerificationIDList": [],
      "DefaultLookAtMode": "Closed",
      "MapLayerID": 2,
      "BoardShowList": [],
      "TalkDialogGroupIDList": [],
      "DefaultAnimationType": "IdleState",
      "BornType": "Permanent",
      "InitialHiddenNodeList": []
    },
    {
      "ID": 400022,
      "PosX": 10.61,
      "PosY": 19.97829,
      "PosZ": -36.34,
      "Name": "NPC22",
      "RotY": 170.7908,
      "NPCID": 11203,
      "StaticNPC": true,
      "DialogueGroups": [],
      "ServerInteractVerificationIDList": [],
      "DefaultIdleStateName": "HoldArm01Loop",
      "DefaultLookAtMode": "Closed",
      "MapLayerID": 2,
      "BoardShowList": [],
      "TalkDialogGroupIDList": [],
      "DefaultIdleFreeStyleMotionID": 100020231,
      "BornType": "Permanent",
      "InitialHiddenNodeList": []
    },
    {
      "ID": 400023,
      "PosX": 26.48,
      "PosY": 19.97829,
      "PosZ": -49.85,
      "Name": "NPC23",
      "RotY": 342.1552,
      "NPCID": 11205,
      "StaticNPC": true,
      "DialogueGroups": [],
      "ServerInteractVerificationIDList": [],
      "DefaultIdleStateName": "Akimbo02Loop",
      "DefaultLookAtMode": "Closed",
      "MapLayerID": 2,
      "BoardShowList": [
        8
      ],
      "TalkDialogGroupIDList": [],
      "DefaultIdleFreeStyleMotionID": 100020216,
      "BornType": "Permanent",
      "InitialHiddenNodeList": []
    },
    {
      "ID": 400024,
      "PosX": 26.047,
      "PosY": 19.97829,
      "PosZ": -39.825,
      "Name": "NPC24",
      "RotY": 259.8864,
      "NPCID": 11104,
      "StaticNPC": true,
      "DialogueGroups": [],
      "ServerInteractVerificationIDList": [],
      "DefaultIdleStateName": "LeanLoop",
      "DefaultLookAtMode": "Closed",
      "MapLayerID": 2,
      "BoardShowList": [
        8
      ],
      "TalkDialogGroupIDList": [],
      "DefaultIdleFreeStyleMotionID": 100010237,
      "BornType": "Permanent",
      "InitialHiddenNodeList": []
    }
  ]
}