{
  "GroupGUID": "f048c89a-f27a-4a29-a18f-c44807a877e9",
  "GroupName": "RogueDLC130_Boss",
  "Category": "Custom",
  "LevelGraph": "Config/Level/Maze/MazeRogue/Rogue130/RogueDLCModule_BossRoom.json",
  "AreaAnchorName": "LevelArea_P80203_F80203001_G12",
  "LoadSide": "Server",
  "LoadOnInitial": true,
  "ConflictIDList": [],
  "IsHoyoGroup": true,
  "ConflictSpatialInfo": {
    "CompactGridList": [
      94,
      -63
    ],
    "LowerUpperBounds": {
      "x": 191,
      "y": 192
    }
  },
  "StreamingSpatialInfo": {
    "CompactGridList": [
      94,
      -63
    ],
    "LowerUpperBounds": {
      "x": 191,
      "y": 192
    }
  },
  "ConflictWhiteList": [],
  "AnchorList": [],
  "MonsterList": [
    {
      "ID": 200001,
      "PosX": 188.6,
      "PosY": 28.38939,
      "PosZ": -125.19,
      "Name": "Monster1",
      "RotY": 195.0,
      "NPCMonsterID": 1002040,
      "AIConfig": {
        "AIFile": "Config/ConfigAI/Adventure/NPCMonster/ST_NPCMonster_Master_Dummy.json",
        "PathwayList": [],
        "SlaveConfigList": []
      },
      "CampID": 3,
      "BattleArea": {
        "GroupID": 2,
        "ID": 1
      },
      "EventID": 99999011,
      "MapLayerID": 1,
      "BoardShowList": [
        4
      ],
      "DefaultLookAtMode": "Closed",
      "TagList": []
    }
  ],
  "PropList": [
    {
      "ID": 300001,
      "PosX": 188.6,
      "PosY": 28.38939,
      "PosZ": -125.19,
      "Name": "Buff",
      "PropID": 100,
      "IsOverrideInitLevelGraph": true,
      "InitLevelGraph": "Config/Level/Maze/MazeRogue/Maze_Rogue_Prop_TriggerBuffSelect.json",
      "Trigger": {
        "Radius": 2.0,
        "DimX": 1.0,
        "DimY": 1.0,
        "DimZ": 1.0,
        "PointList": []
      },
      "CampID": 4,
      "MapLayerID": 1,
      "CustomTriggerMap": {},
      "CustomTriggerMapV2": {},
      "BridgeStateRotations": [],
      "DialogueGroups": [],
      "TalkDialogGroupIDList": [],
      "ServerInteractVerificationIDList": []
    },
    {
      "ID": 300003,
      "PosX": 188.6,
      "PosY": 28.38939,
      "PosZ": -125.19,
      "Name": "Prop3",
      "RotY": 180.0,
      "PropID": 100,
      "IsOverrideInitLevelGraph": true,
      "CampID": 4,
      "MapLayerID": 1,
      "CustomTriggerMap": {},
      "CustomTriggerMapV2": {},
      "BridgeStateRotations": [],
      "DialogueGroups": [],
      "TalkDialogGroupIDList": [],
      "ServerInteractVerificationIDList": [],
      "OverrideMapStateIcons": [
        {
          "IconID": 97
        }
      ]
    }
  ],
  "NPCList": []
}