{
  "GroupGUID": "07ee2252-ac55-4def-a67c-627b375521b4",
  "GroupName": "RogueDLC130_Elite",
  "Category": "Custom",
  "LevelGraph": "Config/Level/Maze/MazeRogue/Rogue130/RogueDLCModule_EliteRoom.json",
  "AreaAnchorName": "LevelArea_P80207_F80207001_G62",
  "LoadSide": "Server",
  "LoadOnInitial": true,
  "ConflictIDList": [],
  "IsHoyoGroup": true,
  "ConflictSpatialInfo": {
    "CompactGridList": [
      -19,
      -44
    ],
    "LowerUpperBounds": {
      "x": 2046,
      "y": 2047
    }
  },
  "StreamingSpatialInfo": {
    "CompactGridList": [
      -19,
      -44
    ],
    "LowerUpperBounds": {
      "x": 2046,
      "y": 2047
    }
  },
  "ConflictWhiteList": [],
  "AnchorList": [],
  "MonsterList": [
    {
      "ID": 200001,
      "PosX": -36.37,
      "PosY": 3.929908,
      "PosZ": -86.12001,
      "Name": "Monster1",
      "NPCMonsterID": 1002040,
      "AIConfig": {
        "AIFile": "Config/ConfigAI/Adventure/NPCMonster/ST_NPCMonster_Master_Dummy.json",
        "PathwayList": [],
        "SlaveConfigList": []
      },
      "CampID": 3,
      "BattleArea": {
        "GroupID": 2,
        "ID": 1
      },
      "EventID": 99999011,
      "MapLayerID": 1,
      "BoardShowList": [
        4
      ],
      "TagList": []
    }
  ],
  "PropList": [
    {
      "ID": 300001,
      "PosX": -36.37,
      "PosY": 3.929908,
      "PosZ": -86.12,
      "Name": "Buff",
      "RotY": 15.00001,
      "PropID": 100,
      "IsOverrideInitLevelGraph": true,
      "InitLevelGraph": "Config/Level/Maze/MazeRogue/Maze_Rogue_Prop_TriggerBuffSelect.json",
      "Trigger": {
        "Radius": 2.0,
        "DimX": 1.0,
        "DimY": 1.0,
        "DimZ": 1.0,
        "PointList": []
      },
      "CampID": 4,
      "MapLayerID": 1,
      "CustomTriggerMap": {},
      "CustomTriggerMapV2": {},
      "BridgeStateRotations": [],
      "DialogueGroups": [],
      "TalkDialogGroupIDList": [],
      "ServerInteractVerificationIDList": []
    },
    {
      "ID": 300002,
      "PosX": -36.37,
      "PosY": 3.929908,
      "PosZ": -86.12,
      "Name": "Prop2",
      "RotY": 180.0,
      "PropID": 100,
      "IsOverrideInitLevelGraph": true,
      "CampID": 4,
      "MapLayerID": 1,
      "CustomTriggerMap": {},
      "CustomTriggerMapV2": {},
      "BridgeStateRotations": [],
      "DialogueGroups": [],
      "TalkDialogGroupIDList": [],
      "ServerInteractVerificationIDList": [],
      "OverrideMapStateIcons": [
        {
          "IconID": 97
        }
      ]
    }
  ],
  "NPCList": []
}